https://flagwix.com/products/make-love-not-war-hippie-flag-trl70f/,Make Love Not War Hippie Flag,https://assets.flagwix.com/wp-content/uploads/2020/07/db26cacb-2b49-4479-befa-206348032295.jpg,https://assets.flagwix.com/wp-content/uploads/2020/07/356819de-505e-439a-9a5a-1ea5934e5a62.jpg,https://assets.flagwix.com/wp-content/uploads/2020/07/0cacf769-6734-43ae-9921-5f0272d8b3bf.jpg,https://assets.flagwix.com/wp-content/uploads/2020/07/9562527e-621d-4f01-9d32-7b0ec7581f55.jpg,https://assets.flagwix.com/wp-content/uploads/2020/07/28188623-8ad8-438e-9ff6-7b6e7cbf10ad.jpg,https://assets.flagwix.com/wp-content/uploads/2020/07/ae8488b2-64d5-4906-af16-74aa89ad94d4.jpg,https://assets.flagwix.com/wp-content/uploads/2020/07/49e535fe-c3e6-4cef-8938-6a42a1ca86a8.jpg,https://assets.flagwix.com/wp-content/uploads/2020/07/95a148df-735b-4184-b0f7-79847a0c6303.jpg,https://assets.flagwix.com/wp-content/uploads/2020/07/01634106-7244-4b1c-baa7-290691837136.jpg,https://assets.flagwix.com/wp-content/uploads/2020/07/8fedac45-fcd8-4dcf-8023-20966bbc950c.jpg
https://flagwix.com/products/not-all-who-wander-are-lost-w-e-e-d-hill-flag-dlp18f/,Not All Who Wander Are Lost W.e.e.d Hill Flag,https://assets.flagwix.com/wp-content/uploads/2020/06/b8e6bb15-5287-4fef-985f-6509fd00cc30.jpg,https://assets.flagwix.com/wp-content/uploads/2020/06/3ae5541b-fa38-4d9d-9673-e9850c029adf.jpg,https://assets.flagwix.com/wp-content/uploads/2020/06/874e3216-dfcc-4cea-9d63-1eea77412f52.jpg,https://assets.flagwix.com/wp-content/uploads/2020/06/99ab022c-c252-411a-9dc7-83af089c3f22.jpg,https://assets.flagwix.com/wp-content/uploads/2020/06/fa5a6d94-ffe7-4e6e-b5dc-4fa6c540abbc.jpg,https://assets.flagwix.com/wp-content/uploads/2020/06/33e88ed4-8e85-4c0f-94b4-f63785a52b27.jpg,https://assets.flagwix.com/wp-content/uploads/2020/06/3d80ff0c-1da6-42cf-b59a-9e30f5986682.jpg,https://assets.flagwix.com/wp-content/uploads/2020/06/f6c359ed-5df0-42d4-8ccd-e985eb70556b.jpg,https://assets.flagwix.com/wp-content/uploads/2020/06/bc79757a-95e7-4d93-8f7d-b90df144ea4e.jpg,https://assets.flagwix.com/wp-content/uploads/2020/06/b86422cb-e24f-4620-b9cd-b8740efd2ae6.jpg
https://flagwix.com/products/dont-panic-its-organic-marijuana-flag-ddh1738f/,Don’t Panic It’s Organic Marijuana Flag,https://assets.flagwix.com/wp-content/uploads/2020/06/5e967809-fccf-4367-a6b3-5cff5c1fdce2.jpg,https://assets.flagwix.com/wp-content/uploads/2020/06/6101f83d-7b20-4269-819a-7bd687d874d2.jpg,https://assets.flagwix.com/wp-content/uploads/2020/06/38123003-4c54-460b-846d-15b9455d2f29.jpg,https://assets.flagwix.com/wp-content/uploads/2020/06/bb474b68-fd01-4818-909d-35ecc36f0949.jpg,https://assets.flagwix.com/wp-content/uploads/2020/06/c47d9362-cc50-49ed-b506-84e5134bbc10.jpg,https://assets.flagwix.com/wp-content/uploads/2020/06/1245c45a-d0b2-457a-b9e4-c6e79878514a.jpg,https://assets.flagwix.com/wp-content/uploads/2020/06/61c6f9c2-62ba-4f30-bca7-7e21b58d5709.jpg,https://assets.flagwix.com/wp-content/uploads/2020/06/5a4a42f7-a30c-43a6-a355-427a13a42883.jpg,https://assets.flagwix.com/wp-content/uploads/2020/06/1cb36da9-cc95-4946-8f89-fde481a77f5c.jpg,https://assets.flagwix.com/wp-content/uploads/2020/06/bc3d78d6-03b9-4c1c-9461-a8f0008021cc.jpg
https://flagwix.com/products/free-w-e-e-d-hill-flag-pn265f/,Free W.e.e.d Hill Flag,https://assets.flagwix.com/wp-content/uploads/2020/06/48e26f24-9c21-4199-a632-97d7f941eb4a.jpg,https://assets.flagwix.com/wp-content/uploads/2020/06/6ad48a6a-e4af-4564-91d6-2cf8eca20fd0.jpg,https://assets.flagwix.com/wp-content/uploads/2020/06/17b16a9f-5de4-43da-8f76-3fd34671448a.jpg,https://assets.flagwix.com/wp-content/uploads/2020/06/2ea090c6-d8fc-4e01-95f2-b00ae987fc00.jpg,https://assets.flagwix.com/wp-content/uploads/2020/06/c29d8857-f988-4599-bbc1-0ebc7aeb415d.jpg,https://assets.flagwix.com/wp-content/uploads/2020/06/c3f4289c-d1f3-428d-aebd-62763cba31a5.jpg,https://assets.flagwix.com/wp-content/uploads/2020/06/11f0ff3a-66af-4442-8531-647780bb1040.jpg,https://assets.flagwix.com/wp-content/uploads/2020/06/cf2d56fe-1427-4c6c-9474-e7412aacdb99.jpg,https://assets.flagwix.com/wp-content/uploads/2020/06/4757619d-850a-4e3f-948f-69ceab9c36c1.jpg,https://assets.flagwix.com/wp-content/uploads/2020/06/76a20f32-eb42-4e64-bfbd-1849f766ae68.jpg
https://flagwix.com/products/hippie-marijuana-leaf-420-flag-thb2182f/,Hippie Marijuana Leaf 420 Flag,https://assets.flagwix.com/wp-content/uploads/2020/06/a971277e-f4a5-49f2-b51e-63a25952353b.jpg,https://assets.flagwix.com/wp-content/uploads/2020/06/2944565e-9d44-4e1c-b953-84983485cc91.jpg,https://assets.flagwix.com/wp-content/uploads/2020/06/826c9e2d-a4cd-459a-b53d-ae690b195e41.jpg,https://assets.flagwix.com/wp-content/uploads/2020/06/265a2c34-3edb-4714-aa89-e19be05579aa.jpg,https://assets.flagwix.com/wp-content/uploads/2020/06/56e97a67-16fe-4816-a8bf-11186034ed91.jpg,https://assets.flagwix.com/wp-content/uploads/2020/06/50634617-4200-4181-89c3-eaf585413af4.jpg,https://assets.flagwix.com/wp-content/uploads/2020/06/45f21bbf-3951-4093-8bca-96d16c1f8c4b.jpg,https://assets.flagwix.com/wp-content/uploads/2020/06/445296e3-fea6-4828-838b-2e64179fcae7.jpg,https://assets.flagwix.com/wp-content/uploads/2020/06/9ec2dd18-ad7e-4a2a-9345-264ed03f4d8f.jpg,https://assets.flagwix.com/wp-content/uploads/2020/06/81270e5f-4b53-4f52-9e90-bd98dff299d2.jpg
https://flagwix.com/products/pot-for-pride-lgbt-flag-dbx1641f/,Pot For Pride LGBT Flag,https://assets.flagwix.com/wp-content/uploads/2020/06/24b572f6-ddf0-45a9-b1a1-d80815aeed3c.jpg,https://assets.flagwix.com/wp-content/uploads/2020/06/341568ad-0f9b-48d5-8f66-899ccb00acf6.jpg,https://assets.flagwix.com/wp-content/uploads/2020/06/b365928a-0c28-4d90-b434-7308928775fe.jpg,https://assets.flagwix.com/wp-content/uploads/2020/06/849f6850-e6d5-4130-8fe0-62de58a5e303.jpg,https://assets.flagwix.com/wp-content/uploads/2020/06/19018c98-9b6e-4bf9-8f42-9e71b52d3fc3.jpg,https://assets.flagwix.com/wp-content/uploads/2020/06/9bf3abf4-5a68-46ff-b6b2-26bf43822ae0.jpg,https://assets.flagwix.com/wp-content/uploads/2020/06/24035592-ff36-4539-b434-269794ab4925.jpg,https://assets.flagwix.com/wp-content/uploads/2020/06/870aa297-9fcd-4562-ad0b-5ea067041149.jpg,https://assets.flagwix.com/wp-content/uploads/2020/06/0e22e0ad-b501-4639-86ca-5525cec18724.jpg,https://assets.flagwix.com/wp-content/uploads/2020/06/2c7441d4-4ee0-425b-a58e-282dad6e17d8.jpg
https://flagwix.com/products/legalize-freedom-green-cannabis-flag-dbx1639f/,Legalize Freedom Green Cannabis Flag,https://assets.flagwix.com/wp-content/uploads/2020/06/fd1af32e-c3ea-498e-90ec-645a35263c13.jpg,https://assets.flagwix.com/wp-content/uploads/2020/06/e4f5bcb6-6bba-4355-a829-7e2ad8426a00.jpg,https://assets.flagwix.com/wp-content/uploads/2020/06/a28c18d5-cf8d-448d-aff0-1264b8b351c9.jpg,https://assets.flagwix.com/wp-content/uploads/2020/06/9de83bb1-e8ca-4401-a4f8-952f879a7cb0.jpg,https://assets.flagwix.com/wp-content/uploads/2020/06/d0ace199-fbff-42c3-9db4-fed60fdbaa3a.jpg,https://assets.flagwix.com/wp-content/uploads/2020/06/902ed672-7ddf-4421-87ed-8e826b0efb6d.jpg,https://assets.flagwix.com/wp-content/uploads/2020/06/bd38f53f-b729-44f8-a423-42d938367aab.jpg,https://assets.flagwix.com/wp-content/uploads/2020/06/19ac63ab-fc63-415d-ab2e-4aae7015b119.jpg,https://assets.flagwix.com/wp-content/uploads/2020/06/76f21b84-18e7-4c9a-85b2-5e6119b31cae.jpg,https://assets.flagwix.com/wp-content/uploads/2020/06/48a3fc80-2739-4a98-ac4d-0382ce86b3c8.jpg
https://flagwix.com/products/every-little-thing-is-gonna-be-alright-hippie-flag-ddh1598f/,Every Little Thing Is Gonna Be Alright Hippie Flag,https://assets.flagwix.com/wp-content/uploads/2020/06/d9c533fc-a870-4b5d-beba-22db881353a8.jpg,https://assets.flagwix.com/wp-content/uploads/2020/06/0ef647c9-df44-48f6-b60b-bc370cd5236d.jpg,https://assets.flagwix.com/wp-content/uploads/2020/06/1895d498-8bbc-47b6-94c8-ad0498d25f93.jpg,https://assets.flagwix.com/wp-content/uploads/2020/06/4e142e12-f141-43fb-8da6-ce7855a6907d.jpg,https://assets.flagwix.com/wp-content/uploads/2020/06/74870023-8528-4015-9acf-2d8c07575bf5.jpg,https://assets.flagwix.com/wp-content/uploads/2020/06/7d490e1c-b6e2-4284-a1c4-b8fa58e93800.jpg,https://assets.flagwix.com/wp-content/uploads/2020/06/992a534f-db27-40b1-a073-498743469ae8.jpg,https://assets.flagwix.com/wp-content/uploads/2020/06/d8411f35-ba9f-476b-adef-b264e73dc7f8.jpg,https://assets.flagwix.com/wp-content/uploads/2020/06/f58a32ce-faab-4c11-97eb-7663c956d360.jpg,https://assets.flagwix.com/wp-content/uploads/2020/06/738aa5da-d050-41d0-827d-b47778dd270d.jpg
https://flagwix.com/products/stay-trippy-little-hippie-flag-ddh1629f/,Stay Trippy Little Hippie Flag,https://assets.flagwix.com/wp-content/uploads/2020/06/fef68287-77ec-4be1-8bf0-2688edb3ab80.jpg,https://assets.flagwix.com/wp-content/uploads/2020/06/0c73f0ba-b3be-4075-9a1f-d5b4992cda98.jpg,https://assets.flagwix.com/wp-content/uploads/2020/06/3e52ea9e-0939-41be-9f9d-23faba1aa76b.jpg,https://assets.flagwix.com/wp-content/uploads/2020/06/aead1ee7-1b96-4dcf-ae29-30ad56f5a58b.jpg,https://assets.flagwix.com/wp-content/uploads/2020/06/dc7bf373-1bd4-4075-9b30-eec56213b7e9.jpg,https://assets.flagwix.com/wp-content/uploads/2020/06/a8f7a321-e889-4593-926a-4760f22d42e5.jpg,https://assets.flagwix.com/wp-content/uploads/2020/06/a559c221-b69f-49e6-aa16-6c2c37f3b8f5.jpg,https://assets.flagwix.com/wp-content/uploads/2020/06/f9a5b9e2-633c-4fe3-b886-80d6a26433f8.jpg,https://assets.flagwix.com/wp-content/uploads/2020/06/8519610b-1ae4-4f06-9573-be0027162576.jpg,https://assets.flagwix.com/wp-content/uploads/2020/06/4f72cebe-46ff-43e9-b6f0-3eca143cba37.jpg
https://flagwix.com/products/marijuana-leaf-american-flag-thn2113f/,Marijuana Leaf American Flag,https://assets.flagwix.com/wp-content/uploads/2020/05/44cdeb8a-2323-4f33-91e9-efa8a7b73bc4.jpg,https://assets.flagwix.com/wp-content/uploads/2020/05/ef341ad9-be31-4183-a276-81e5f65427ff.jpg,https://assets.flagwix.com/wp-content/uploads/2020/05/c19ff140-8ff3-4900-89cc-9a9a5e1f756e.jpg,https://assets.flagwix.com/wp-content/uploads/2020/05/8cccbbe6-50e1-4da9-8fb4-f8dbcdaf70ac.jpg,https://assets.flagwix.com/wp-content/uploads/2020/05/60d95e9c-ec4d-4e3b-a802-a85126087d0b.jpg,https://assets.flagwix.com/wp-content/uploads/2020/05/4ec91683-36a3-44dc-b650-d75e4db5b110.jpg,https://assets.flagwix.com/wp-content/uploads/2020/05/b791fc1b-1b84-472a-8eca-be0969bd9dda.jpg,https://assets.flagwix.com/wp-content/uploads/2020/05/96ef115e-6a83-4f98-934c-3d27c5ed70ac.jpg,https://assets.flagwix.com/wp-content/uploads/2020/05/2d50787c-b5a7-4f19-b1e6-c295e8e3ea2c.jpg,https://assets.flagwix.com/wp-content/uploads/2020/05/bbd102e7-9984-4de1-bea8-55e6c11e53f8.jpg
