https://www.lamboyss.com/products/skull-women-s-lace-up-canvas-boots-ch140804,Skull Women's Lace Up Canvas Boots CH140804
https://www.lamboyss.com/products/wolf-women-s-lace-up-canvas-boots-ch050842,Wolf Women's Lace Up Canvas Boots CH050842,https://img.btdmp.com/10094/10094079/products/1596619423bc208f0e25.jpeg,https://img.btdmp.com/10094/10094079/products/15966194226886935ee4.jpeg,https://img.btdmp.com/10094/10094079/products/1596619423a752d8dd69.jpeg
https://www.lamboyss.com/products/mandala-women-s-lace-up-canvas-boots-ch050841,Mandala Women's Lace Up Canvas Boots CH050841,https://img.btdmp.com/10094/10094079/products/159661930245a0b228e7.jpeg,https://img.btdmp.com/10094/10094079/products/1596619302bb2c5d5e9e.jpeg,https://img.btdmp.com/10094/10094079/products/1596619302088b27e1cf.jpeg
https://www.lamboyss.com/products/floral-women-s-lace-up-canvas-boots-ch050840,Floral Women's Lace Up Canvas Boots CH050840,https://img.btdmp.com/10094/10094079/products/159661916724d31b3451.jpeg,https://img.btdmp.com/10094/10094079/products/15966191675639aa869f.jpeg,https://img.btdmp.com/10094/10094079/products/159661916707edcafbcc.jpeg
https://www.lamboyss.com/products/yoga-women-s-lace-up-canvas-boots-ch050839,Yoga Women's Lace Up Canvas Boots CH050839,https://img.btdmp.com/10094/10094079/products/1596619051ea323ab67a.jpeg,https://img.btdmp.com/10094/10094079/products/159661905122dce4921e.jpeg,https://img.btdmp.com/10094/10094079/products/1596619051006da4b47f.jpeg
https://www.lamboyss.com/products/hippie-women-s-lace-up-canvas-boots-ch050838,Hippie Women's Lace Up Canvas Boots CH050838,https://img.btdmp.com/10094/10094079/products/1596618917abdd815872.jpeg
https://www.lamboyss.com/products/mandala-women-s-lace-up-canvas-boots-ch050837,Mandala Women's Lace Up Canvas Boots CH050837,https://img.btdmp.com/10094/10094079/products/1596618792dd22807fee.jpeg,https://img.btdmp.com/10094/10094079/products/1596618793795b25fd27.jpeg,https://img.btdmp.com/10094/10094079/products/15966187932bfe41edbf.jpeg
https://www.lamboyss.com/products/elephant-women-s-lace-up-canvas-boots-ch050836,Elephant Women's Lace Up Canvas Boots CH050836,https://img.btdmp.com/10094/10094079/products/1596618654fd653e5a2a.jpeg,https://img.btdmp.com/10094/10094079/products/15966186549e4a7f2b37.jpeg,https://img.btdmp.com/10094/10094079/products/15966186543fb184fd42.jpeg
https://www.lamboyss.com/products/mandala-women-s-lace-up-canvas-boots-ch050835,Mandala Women's Lace Up Canvas Boots CH050835,https://img.btdmp.com/10094/10094079/products/159661851782e4e08168.jpeg,https://img.btdmp.com/10094/10094079/products/1596618518b6e95f53eb.jpeg,https://img.btdmp.com/10094/10094079/products/159661851747f4358878.jpeg
https://www.lamboyss.com/products/mandala-women-s-lace-up-canvas-boots-ch050834,Mandala Women's Lace Up Canvas Boots CH050834,https://img.btdmp.com/10094/10094079/products/15966183888d6c132c0b.jpeg,https://img.btdmp.com/10094/10094079/products/159661838712e9d2286b.jpeg,https://img.btdmp.com/10094/10094079/products/1596618388eeb1e83dc5.jpeg
https://www.lamboyss.com/products/mandala-women-s-lace-up-canvas-boots-ch050833,Mandala Women's Lace Up Canvas Boots CH050833,https://img.btdmp.com/10094/10094079/products/15966181604159366524.jpeg,https://img.btdmp.com/10094/10094079/products/1596618160e57088f170.jpeg,https://img.btdmp.com/10094/10094079/products/15966181608f976d9e12.jpeg
https://www.lamboyss.com/products/meditation-women-s-lace-up-canvas-boots-ch050832,Meditation Women's Lace Up Canvas Boots CH050832,https://img.btdmp.com/10094/10094079/products/159661802315a83e2584.jpeg,https://img.btdmp.com/10094/10094079/products/159661802356e43790bf.jpeg,https://img.btdmp.com/10094/10094079/products/15966180240d7ad82ce5.jpeg
https://www.lamboyss.com/products/hippie-women-s-lace-up-canvas-boots-ch050831,Hippie Women's Lace Up Canvas Boots CH050831,https://img.btdmp.com/10094/10094079/products/1596617779b621d20646.jpeg,https://img.btdmp.com/10094/10094079/products/159661779167f346a593.jpeg,https://img.btdmp.com/10094/10094079/products/1596617791cad7d36f40.jpeg
https://www.lamboyss.com/products/hippie-women-s-lace-up-canvas-boots-ch050830,Hippie Women's Lace Up Canvas Boots CH050830,https://img.btdmp.com/10094/10094079/products/1596617631188fdd5298.jpeg,https://img.btdmp.com/10094/10094079/products/1596617631d32d47ca5a.jpeg,https://img.btdmp.com/10094/10094079/products/1596617637f432c60fae.jpeg
https://www.lamboyss.com/products/hippie-women-s-lace-up-canvas-boots-ch050829,Hippie Women's Lace Up Canvas Boots CH050829,https://img.btdmp.com/10094/10094079/products/15966173320d4a0e5d79.jpeg,https://img.btdmp.com/10094/10094079/products/1596617332402059c73a.jpeg,https://img.btdmp.com/10094/10094079/products/1596617333096853c5d6.jpeg
https://www.lamboyss.com/products/hippie-women-s-lace-up-canvas-boots-ch050828,Hippie Women's Lace Up Canvas Boots CH050828,https://img.btdmp.com/10094/10094079/products/1596617123329c133120.jpeg,https://img.btdmp.com/10094/10094079/products/159661712303bd04a683.jpeg,https://img.btdmp.com/10094/10094079/products/1596617123a63cb391c6.jpeg
https://www.lamboyss.com/products/hippie-women-s-lace-up-canvas-boots-ch050827, Hippie Women's Lace Up Canvas Boots CH050827,https://img.btdmp.com/10094/10094079/products/1596616994d4cbd78161.jpeg,https://img.btdmp.com/10094/10094079/products/1596616994814ce0f55d.jpeg,https://img.btdmp.com/10094/10094079/products/1596616994ff04c5609e.jpeg
https://www.lamboyss.com/products/mandala-women-s-lace-up-canvas-boots-ch050826,Mandala Women's Lace Up Canvas Boots CH050826,https://img.btdmp.com/10094/10094079/products/1596616701d0460a31c3.jpeg,https://img.btdmp.com/10094/10094079/products/1596616702fcf36f5096.jpeg,https://img.btdmp.com/10094/10094079/products/1596616701bff43403c7.jpeg
https://www.lamboyss.com/products/mandala-women-s-lace-up-canvas-boots-ch050825,Mandala Women's Lace Up Canvas Boots CH050825,https://img.btdmp.com/10094/10094079/products/15966164998a286be789.jpeg,https://img.btdmp.com/10094/10094079/products/15966164994b0bbece8e.jpeg,https://img.btdmp.com/10094/10094079/products/15966164991475fd76ff.jpeg
https://www.lamboyss.com/products/meditation-women-s-lace-up-canvas-boots-ch050824,Meditation Women's Lace Up Canvas Boots CH050824,https://img.btdmp.com/10094/10094079/products/1596616340d9110e5666.jpeg,https://img.btdmp.com/10094/10094079/products/15966163407adb14f88c.jpeg,https://img.btdmp.com/10094/10094079/products/1596616340c7a4a95d75.jpeg
https://www.lamboyss.com/products/mandala-women-s-lace-up-canvas-boots-ch050823,Mandala Women's Lace Up Canvas Boots CH050823,https://img.btdmp.com/10094/10094079/products/15966161826f29762e50.jpeg,https://img.btdmp.com/10094/10094079/products/1596616183d042c40f08.jpeg,https://img.btdmp.com/10094/10094079/products/15966161837f6381394a.jpeg
https://www.lamboyss.com/products/mandala-women-s-lace-up-canvas-boots-ch050822,Mandala Women's Lace Up Canvas Boots CH050822,https://img.btdmp.com/10094/10094079/products/159661594932d15d1a39.jpeg,https://img.btdmp.com/10094/10094079/products/159661594949c02eefeb.jpeg,https://img.btdmp.com/10094/10094079/products/1596615949f5a460810f.jpeg
https://www.lamboyss.com/products/mandala-women-s-lace-up-canvas-boots-ch050821,Mandala Women's Lace Up Canvas Boots CH050821,https://img.btdmp.com/10094/10094079/products/1596615754f2b8d07d0a.jpeg,https://img.btdmp.com/10094/10094079/products/1596615754d6972ef496.jpeg,https://img.btdmp.com/10094/10094079/products/1596615754aa64889fbd.jpeg
https://www.lamboyss.com/products/gear-women-s-lace-up-canvas-boots-ch250702,Gear Women's Lace Up Canvas Boots CH250702,https://img.btdmp.com/10094/10094079/products/15956710278d032e4e31.jpeg
https://www.lamboyss.com/products/dragonfly-women-s-lace-up-canvas-boots-ch240704,Dragonfly Women's Lace Up Canvas Boots CH240704,https://img.btdmp.com/10094/10094079/products/1595576614f724aef273.jpeg,https://img.btdmp.com/10094/10094079/products/159557661542549f51fe.jpeg,https://img.btdmp.com/10094/10094079/products/159557661533ad78db3b.jpeg
https://www.lamboyss.com/products/meditation-women-s-lace-up-canvas-boots-ch240701,Meditation Women's Lace Up Canvas Boots CH240701,https://img.btdmp.com/10094/10094079/products/15955761361b096930a7.jpeg,https://img.btdmp.com/10094/10094079/products/15955761363441ec5217.jpeg
https://www.lamboyss.com/products/men-s-lace-up-canvas-boots-ch230704,Men's Lace Up Canvas Boots CH230704,https://img.btdmp.com/10094/10094079/products/15954988066587f89e51.jpeg,https://img.btdmp.com/10094/10094079/products/1595498806247248a39d.jpeg,https://img.btdmp.com/10094/10094079/products/15954988060d1e0fc95f.jpeg
https://www.lamboyss.com/products/yin-and-yang-women-s-lace-up-canvas-boots-ch230726,Yin and Yang Women's Lace Up Canvas Boots CH230726,https://img.btdmp.com/10094/10094079/products/1595495317415949ee20.jpeg
https://www.lamboyss.com/products/fish-women-s-lace-up-canvas-boots-ch230725,Fish Women's Lace Up Canvas Boots CH230725,https://img.btdmp.com/10094/10094079/products/15954950919eb62c9de6.jpeg,https://img.btdmp.com/10094/10094079/products/1595495091bb469c0437.jpeg,https://img.btdmp.com/10094/10094079/products/159549509132027ce160.jpeg
https://www.lamboyss.com/products/mandala-women-s-lace-up-canvas-boots-ch230724,Mandala Women's Lace Up Canvas Boots CH230724,https://img.btdmp.com/10094/10094079/products/1595494952063aadfe5a.jpeg,https://img.btdmp.com/10094/10094079/products/1595494952904153f16a.jpeg,https://img.btdmp.com/10094/10094079/products/15954949522cc711b92c.jpeg
https://www.lamboyss.com/products/peacock-mandala-women-s-lace-up-canvas-boots-ch230723,Peacock Mandala Women's Lace Up Canvas Boots CH230723,https://img.btdmp.com/10094/10094079/products/15954948042a4294108c.jpeg,https://img.btdmp.com/10094/10094079/products/159549480329dcec7a28.jpeg,https://img.btdmp.com/10094/10094079/products/15954948044c34e45551.jpeg
https://www.lamboyss.com/products/hippie-women-s-lace-up-canvas-boots-ch230722,Hippie Women's Lace Up Canvas Boots CH230722,https://img.btdmp.com/10094/10094079/products/1595494663633b613b26.jpeg,https://img.btdmp.com/10094/10094079/products/159549466470150fddec.jpeg,https://img.btdmp.com/10094/10094079/products/159549466438cdfb7818.jpeg
https://www.lamboyss.com/products/cat-women-s-lace-up-canvas-boots-ch230721,Cat Women's Lace Up Canvas Boots CH230721,https://img.btdmp.com/10094/10094079/products/15954944627d6f4710cd.jpeg,https://img.btdmp.com/10094/10094079/products/1595494463e09726f291.jpeg,https://img.btdmp.com/10094/10094079/products/15954944638a5d796c70.jpeg
https://www.lamboyss.com/products/cat-women-s-lace-up-canvas-boots-ch230720,Cat Women's Lace Up Canvas Boots CH230720,https://img.btdmp.com/10094/10094079/products/15954943367eadb1534d.jpeg,https://img.btdmp.com/10094/10094079/products/1595494336d1ac96f23e.jpeg,https://img.btdmp.com/10094/10094079/products/1595494336c8b37c27f1.jpeg
https://www.lamboyss.com/products/cat-women-s-lace-up-canvas-boots-ch230719,Cat Women's Lace Up Canvas Boots CH230719,https://img.btdmp.com/10094/10094079/products/1595494120ca9c99be7b.jpeg,https://img.btdmp.com/10094/10094079/products/1595494120f98a7620d1.jpeg,https://img.btdmp.com/10094/10094079/products/1595494120fa9c0d49fa.jpeg
https://www.lamboyss.com/products/mandala-women-s-lace-up-canvas-boots-ch230718,Mandala Women's Lace Up Canvas Boots CH230718,https://img.btdmp.com/10094/10094079/products/1595493942ca8d5beb63.jpeg,https://img.btdmp.com/10094/10094079/products/1595493942f4c2faa04e.jpeg,https://img.btdmp.com/10094/10094079/products/15954939431a2fa82c7d.jpeg
https://www.lamboyss.com/products/vintage-sun-women-s-lace-up-canvas-boots-ch230716,Vintage Sun Women's Lace Up Canvas Boots CH230716,https://img.btdmp.com/10094/10094079/products/159549375356cb1e3849.jpeg,https://img.btdmp.com/10094/10094079/products/15954937536edacd2db4.jpeg,https://img.btdmp.com/10094/10094079/products/15954937520aa939ac9a.jpeg
https://www.lamboyss.com/products/sugar-skull-women-s-lace-up-canvas-boots-ch230715,Sugar Skull Women's Lace Up Canvas Boots CH230715,https://img.btdmp.com/10094/10094079/products/15954935442fe0f60639.jpeg,https://img.btdmp.com/10094/10094079/products/1595493544cf6a129674.jpeg,https://img.btdmp.com/10094/10094079/products/15954935454362269cd0.jpeg
https://www.lamboyss.com/products/mandala-women-s-lace-up-canvas-boots-ch230714,Mandala Women's Lace Up Canvas Boots CH230714,https://img.btdmp.com/10094/10094079/products/1595493364ad820a2ded.jpeg,https://img.btdmp.com/10094/10094079/products/15954933640e5fbc755e.jpeg,https://img.btdmp.com/10094/10094079/products/159549336483ab5e1b0f.jpeg
https://www.lamboyss.com/products/fish-yin-yang-women-s-lace-up-canvas-boots-ch230713,Fish Yin Yang Women's Lace Up Canvas Boots CH230713,https://img.btdmp.com/10094/10094079/products/15954931385bc97c10c8.jpeg,https://img.btdmp.com/10094/10094079/products/15954931389b8f0dc92b.jpeg,https://img.btdmp.com/10094/10094079/products/159549313885cc175b0f.jpeg
https://www.lamboyss.com/products/peacock-feather-women-s-lace-up-canvas-boots-ch230712,Peacock Feather Women's Lace Up Canvas Boots CH230712,https://img.btdmp.com/10094/10094079/products/15954929613a09163803.jpeg,https://img.btdmp.com/10094/10094079/products/15954929615b77ae6184.jpeg
https://www.lamboyss.com/products/dragonfly-women-s-lace-up-canvas-boots-ch230711,Dragonfly Women's Lace Up Canvas Boots CH230711,https://img.btdmp.com/10094/10094079/products/15954928204b7e9ce86e.jpeg,https://img.btdmp.com/10094/10094079/products/1595492820c70a1e3013.jpeg,https://img.btdmp.com/10094/10094079/products/1595492820e42114020a.jpeg
https://www.lamboyss.com/products/abstract-art-women-s-lace-up-canvas-boots-ch230710,Abstract Art Women's Lace Up Canvas Boots CH230710,https://img.btdmp.com/10094/10094079/products/159549258951d5eede7a.jpeg,https://img.btdmp.com/10094/10094079/products/1595492589a10234ee51.jpeg,https://img.btdmp.com/10094/10094079/products/15954925893358b90f97.jpeg
https://www.lamboyss.com/products/abstract-art-women-s-lace-up-canvas-boots-ch230709,Abstract Art Women's Lace Up Canvas Boots CH230709,https://img.btdmp.com/10094/10094079/products/15954889068155f036bf.jpeg,https://img.btdmp.com/10094/10094079/products/15954889060f3aee1a60.jpeg,https://img.btdmp.com/10094/10094079/products/159548890605ce7e7887.jpeg
https://www.lamboyss.com/products/skull-mechanic-women-s-lace-up-canvas-boots-ch110730,Skull Mechanic Women's Lace Up Canvas Boots CH110730,https://img.btdmp.com/10094/10094079/products/1595479130c8b8ea59c3.jpeg
https://www.lamboyss.com/products/cat-women-s-lace-up-canvas-boots-ch110729,Cat Women's Lace Up Canvas Boots CH110729,https://img.btdmp.com/10094/10094079/products/15954789723c0593a946.jpeg,https://img.btdmp.com/10094/10094079/products/1595478973e690956c13.jpeg,https://img.btdmp.com/10094/10094079/products/15954789737b7b33a4cf.jpeg
https://www.lamboyss.com/products/chakra-women-s-lace-up-canvas-boots-ch110728,Chakra Women's Lace Up Canvas Boots CH110728,https://img.btdmp.com/10094/10094079/products/1595478830f4dddccc22.jpeg,https://img.btdmp.com/10094/10094079/products/159547883134a68a0ac2.jpeg,https://img.btdmp.com/10094/10094079/products/15954788319965a5afe0.jpeg
https://www.lamboyss.com/products/tree-of-life-women-s-lace-up-canvas-boots-ch110727,Tree of Life Women's Lace Up Canvas Boots CH110727,https://img.btdmp.com/10094/10094079/products/159547865143936d0a35.jpeg,https://img.btdmp.com/10094/10094079/products/1595478652625401d73d.jpeg,https://img.btdmp.com/10094/10094079/products/1595478652d19f6e113b.jpeg
https://www.lamboyss.com/products/vintage-women-s-lace-up-canvas-boots-ch110726,Vintage Women's Lace Up Canvas Boots CH110726,https://img.btdmp.com/10094/10094079/products/15954777455bb2fc8fcb.jpeg,https://img.btdmp.com/10094/10094079/products/159547774535d745eb50.jpeg,https://img.btdmp.com/10094/10094079/products/1595477746d0636b84e0.jpeg
https://www.lamboyss.com/products/flower-pattern-women-s-lace-up-canvas-boots-ch110725,Flower Pattern Women's Lace Up Canvas Boots CH110725,https://img.btdmp.com/10094/10094079/products/15954775049889762043.jpeg,https://img.btdmp.com/10094/10094079/products/1595477505e767d0c3d7.jpeg,https://img.btdmp.com/10094/10094079/products/1595477505634a030c8a.jpeg
https://www.lamboyss.com/products/flower-pattern-women-s-lace-up-canvas-boots-ch110724,Flower Pattern Women's Lace Up Canvas Boots CH110724,https://img.btdmp.com/10094/10094079/products/1595477321f61f69a0fe.jpeg,https://img.btdmp.com/10094/10094079/products/15954773216c5c21ce12.jpeg,https://img.btdmp.com/10094/10094079/products/159547732157d531c583.jpeg
https://www.lamboyss.com/products/black-women-s-lace-up-canvas-boots-ch200705,Black Women's Lace Up Canvas Boots CH200705,https://img.btdmp.com/10094/10094079/products/159523632941002ef36e.jpeg,https://img.btdmp.com/10094/10094079/products/15952363299d33904627.jpeg,https://img.btdmp.com/10094/10094079/products/159523632884fcbf08d5.jpeg
https://www.lamboyss.com/products/forest-women-s-lace-up-canvas-boots-ch200704,Forest Women's Lace Up Canvas Boots CH200704,https://img.btdmp.com/10094/10094079/products/1595236180925ab6a43f.jpeg,https://img.btdmp.com/10094/10094079/products/159523618100db1e67ab.jpeg
https://www.lamboyss.com/products/hippie-women-s-lace-up-canvas-boots-ch200703,Hippie Women's Lace Up Canvas Boots CH200703,https://img.btdmp.com/10094/10094079/products/1595235882c5bea5c3c1.jpeg,https://img.btdmp.com/10094/10094079/products/1595235882d101c8ed33.jpeg
https://www.lamboyss.com/products/owl-women-s-lace-up-canvas-boots-ch200702,Owl Women's Lace Up Canvas Boots CH200702,https://img.btdmp.com/10094/10094079/products/159523558040a754b564.jpeg,https://img.btdmp.com/10094/10094079/products/15952355803bb59f3878.jpeg
https://www.lamboyss.com/products/dragon-women-s-lace-up-canvas-boots-ch200701,Dragon Women's Lace Up Canvas Boots CH200701,https://img.btdmp.com/10094/10094079/products/1595234888baf8568e7b.jpeg,https://img.btdmp.com/10094/10094079/products/15952348916374a5236f.jpeg
https://www.lamboyss.com/products/mandala-women-s-lace-up-canvas-boots-ch110723,Mandala Women's Lace Up Canvas Boots CH110723,https://img.btdmp.com/10094/10094079/products/15949760012876f02e48.jpeg,https://img.btdmp.com/10094/10094079/products/159497600158e22c1d23.jpeg,https://img.btdmp.com/10094/10094079/products/15949760014fe814774d.jpeg
https://www.lamboyss.com/products/vintage-women-s-lace-up-canvas-boots-ch110722,Vintage Women's Lace Up Canvas Boots CH110722,https://img.btdmp.com/10094/10094079/products/159497573183fd05598a.jpeg,https://img.btdmp.com/10094/10094079/products/15949757310eadad2cbf.jpeg,https://img.btdmp.com/10094/10094079/products/159497573159f6739b26.jpeg
https://www.lamboyss.com/products/day-of-the-dead-women-s-lace-up-canvas-boots-ch110721,Day of the Dead Women's Lace Up Canvas Boots CH110721,https://img.btdmp.com/10094/10094079/products/15949755890417d8fa2a.jpeg,https://img.btdmp.com/10094/10094079/products/159497558927ac284503.jpeg,https://img.btdmp.com/10094/10094079/products/15949755892c8bff11c1.jpeg
https://www.lamboyss.com/products/cloud-women-s-lace-up-canvas-boots-ch110720,Cloud Women's Lace Up Canvas Boots CH110720,https://img.btdmp.com/10094/10094079/products/1594975311be985ab256.jpeg,https://img.btdmp.com/10094/10094079/products/159497531206df64ed6b.jpeg,https://img.btdmp.com/10094/10094079/products/1594975312dd86bd82a1.jpeg
https://www.lamboyss.com/products/hippie-women-s-lace-up-canvas-boots-ch110719,Hippie Women's Lace Up Canvas Boots CH110719,https://img.btdmp.com/10094/10094079/products/1594975166f8aca564da.jpeg,https://img.btdmp.com/10094/10094079/products/1594975166714dfc6031.jpeg,https://img.btdmp.com/10094/10094079/products/159497516622602952d9.jpeg
https://www.lamboyss.com/products/hippie-women-s-lace-up-canvas-boots-ch110718,Hippie Women's Lace Up Canvas Boots CH110718,https://img.btdmp.com/10094/10094079/products/1594975008356285424a.jpeg,https://img.btdmp.com/10094/10094079/products/1594975008cf26382f5a.jpeg
https://www.lamboyss.com/products/dragonfly-women-s-lace-up-canvas-boots-ch110717,Dragonfly Women's Lace Up Canvas Boots CH110717,https://img.btdmp.com/10094/10094079/products/15949748471b9511f048.jpeg,https://img.btdmp.com/10094/10094079/products/1594974849bf87db2084.jpeg,https://img.btdmp.com/10094/10094079/products/15949748499167783039.jpeg
https://www.lamboyss.com/products/peace-women-s-lace-up-canvas-boots-ch110716,Peace Women's Lace Up Canvas Boots CH110716,https://img.btdmp.com/10094/10094079/products/1594974412e160f7357a.jpeg,https://img.btdmp.com/10094/10094079/products/1594974412266db4addd.jpeg,https://img.btdmp.com/10094/10094079/products/1594974412514a9c42ae.jpeg
https://www.lamboyss.com/products/lion-women-s-lace-up-canvas-boots-ch110715,Lion Women's Lace Up Canvas Boots CH110715,https://img.btdmp.com/10094/10094079/products/1594974194658c5d4971.jpeg,https://img.btdmp.com/10094/10094079/products/1594974194c5d2a07718.jpeg
https://www.lamboyss.com/products/mandala-women-s-lace-up-canvas-boots-ch110714,Mandala Women's Lace Up Canvas Boots CH110714,https://img.btdmp.com/10094/10094079/products/159497365855af7880f4.jpeg,https://img.btdmp.com/10094/10094079/products/1594973658e74f2b1d1d.jpeg,https://img.btdmp.com/10094/10094079/products/1594973659d7af383fac.jpeg
https://www.lamboyss.com/products/moon-women-s-lace-up-canvas-boots-ch110713,Moon Women's Lace Up Canvas Boots CH110713,https://img.btdmp.com/10094/10094079/products/159497344425a49ecb4d.jpeg,https://img.btdmp.com/10094/10094079/products/159497344579aa7fd61c.jpeg,https://img.btdmp.com/10094/10094079/products/1594973445f3fa25c0b1.jpeg
https://www.lamboyss.com/products/gothic-women-s-lace-up-canvas-boots-ch110712,Gothic Women's Lace Up Canvas Boots CH110712,https://img.btdmp.com/10094/10094079/products/1594969786925fac45be.jpeg,https://img.btdmp.com/10094/10094079/products/1594969786d5b8d524a8.jpeg,https://img.btdmp.com/10094/10094079/products/1594969786b9ed05ea69.jpeg
https://www.lamboyss.com/products/gothic-women-s-lace-up-canvas-boots-ch110711,Gothic Women's Lace Up Canvas Boots CH110711,https://img.btdmp.com/10094/10094079/products/1594969614352ce7c327.jpeg,https://img.btdmp.com/10094/10094079/products/159496961412b5dbd1d7.jpeg,https://img.btdmp.com/10094/10094079/products/1594969614c4fc6f152e.jpeg
https://www.lamboyss.com/products/gothic-women-s-lace-up-canvas-boots-ch110710,Gothic Women's Lace Up Canvas Boots CH110710,https://img.btdmp.com/10094/10094079/products/15949694588fc6b2bad7.jpeg,https://img.btdmp.com/10094/10094079/products/15949694570aa3bc9644.jpeg,https://img.btdmp.com/10094/10094079/products/1594969456255ca1238f.jpeg
https://www.lamboyss.com/products/gothic-women-s-lace-up-canvas-boots-ch110709,Gothic Women's Lace Up Canvas Boots CH110709,https://img.btdmp.com/10094/10094079/products/1594969303bb5eb4bb2c.jpeg,https://img.btdmp.com/10094/10094079/products/1594969303babcb9f2d9.jpeg,https://img.btdmp.com/10094/10094079/products/159496930309cc74be47.jpeg
https://www.lamboyss.com/products/galaxy-women-s-lace-up-canvas-boots-ch110708,Galaxy Women's Lace Up Canvas Boots CH110708,https://img.btdmp.com/10094/10094079/products/159496915829529e9d8b.jpeg,https://img.btdmp.com/10094/10094079/products/1594969158310d2015fb.jpeg,https://img.btdmp.com/10094/10094079/products/15949691589c23174965.jpeg
https://www.lamboyss.com/products/peace-women-s-lace-up-canvas-boots-ch110707,Peace Women's Lace Up Canvas Boots CH110707,https://img.btdmp.com/10094/10094079/products/15949688769ba7dac792.jpeg,https://img.btdmp.com/10094/10094079/products/1594968876669f50ca5c.jpeg,https://img.btdmp.com/10094/10094079/products/159496887717b1b3119f.jpeg
https://www.lamboyss.com/products/gothic-women-s-lace-up-canvas-boots-ch110706,Gothic Women's Lace Up Canvas Boots CH110706,https://img.btdmp.com/10094/10094079/products/1594960785b377123147.jpeg,https://img.btdmp.com/10094/10094079/products/1594960785338e3b7e90.jpeg,https://img.btdmp.com/10094/10094079/products/1594960786d326db6104.jpeg
https://www.lamboyss.com/products/rainbow-women-s-lace-up-canvas-boots-ch110705,Rainbow Women's Lace Up Canvas Boots CH110705,https://img.btdmp.com/10094/10094079/products/1594960579d95f92fb37.jpeg,https://img.btdmp.com/10094/10094079/products/15949605799c0f8a8b11.jpeg,https://img.btdmp.com/10094/10094079/products/1594960583f250bde178.jpeg
https://www.lamboyss.com/products/butterfly-women-s-lace-up-canvas-boots-ch110704,Butterfly Women's Lace Up Canvas Boots CH110704,https://img.btdmp.com/10094/10094079/products/15949603344b4b901555.jpeg
https://www.lamboyss.com/products/vintage-women-s-lace-up-canvas-boots-ch110703,Vintage Women's Lace Up Canvas Boots CH110703,https://img.btdmp.com/10094/10094079/products/15949601787393d9156f.jpeg,https://img.btdmp.com/10094/10094079/products/15949601785be7ce0494.jpeg,https://img.btdmp.com/10094/10094079/products/1594960178ac4fc3e81f.jpeg
https://www.lamboyss.com/products/butterfly-women-s-lace-up-canvas-boots-ch110702,Butterfly Women's Lace Up Canvas Boots CH110702,https://img.btdmp.com/10094/10094079/products/15949597187d6263b106.jpeg,https://img.btdmp.com/10094/10094079/products/15949597449225a6b0d7.jpeg
https://www.lamboyss.com/products/mandala-women-s-lace-up-canvas-boots-ch110701,Mandala Women's Lace Up Canvas Boots CH110701,https://img.btdmp.com/10094/10094079/products/15949597328ac65004ad.jpeg,https://img.btdmp.com/10094/10094079/products/1594959732451d5083aa.jpeg,https://img.btdmp.com/10094/10094079/products/1594959732427c750649.jpeg
https://www.lamboyss.com/products/witchcraft-women-s-lace-up-canvas-boots-ch100731,Witchcraft Women's Lace Up Canvas Boots CH100731,https://img.btdmp.com/10094/10094079/products/159445508851bafed75c.jpeg,https://img.btdmp.com/10094/10094079/products/1594455088c8c59a16ef.jpeg
https://www.lamboyss.com/products/tree-of-life-women-s-lace-up-canvas-boots-ch100729,Tree of Life Women's Lace Up Canvas Boots CH100729,https://img.btdmp.com/10094/10094079/products/15944548120a6dea9d1c.jpeg,https://img.btdmp.com/10094/10094079/products/1594454817f39f11c47b.jpeg,https://img.btdmp.com/10094/10094079/products/1594454817f5f632679a.jpeg
https://www.lamboyss.com/products/tree-of-life-women-s-lace-up-canvas-boots-ch100728,Tree of Life Women's Lace Up Canvas Boots CH100728,https://img.btdmp.com/10094/10094079/products/1594454577f8b2647c19.jpeg,https://img.btdmp.com/10094/10094079/products/15944545774094c4b890.jpeg,https://img.btdmp.com/10094/10094079/products/1594454577311e5265b8.jpeg
https://www.lamboyss.com/products/yin-and-yang-women-s-lace-up-canvas-boots-ch100727,Yin and Yang Women's Lace Up Canvas Boots CH100727,https://img.btdmp.com/10094/10094079/products/15944543006ebdcc4277.jpeg,https://img.btdmp.com/10094/10094079/products/15944543009e39241462.jpeg,https://img.btdmp.com/10094/10094079/products/15944543002dc7680932.jpeg
https://www.lamboyss.com/products/owl-women-s-lace-up-canvas-boots-ch100726,Owl Women's Lace Up Canvas Boots CH100726,https://img.btdmp.com/10094/10094079/products/1594453653ffb9d5dd3a.jpeg,https://img.btdmp.com/10094/10094079/products/1594453653644d9fcb2d.jpeg,https://img.btdmp.com/10094/10094079/products/15944536548e54d4abc3.jpeg
https://www.lamboyss.com/products/floral-women-s-lace-up-canvas-boots-ch100725,Floral Women's Lace Up Canvas Boots CH100725,https://img.btdmp.com/10094/10094079/products/159445099038b95b1bbd.jpeg
https://www.lamboyss.com/products/dreamcatcher-women-s-lace-up-canvas-boots-ch100724,Dreamcatcher Women's Lace Up Canvas Boots CH100724,https://img.btdmp.com/10094/10094079/products/1594450759e2dda13718.jpeg,https://img.btdmp.com/10094/10094079/products/15944507598e8802dbb7.jpeg,https://img.btdmp.com/10094/10094079/products/1594450759aa8b111787.jpeg
https://www.lamboyss.com/products/sun-and-moon-women-s-lace-up-canvas-boots-ch100723,Sun and Moon Women's Lace Up Canvas Boots CH100723,https://img.btdmp.com/10094/10094079/products/15943757246295b213a9.jpeg,https://img.btdmp.com/10094/10094079/products/1594375724aa5ad627ce.jpeg
https://www.lamboyss.com/products/tiger-women-s-lace-up-canvas-boots-ch100722,Tiger Women's Lace Up Canvas Boots CH100722,https://img.btdmp.com/10094/10094079/products/15943753021099214d60.jpeg
https://www.lamboyss.com/products/sun-and-moon-women-s-lace-up-canvas-boots-ch100721,Sun and Moon Women's Lace Up Canvas Boots CH100721,https://img.btdmp.com/10094/10094079/products/15943751641d97c3aac8.jpeg,https://img.btdmp.com/10094/10094079/products/1594375164f3f991b168.jpeg,https://img.btdmp.com/10094/10094079/products/1594375165865236f597.jpeg
https://www.lamboyss.com/products/mandala-women-s-lace-up-canvas-boots-ch100720,Mandala Women's Lace Up Canvas Boots CH100720,https://img.btdmp.com/10094/10094079/products/1594374884e28bce301d.jpeg,https://img.btdmp.com/10094/10094079/products/15943748851c78a7d3fd.jpeg
https://www.lamboyss.com/products/sun-women-s-lace-up-canvas-boots-ch100719,Sun Women's Lace Up Canvas Boots CH100719,https://img.btdmp.com/10094/10094079/products/1594374676890e696412.jpeg,https://img.btdmp.com/10094/10094079/products/1594374677e5ebbbc17f.jpeg
https://www.lamboyss.com/products/sun-and-moon-women-s-lace-up-canvas-boots-ch100718,Sun and Moon Women's Lace Up Canvas Boots CH100718,https://img.btdmp.com/10094/10094079/products/1594374401bc5aa011da.jpeg,https://img.btdmp.com/10094/10094079/products/1594374401b4da70c660.jpeg,https://img.btdmp.com/10094/10094079/products/1594374401e1f2213217.jpeg
https://www.lamboyss.com/products/sun-women-s-lace-up-canvas-boots-ch100717,Sun Women's Lace Up Canvas Boots CH100717,https://img.btdmp.com/10094/10094079/products/1594373693cb063d1eeb.jpeg,https://img.btdmp.com/10094/10094079/products/1594373693bac5e9217b.jpeg,https://img.btdmp.com/10094/10094079/products/1594373694c9498f293a.jpeg
https://www.lamboyss.com/products/sun-women-s-lace-up-canvas-boots-ch100716,Sun Women's Lace Up Canvas Boots CH100716,https://img.btdmp.com/10094/10094079/products/1594373269bec0b9ff56.jpeg,https://img.btdmp.com/10094/10094079/products/159437326941db235e6b.jpeg,https://img.btdmp.com/10094/10094079/products/1594373270d7e542a6d4.jpeg
https://www.lamboyss.com/products/elephant-women-s-lace-up-canvas-boots-ch100715,Elephant Women's Lace Up Canvas Boots CH100715,https://img.btdmp.com/10094/10094079/products/15943654250cf689873f.jpeg,https://img.btdmp.com/10094/10094079/products/1594365425aeb80ce9b5.jpeg,https://img.btdmp.com/10094/10094079/products/159436542699ab2e3374.jpeg
https://www.lamboyss.com/products/sun-and-moon-women-s-lace-up-canvas-boots-ch100714,Sun and Moon Women's Lace Up Canvas Boots CH100714,https://img.btdmp.com/10094/10094079/products/15943652523a7c88a0f5.jpeg,https://img.btdmp.com/10094/10094079/products/159436525299c08a35c2.jpeg,https://img.btdmp.com/10094/10094079/products/15943652528d3befaed9.jpeg
https://www.lamboyss.com/products/rose-girl-women-s-lace-up-canvas-boots-ch100713,Rose Girl Women's Lace Up Canvas Boots CH100713,https://img.btdmp.com/10094/10094079/products/15943648822a16372b62.jpeg,https://img.btdmp.com/10094/10094079/products/15943648828b1c940707.jpeg,https://img.btdmp.com/10094/10094079/products/1594364882d1bb2453dd.jpeg
https://www.lamboyss.com/products/moon-women-s-lace-up-canvas-boots-ch100712,Moon Women's Lace Up Canvas Boots CH100712,https://img.btdmp.com/10094/10094079/products/159435705782e3fe31bc.jpeg,https://img.btdmp.com/10094/10094079/products/15943570587c8372ef64.jpeg,https://img.btdmp.com/10094/10094079/products/1594357057016027ed20.jpeg
https://www.lamboyss.com/products/skull-women-s-lace-up-canvas-boots-ch100711,Skull Women's Lace Up Canvas Boots CH100711,https://img.btdmp.com/10094/10094079/products/15943567935a6bb50607.jpeg,https://img.btdmp.com/10094/10094079/products/15943567939f3a91d2a7.jpeg
https://www.lamboyss.com/products/skull-women-s-lace-up-canvas-boots-ch100710,Skull Women's Lace Up Canvas Boots CH100710,https://img.btdmp.com/10094/10094079/products/1594356568ee8127f444.jpeg,https://img.btdmp.com/10094/10094079/products/15943565680274f50268.jpeg,https://img.btdmp.com/10094/10094079/products/15943565687f7a9ab157.jpeg
https://www.lamboyss.com/products/skull-women-s-lace-up-canvas-boots-ch100709,Skull Women's Lace Up Canvas Boots CH100709,https://img.btdmp.com/10094/10094079/products/1594356394826f928635.jpeg,https://img.btdmp.com/10094/10094079/products/1594356395c8625e3e26.jpeg,https://img.btdmp.com/10094/10094079/products/1594356395ac0e46e9f3.jpeg
https://www.lamboyss.com/products/owl-women-s-lace-up-canvas-boots-ch100708,Owl Women's Lace Up Canvas Boots CH100708,https://img.btdmp.com/10094/10094079/products/159435606418ac06a0c2.jpeg,https://img.btdmp.com/10094/10094079/products/159435606463c51fec93.jpeg
https://www.lamboyss.com/products/mandala-women-s-lace-up-canvas-boots-ch100707,Mandala Women's Lace Up Canvas Boots CH100707,https://img.btdmp.com/10094/10094079/products/1594355879193d160fd6.jpeg,https://img.btdmp.com/10094/10094079/products/15943558792e9949bbcc.jpeg
https://www.lamboyss.com/products/grey-wolf-women-s-lace-up-canvas-boots-ch100706,Grey Wolf Women's Lace Up Canvas Boots CH100706,https://img.btdmp.com/10094/10094079/products/1594355488fceca396b8.jpeg,https://img.btdmp.com/10094/10094079/products/15943554880cf7f554e4.jpeg
https://www.lamboyss.com/products/skull-women-s-lace-up-canvas-boots-ch100705,Skull Women's Lace Up Canvas Boots CH100705,https://img.btdmp.com/10094/10094079/products/1594355258145722bcda.jpeg
https://www.lamboyss.com/products/skull-women-s-lace-up-canvas-boots-ch100704,Skull Women's Lace Up Canvas Boots CH100704,https://img.btdmp.com/10094/10094079/products/1594355031e0461a7fbd.jpeg,https://img.btdmp.com/10094/10094079/products/159435503138ca36c4d6.jpeg
https://www.lamboyss.com/products/dragonfly-women-s-lace-up-canvas-boots-ch100703,Dragonfly Women's Lace Up Canvas Boots CH100703,https://img.btdmp.com/10094/10094079/products/159435486183590e3608.jpeg,https://img.btdmp.com/10094/10094079/products/15943548615b92d2d152.jpeg
https://www.lamboyss.com/products/sun-and-moon-women-s-lace-up-canvas-boots-ch100702,Sun and Moon Women's Lace Up Canvas Boots CH100702,https://img.btdmp.com/10094/10094079/products/1594354133276194384a.jpeg,https://img.btdmp.com/10094/10094079/products/1594354133fc0b855746.jpeg
https://www.lamboyss.com/products/skull-women-s-lace-up-canvas-boots-ch100701, Skull Women's Lace Up Canvas Boots CH100701,https://img.btdmp.com/10094/10094079/products/1594353883a51b6b6d00.jpeg
https://www.lamboyss.com/products/elephant-women-s-lace-up-canvas-boots-dt090719,Elephant Women's Lace Up Canvas Boots DT090719,https://img.btdmp.com/10094/10094079/products/1594288487698848c984.jpeg,https://img.btdmp.com/10094/10094079/products/159428848748b0dc5a70.jpeg
