https://amzpods.com/sample-product/native-weed-pattern-air-jordan-13-sneakers/,Native weed pattern Air Jordan 13 Sneakers,https://sfo2.digitaloceanspaces.com/hieptran50293/2021/01/9311749_main.jpg
https://amzpods.com/sample-product/green-cannabis-weed-air-jordan-13-sneakers/,Green cannabis weed Air Jordan 13 Sneakers,https://sfo2.digitaloceanspaces.com/hieptran50293/2021/01/8281905_main.jpg
https://amzpods.com/sample-product/mandala-weed-smoke-air-jordan-13-sneakers/,Mandala weed smoke Air Jordan 13 Sneakers,https://sfo2.digitaloceanspaces.com/hieptran50293/2021/01/0x720%40159947258144ce5e2b5b.jpeg
https://amzpods.com/sample-product/weed-mandala-air-jordan-13-sneakers/,weed mandala Air Jordan 13 Sneakers,https://sfo2.digitaloceanspaces.com/hieptran50293/2021/01/0x720%4015994655626cf380e4bb.jpeg
https://amzpods.com/sample-product/weed-custom-name-air-jordan-13-sneakers/,Weed custom name Air Jordan 13 Sneakers,https://sfo2.digitaloceanspaces.com/hieptran50293/2021/01/9900074_main.jpg
https://amzpods.com/sample-product/dont-care-bear-weed-air-jordan-13-sneakers/,Dont care bear weed Air Jordan 13 Sneakers,https://sfo2.digitaloceanspaces.com/hieptran50293/2021/01/jd13-weed-270820-bearMK4-1.jpg
https://amzpods.com/sample-product/personalized-shoe-420-weed-air-jordan-13-25/,Personalized Shoe 420 Weed Air Jordan 13 – 25,https://sfo2.digitaloceanspaces.com/hieptran50293/2020/12/1.1-6-1.jpg
https://amzpods.com/sample-product/personalized-shoe-420-weed-air-jordan-13-24/,Personalized Shoe 420 Weed Air Jordan 13 – 24,https://sfo2.digitaloceanspaces.com/hieptran50293/2020/12/1.1-5-1.jpg
https://amzpods.com/sample-product/personalized-shoe-420-weed-air-jordan-13-20/,Personalized Shoe 420 Weed Air Jordan 13 – 20,https://sfo2.digitaloceanspaces.com/hieptran50293/2020/12/1.1-4-1.jpg
https://amzpods.com/sample-product/personalized-shoe-420-weed-air-jordan-13/,Personalized Shoe 420 Weed Air Jordan 13 – 12,https://sfo2.digitaloceanspaces.com/hieptran50293/2020/12/1.1-3-2.jpg
https://amzpods.com/sample-product/hologram-weed-high-maintenance-air-jordan-13-sneakers/,HOLOGRAM WEED HIGH MAINTENANCE AIR JORDAN 13 SNEAKERS,https://sfo2.digitaloceanspaces.com/hieptran50293/2020/12/0x720%4016001655411c5663c1ed.png
https://amzpods.com/sample-product/mandala-weed-air-jordan-13-sneakers/,MANDALA WEED AIR JORDAN 13 SNEAKERS,https://sfo2.digitaloceanspaces.com/hieptran50293/2020/12/0x720%401605344960f2f90196d5.png
https://amzpods.com/sample-product/weed-vibes-color-air-jordan-13-sneakers/,WEED VIBES COLOR AIR JORDAN 13 SNEAKERS,https://sfo2.digitaloceanspaces.com/hieptran50293/2020/12/0x720%4016053449628d816a24ee.png
https://amzpods.com/sample-product/weed-you-are-my-sunflower-air-jordan-13-sneakers/,WEED YOU ARE MY SUNFLOWER AIR JORDAN 13 SNEAKERS,https://sfo2.digitaloceanspaces.com/hieptran50293/2020/12/0x720%4016053518001415da1675.png
https://amzpods.com/sample-product/weed-stay-high-moon-child-air-jordan-13-sneakers/,WEED STAY HIGH MOON CHILD AIR JORDAN 13 SNEAKERS,https://sfo2.digitaloceanspaces.com/hieptran50293/2020/12/0x720%401605351783f376879bfb.png
https://amzpods.com/sample-product/weed-420-heartbeat-air-jordan-13-sneakers/,WEED 420 HEARTBEAT AIR JORDAN 13 SNEAKERS,https://sfo2.digitaloceanspaces.com/hieptran50293/2020/12/0x720%401605351799ccb9c01dec.png
https://amzpods.com/sample-product/weed-dont-care-bear-air-jordan-13-sneakers/,GREEN WEED CUSTOM AIR JORDAN 13 SNEAKERS,https://sfo2.digitaloceanspaces.com/hieptran50293/2020/12/0x720%40160535529097baa5bfd7.png
https://amzpods.com/sample-product/every-little-thing-is-gonna-be-alright-air-jordan-13-sneakers/,WEED NATIVE PATTERN AIR JORDAN 13 SNEAKERS,https://sfo2.digitaloceanspaces.com/hieptran50293/2020/12/0x720%4016053554251cdea5ef3b.png
https://amzpods.com/sample-product/in-a-world-full-of-rose-be-a-weed-air-jordan-13-sneakers/,IN A WORLD FULL OF ROSE BE A WEED AIR JORDAN 13 SNEAKERS,https://sfo2.digitaloceanspaces.com/hieptran50293/2020/12/0x720%401606984381255f6e0086.png
