https://www.huntingcave.com/products/boxing-08349,Personalized Boxing Gloves JD13 Sneaker 08349,https://img.btdmp.com/10109/10109693/products/1617685359bbbea50db6.jpeg
https://www.huntingcave.com/products/gym-08328,Personalized Lion King Gym JD13 Sneaker 08328,https://img.btdmp.com/10109/10109693/products/161735860330b8b42c47.jpeg
https://www.huntingcave.com/products/boxing-08325,Personalized Boxing Gloves JD13 Sneaker 08325,https://img.btdmp.com/10109/10109693/products/1617358603107f2d9a2a.jpeg
https://www.huntingcave.com/products/boxing-08264,Personalized Boxing JD13 Sneaker 08264,https://img.btdmp.com/10109/10109693/products/1617093281910444f32e.jpeg
https://www.huntingcave.com/products/gym-08265,Personalized Gym No Pain No Gain JD13 Sneaker 08265,https://img.btdmp.com/10109/10109693/products/16170977591aa1e85710.jpeg
https://www.huntingcave.com/products/skull-08263,Personalized Skull Birth Month JD13 Sneaker 08263,https://img.btdmp.com/10109/10109693/products/1617080201727b49ac4f.jpeg
