https://silkwells.com/products/nes-jd13?_pos=1&_sid=82ed4fda7&_ss=r,NES JD13 SHOES,https://cdn.shopify.com/s/files/1/0248/3375/3154/products/image_f97891d3-1071-4dcb-8e0b-d11246e90a74.png?v=1598678708
https://silkwells.com/products/sg-jd13?_pos=2&_sid=82ed4fda7&_ss=r,SEPTEMBER GIRL JD13,https://cdn.shopify.com/s/files/1/0248/3375/3154/products/image_2_1e9218c7-ca7f-408b-b52c-6f06ef1acb1b.png?v=1597488047
https://silkwells.com/products/bis20082604a-jd13?_pos=3&_sid=82ed4fda7&_ss=r,BIS20082604 AUTISM JD13 SHOES,https://cdn.shopify.com/s/files/1/0248/3375/3154/products/image_2756375c-b37a-4a5b-bb8d-af5fa59e1d91.png?v=1598678358
https://silkwells.com/products/dis1908001-jd13?_pos=4&_sid=82ed4fda7&_ss=r,DIS1908001-LGBT JD13 SHOES,https://cdn.shopify.com/s/files/1/0248/3375/3154/products/image_641b07e9-b380-4787-873f-d014ed1cb0c3.png?v=1598678158
https://silkwells.com/products/nuair-jd13?_pos=5&_sid=82ed4fda7&_ss=r,NURSE AIR JD13 085,https://cdn.shopify.com/s/files/1/0248/3375/3154/products/image_ce9f495d-5037-4a20-9fd7-b33ee78b07c2.png?v=1597637567
https://silkwells.com/products/jesus-jd13?_pos=6&_sid=82ed4fda7&_ss=r,JESUS AIR JD13 005,https://cdn.shopify.com/s/files/1/0248/3375/3154/products/image_e720c250-9f73-4d58-aab9-f2ec9f2af04f.png?v=1597487517
https://silkwells.com/products/wbf230554-jd13?_pos=7&_sid=82ed4fda7&_ss=r,Walk By Faith JD13 230554,https://cdn.shopify.com/s/files/1/0248/3375/3154/products/image_0ac1a873-af81-4ca5-a4ec-f0dea34d51ca.png?v=1599109824
https://silkwells.com/products/hbc230882-jd13?_pos=8&_sid=82ed4fda7&_ss=r,Heartbeat Breast Cancer JD13 230882HB,https://cdn.shopify.com/s/files/1/0248/3375/3154/products/image_b34f987e-582e-4cd7-980a-de4fdcede324.png?v=1600232541
https://silkwells.com/products/bmdw230881-jd13?_pos=9&_sid=82ed4fda7&_ss=r,Black Mandala Weed JD13 230881BM,https://cdn.shopify.com/s/files/1/0248/3375/3154/products/image_2b457b14-1df8-4c5a-9774-c32fdf2aff5f.png?v=1600232412
https://silkwells.com/products/nwp230880-jd13?_pos=10&_sid=82ed4fda7&_ss=r,Native Weed Pattern JD13 230880NW,https://cdn.shopify.com/s/files/1/0248/3375/3154/products/image_0965c4fd-e855-4af1-9664-cb34fcb3d374.png?v=1600232251
https://silkwells.com/products/230750rw-jd13?_pos=11&_sid=82ed4fda7&_ss=r,Rose - Weed JD13 Shoes 230750RW,https://cdn.shopify.com/s/files/1/0248/3375/3154/products/image_e6b232f8-d224-4760-a3b9-b74130da0fb1.png?v=1600070277
https://silkwells.com/products/oq230717-jd13?_pos=12&_sid=82ed4fda7&_ss=r,OCTOBER QUEENS JD13 SHOES 230717OQ,https://cdn.shopify.com/s/files/1/0248/3375/3154/products/image_89dbe839-55aa-4778-8cea-88b20f5f37b8.png?v=1599730077
https://silkwells.com/products/mws230695-jd13?_pos=13&_sid=82ed4fda7&_ss=r,MANDALA WEED SMOKE JD13 230695,https://cdn.shopify.com/s/files/1/0248/3375/3154/products/image_15390638-46fb-4607-a1cf-563758568442.png?v=1599642611
https://silkwells.com/products/slv230621-jd13?_pos=14&_sid=82ed4fda7&_ss=r,Skull Lava JD13 Shoes 230621,https://cdn.shopify.com/s/files/1/0248/3375/3154/products/image_684ad004-4c89-4b02-8887-8af30a5b781b.png?v=1599456045
https://silkwells.com/products/sfs230620-jd13?_pos=15&_sid=82ed4fda7&_ss=r,Sunflower Skull JD13 Shoes 230620,https://cdn.shopify.com/s/files/1/0248/3375/3154/products/image_dfb70772-28fd-4323-b24e-2fe52ef33a62.png?v=1599455934
https://silkwells.com/products/mrjnl230522-jd13-shoes?_pos=16&_sid=82ed4fda7&_ss=r,Marijuana Leaf JD13 Shoes 230522,https://cdn.shopify.com/s/files/1/0248/3375/3154/products/image_4af7827b-bf65-427e-8d9b-e7d4b8db126b.png?v=1598861437
https://silkwells.com/products/fnc-jd13?_pos=17&_sid=82ed4fda7&_ss=r,Flower mandala canabis JD13 SHOES,https://cdn.shopify.com/s/files/1/0248/3375/3154/products/image_ec15ce11-9577-467b-bd45-a04326569b16.png?v=1598678294
https://silkwells.com/products/bcc230623-jd13?_pos=18&_sid=82ed4fda7&_ss=r,BREAST CANCER AIR JD13 SHOES 230623,https://cdn.shopify.com/s/files/1/0248/3375/3154/products/image_696dc328-36f1-48a1-905a-0b037f02a424.png?v=1599468288
https://silkwells.com/products/fws230602-jd13?_pos=19&_sid=82ed4fda7&_ss=r,FLOWER SKULL AIR JD13 SHOES 230602,https://cdn.shopify.com/s/files/1/0248/3375/3154/products/image_258.png?v=1599213094
https://silkwells.com/products/okp230680-jd13?_pos=20&_sid=82ed4fda7&_ss=r,OCTOBER KING PERSONALIZED AIR JD13 SHOES 230680,https://cdn.shopify.com/s/files/1/0248/3375/3154/products/image_ce4f4020-a950-4e82-a1df-d86f5a76ddfe.png?v=1599624048
https://silkwells.com/products/cglh230618-jd13?_pos=21&_sid=82ed4fda7&_ss=r,COUNTRY GIRL LOVE HUNTING JD13 SHOES 230618,https://cdn.shopify.com/s/files/1/0248/3375/3154/products/image_3d362313-f5bc-4c81-aa55-ddac6e619b22.png?v=1599455172
https://silkwells.com/products/qabid230624-jd13?_pos=22&_sid=82ed4fda7&_ss=r,QUEENS ARE BORN IN DECEMBER AIR JD13 SHOES 230624,https://cdn.shopify.com/s/files/1/0248/3375/3154/products/image_e434c046-5111-4599-904f-a0d473491768.png?v=1599468406
https://silkwells.com/products/swph232732-jd13?_pos=23&_sid=82ed4fda7&_ss=r,Silver Weed Air Jordan 13 Shoes PH232732,https://cdn.shopify.com/s/files/1/0248/3375/3154/products/image_e7be3178-1605-415f-b5d7-4ff048a01079.png?v=1605079068
https://silkwells.com/products/wcnph232854-jd13?_pos=24&_sid=82ed4fda7&_ss=r,WEED CUSTOM NAME AIR JORDAN 13 SNEAKERS PH232854,https://cdn.shopify.com/s/files/1/0248/3375/3154/products/image_a6f03b91-150f-4876-a727-f2ecf4c48521.png?v=1605847769
