https://www.anzfashion.com/products/burse-out-air-jd13-shoes-066,Burse Out Air JD13 Shoes 066,https://img.btdmp.com/10080/10080507/products/16045616257ac664cc49.jpeg
https://www.anzfashion.com/products/burse-out-air-jd13-shoes-067,Burse Out Air JD13 Shoes 067,https://img.btdmp.com/10080/10080507/products/160439678816a7996301.jpeg
https://www.anzfashion.com/products/burse-out-air-jd13-shoes-065,Burse Out Air JD13 Shoes 065,https://img.btdmp.com/10080/10080507/products/160439679996230e3478.jpeg
https://www.anzfashion.com/products/satan-air-jd13-shoes-064,Satan Air JD13 Shoes 064,https://img.btdmp.com/10080/10080507/products/1601438068715ed70066.jpeg
https://www.anzfashion.com/products/jesus-air-jd13-shoes-063,Jesus Air JD13 Shoes 063,https://img.btdmp.com/10080/10080507/products/160143807540dd329aa2.jpeg
https://www.anzfashion.com/products/jesus-air-jd13-shoes-062,Jesus Air JD13 Shoes 062,https://img.btdmp.com/10080/10080507/products/1601292923ea56e62fb6.jpeg
https://www.anzfashion.com/products/burse-out-air-jd13-shoes-061,Burse Out Air JD13 Shoes 061,https://img.btdmp.com/10080/10080507/products/16009208280106d860d4.jpeg
https://www.anzfashion.com/products/jesus-air-jd13-187,Jesus Air JD13 187,https://img.btdmp.com/10080/10080507/products/1600144272a7cebd7b90.jpeg
https://www.anzfashion.com/products/jesus-air-jd13-185,Jesus Air JD13 185,https://img.btdmp.com/10080/10080507/products/1600144271718a789846.jpeg
https://www.anzfashion.com/products/jesus-air-jd13-186,Jesus Air JD13 186,https://img.btdmp.com/10080/10080507/products/1600144272cf94205405.jpeg
https://www.anzfashion.com/products/breast-cancer-air-jd13-shoes-156,Breast Cancer Air JD13 Shoes 156,https://img.btdmp.com/10080/10080507/products/1598610774d5e52cb2c3.jpeg
https://www.anzfashion.com/products/breast-cancer-air-jd13-shoes-051,Breast Cancer Air JD13 Shoes 051,https://img.btdmp.com/10080/10080507/products/1598610661ab2f94a59e.jpeg
https://www.anzfashion.com/products/believe-air-jd13-shoes-053,Believe Air JD13 Shoes 053,https://img.btdmp.com/10080/10080507/products/1598610667fa804ed619.jpeg
https://www.anzfashion.com/products/breast-cancer-air-jd13-shoes-052,Breast Cancer Air JD13 Shoes 052,https://img.btdmp.com/10080/10080507/products/1598610673efdaf57f93.jpeg
https://www.anzfashion.com/products/jesus-air-jd13-050,Jesus Air JD13 050,https://img.btdmp.com/10080/10080507/products/1600678051dd0e2e7e47.jpeg
https://www.anzfashion.com/products/jesus-air-jd13-048,Jesus Air JD13 048,https://img.btdmp.com/10080/10080507/products/160067805161b933b609.jpeg
https://www.anzfashion.com/products/jesus-air-jd13-047,Jesus Air JD13 047,https://img.btdmp.com/10080/10080507/products/16006780505f24f4cfe3.jpeg
https://www.anzfashion.com/products/jesus-air-jd13-049,Jesus Air JD13 049,https://img.btdmp.com/10080/10080507/products/160067806201e6696947.jpeg
https://www.anzfashion.com/products/jesus-air-jd13-045,Jesus Air JD13 045,https://img.btdmp.com/10080/10080507/products/16006780507b97cc6f3c.jpeg
https://www.anzfashion.com/products/jesus-air-jd13-046,Jesus Air JD13 046,https://img.btdmp.com/10080/10080507/products/16006780590d52c7db84.jpeg
https://www.anzfashion.com/products/jes-s-air-jd13-043,Jesus Air JD13 043,https://img.btdmp.com/10080/10080507/products/1598435366354d8ac693.jpeg
https://www.anzfashion.com/products/jesus-air-jd13-044,Jesus Air JD13 044,https://img.btdmp.com/10080/10080507/products/1598435371847c127fc4.jpeg
https://www.anzfashion.com/products/u-s-army-air-jd13-032,U.S. Army Air JD13 032,https://img.btdmp.com/10080/10080507/products/1597910239f416908a81.jpeg
https://www.anzfashion.com/products/u-s-air-force-air-jd13-031,U.S. Air Force Air JD13 031,https://img.btdmp.com/10080/10080507/products/15979077708b2a8c8509.jpeg
https://www.anzfashion.com/products/u-s-marine-corps-air-jd13-033,U.S. Marine Corps Air JD13 033,https://img.btdmp.com/10080/10080507/products/15979077838896adb1ba.jpeg
https://www.anzfashion.com/products/faith-jesus-air-jd13-shoes-118,Faith Jesus Air JD13 Shoes 118,https://img.btdmp.com/10080/10080507/products/15976661817836b87b95.jpeg
https://www.anzfashion.com/products/man-of-faith-jesus-air-jd13-shoes-117,Man Of Faith Jesus Air JD13 Shoes 117,https://img.btdmp.com/10080/10080507/products/1597666181f65f441139.jpeg
https://www.anzfashion.com/products/jesus-air-jd13-120,Jesus Air JD13 120,https://img.btdmp.com/10080/10080507/products/1597666181f5bb7018e3.jpeg
https://www.anzfashion.com/products/walk-by-faith-jesus-air-jd13-shoes-119,Walk By Faith Jesus Air JD13 Shoes 119,https://img.btdmp.com/10080/10080507/products/15976661811e0f500ce0.jpeg
https://www.anzfashion.com/products/chakra-leggings-tank-top-air-jd13-sneakers,Chakra Leggings - Tank Top - Air JD13 Sneakers,https://img.btdmp.com/10080/10080507/products/1597506435a63f215807.jpeg
https://www.anzfashion.com/products/horse-leggings-tank-top-air-jd13-sneakers,Horse Leggings - Tank Top - Air JD13 Sneakers,https://img.btdmp.com/10080/10080507/products/1597507379e69a4aec36.jpeg
https://www.anzfashion.com/products/horse-air-jd13-sneakers-103,Horse Air JD13 Sneakers 103,https://img.btdmp.com/10080/10080507/products/1597507344a874eff3ea.jpeg
https://www.anzfashion.com/products/chakra-air-jd13-sneakers-102,Chakra Air JD13 Sneakers 102,https://img.btdmp.com/10080/10080507/products/1597507362cd8b5afecd.jpeg
https://www.anzfashion.com/products/breast-cancer-air-jd13-shoes-029,Breast Cancer Air JD13 Shoes 029,https://img.btdmp.com/10080/10080507/products/1597229325ab9012190f.jpeg
https://www.anzfashion.com/products/walk-by-faith-jesus-air-jd13-shoes-073,Walk By Faith Jesus Air JD13 Shoes 073,https://img.btdmp.com/10080/10080507/products/1597120189d2f97d281f.jpeg
https://www.anzfashion.com/products/betty-boop-air-jd13-shoes-027,Betty Boop Air JD13 Shoes 027,https://img.btdmp.com/10080/10080507/products/159705808674e9a4899d.jpeg
https://www.anzfashion.com/products/betty-boop-air-jd13-shoes-025,Betty Boop Air JD13 Shoes 025,https://img.btdmp.com/10080/10080507/products/1597058049c42e7723d4.jpeg
https://www.anzfashion.com/products/betty-boop-air-jd13-shoes-026,Betty Boop Air JD13 Shoes 026,https://img.btdmp.com/10080/10080507/products/1597058015e6d00b3f34.jpeg
https://www.anzfashion.com/products/betty-boop-air-jd13-shoes-024,Betty Boop Air JD13 Shoes 024,https://img.btdmp.com/10080/10080507/products/1597058004f231de022d.jpeg
https://www.anzfashion.com/products/horse-air-jd13-shoes-017,Horse Air JD13 Shoes 017,https://img.btdmp.com/10080/10080507/products/1597057870058136e3ba.jpeg
https://www.anzfashion.com/products/jesus-air-jd13-005,Jesus Air JD13 005,https://img.btdmp.com/10080/10080507/products/15968527066503884624.jpeg
https://www.anzfashion.com/products/u-s-navy-air-jd13-001,U.S. Navy Air JD13 001,https://img.btdmp.com/10080/10080507/products/15968519199909a13bab.jpeg
https://www.anzfashion.com/products/u-s-army-air-jd13-002,U.S. Army Air JD13 002,https://img.btdmp.com/10080/10080507/products/1596851868b1924b4adb.jpeg
https://www.anzfashion.com/products/u-s-army-air-jd13-personalized-003,U.S. Army Personalized Air JD13 003,https://img.btdmp.com/10080/10080507/products/1596851858c5afae3097.jpeg
https://www.anzfashion.com/products/u-s-army-personalized-air-jd13-004,U.S. Army Personalized Air JD13 004,https://img.btdmp.com/10080/10080507/products/159685183720f5116591.jpeg
