https://www.teebechic.com/ntl-mom-t10066?retailProductCode=626DE92F5BF4B2-56DEE32BCC43-S3FBC562-TPS104-WHT,Mom - Gift For Your Beloved Son - Lion BT04,https://cdn.32pt.com/public/sl-prod-od-0/images/retail-products/626DE92F5BF4B2/626DE92F5BF4B2-56DEE32BCC43-S3FBC562-TPS104-WHT/front/regular.jpg
https://www.teebechic.com/tmc-mom-t11358-b1?retailProductCode=626DE92F5BF4B2-7D3A853BC957-S3FBC562-TPS104-WHT,MOM - Gifts For Your SON - To My SON -- BT09,https://cdn.32pt.com/public/sl-prod-od-0/images/retail-products/626DE92F5BF4B2/626DE92F5BF4B2-7D3A853BC957-S3FBC562-TPS104-WHT/front/regular.jpg
https://www.teebechic.com/ddn-mom-t11358-b1?retailProductCode=626DE92F5BF4B2-C25A156A9C06-S3FBC683-TPS101-WHT,BT12 - Eagle - Mom -To my Son,https://cdn.32pt.com/public/sl-prod-od-0/images/retail-products/626DE92F5BF4B2/626DE92F5BF4B2-C25A156A9C06-S3FBC683-TPS101-WHT/front/regular.jpg
https://www.teebechic.com/tad-son-t0221034-mom?retailProductCode=626DE92F5BF4B2-280AF2EBC906-S3FBC560-TPS104-WHT,Son - Perfect Gift For Your Mom - BT11,https://cdn.32pt.com/public/sl-prod-od-0/images/retail-products/626DE92F5BF4B2/626DE92F5BF4B2-280AF2EBC906-S3FBC560-TPS104-WHT/front/regular.jpg
https://www.teebechic.com/pvt-daughter-blanket-t12384?retailProductCode=626DE92F5BF4B2-F2C10FAB8957-S3FBC564-TPS104-WHT,PVT - Daughter - To my beloved mom - 05,https://cdn.32pt.com/public/sl-prod-od-0/images/retail-products/626DE92F5BF4B2/626DE92F5BF4B2-F2C10FAB8957-S3FBC564-TPS104-WHT/front/regular.jpg
https://www.teebechic.com/ddn-upsell-blanket-mom-t11290?retailProductCode=626DE92F5BF4B2-1C5D342BCD13-S3FBC682-TPS101-WHT,BT12 -Mom- Gift For Daughter Blanket Sunflower,https://cdn.32pt.com/public/sl-prod-od-0/images/retail-products/626DE92F5BF4B2/626DE92F5BF4B2-1C5D342BCD13-S3FBC682-TPS101-WHT/front/regular.jpg
https://www.teebechic.com/ddn-blanket-mom-t01482-2?retailProductCode=626DE92F5BF4B2-43F0B6EE8C07-S3FBC341-TPS100-WHT,BT12 -Mom- Gift For Daughter Blanket,https://cdn.32pt.com/public/sl-prod-od-0/images/retail-products/626DE92F5BF4B2/626DE92F5BF4B2-43F0B6EE8C07-S3FBC341-TPS100-WHT/front/regular.jpg
https://www.teebechic.com/ttt-t321336?retailProductCode=626DE92F5BF4B2-13A3E8EFD803-S3FBC563-TPS104-WHT,BT10 - GIFT FOR YOUR MOM,https://cdn.32pt.com/public/sl-prod-od-0/images/retail-products/626DE92F5BF4B2/626DE92F5BF4B2-13A3E8EFD803-S3FBC563-TPS104-WHT/front/regular.jpg
https://www.teebechic.com/ddn-daughter-mom-t03287-2?retailProductCode=626DE92F5BF4B2-E46C49EED852-S3FBC563-TPS104-WHT,BT12 - Daughter's Gift For Mom,https://cdn.32pt.com/public/sl-prod-od-0/images/retail-products/626DE92F5BF4B2/626DE92F5BF4B2-E46C49EED852-S3FBC563-TPS104-WHT/front/regular.jpg
https://www.teebechic.com/pvt-family-blanket-t10024-bt05?retailProductCode=626DE92F5BF4B2-D5AFAF6FD812-S3FBC562-TPS104-WHT,PVT - To my beloved mom - 05,https://cdn.32pt.com/public/sl-prod-od-0/images/retail-products/626DE92F5BF4B2/626DE92F5BF4B2-D5AFAF6FD812-S3FBC562-TPS104-WHT/front/regular.jpg
https://www.teebechic.com/ddn-daughter-blanket-t11102?retailProductCode=626DE92F5BF4B2-8632F06E8C42-S3FBC560-TPS104-WHT,Daughter's Gift For Mom - To My Mom - BT12,https://cdn.32pt.com/public/sl-prod-od-0/images/retail-products/626DE92F5BF4B2/626DE92F5BF4B2-8632F06E8C42-S3FBC560-TPS104-WHT/front/regular.jpg
https://www.teebechic.com/ddn-family-blanket-t10024-bt05?retailProductCode=626DE92F5BF4B2-8C76F46E9856-S3FBC563-TPS104-WHT,Daughter's Gift For Mom - To My Mom - BT12,https://cdn.32pt.com/public/sl-prod-od-0/images/retail-products/626DE92F5BF4B2/626DE92F5BF4B2-8C76F46E9856-S3FBC563-TPS104-WHT/front/regular.jpg
https://www.teebechic.com/pvt-daughter-blanket-t03267?retailProductCode=626DE92F5BF4B2-E5A45CBF9913-S3FBC564-TPS104-WHT,PVT - Daughter - To my beloved mom - 05,https://cdn.32pt.com/public/sl-prod-od-0/images/retail-products/626DE92F5BF4B2/626DE92F5BF4B2-E5A45CBF9913-S3FBC564-TPS104-WHT/front/regular.jpg
https://www.teebechic.com/pvt-daughter-t03226?retailProductCode=626DE92F5BF4B2-DFD409AA9C17-S3FBC560-TPS104-WHT,PVT - Daughter - To my beloved mom - 05,https://cdn.32pt.com/public/sl-prod-od-0/images/retail-products/626DE92F5BF4B2/626DE92F5BF4B2-DFD409AA9C17-S3FBC560-TPS104-WHT/front/regular.jpg
https://www.teebechic.com/ddn-daughter-mom-t03229?retailProductCode=626DE92F5BF4B2-4F210DFB8C57-S3FBC340-TPS100-WHT,BT12 - Daughter's Gift For Mom,https://cdn.32pt.com/public/sl-prod-od-0/images/retail-products/626DE92F5BF4B2/626DE92F5BF4B2-4F210DFB8C57-S3FBC340-TPS100-WHT/front/regular.jpg
https://www.teebechic.com/ddn-daughter-mom-t03230?retailProductCode=626DE92F5BF4B2-C0E118FBD857-S3FBC684-TPS101-WHT,BT12 - Daughter's Gift For Mom,https://cdn.32pt.com/public/sl-prod-od-0/images/retail-products/626DE92F5BF4B2/626DE92F5BF4B2-C0E118FBD857-S3FBC684-TPS101-WHT/front/regular.jpg
https://www.teebechic.com/06td-blanket-son-t11356?retailProductCode=626DE92F5BF4B2-C617CD2F8C53-S3FBC681-TPS101-WHT,BT06 - Son - Gifts For Mom Blanket,https://cdn.32pt.com/public/sl-prod-od-0/images/retail-products/626DE92F5BF4B2/626DE92F5BF4B2-C617CD2F8C53-S3FBC681-TPS101-WHT/front/regular.jpg
https://www.teebechic.com/ddn-blanket-son-t03222?retailProductCode=626DE92F5BF4B2-117048AF8947-S3FBS681-TPS103-WHT,BT12 - Son - Gifts For Mom Blanket,https://cdn.32pt.com/public/sl-prod-od-0/images/retail-products/626DE92F5BF4B2/626DE92F5BF4B2-117048AF8947-S3FBS681-TPS103-WHT/front/regular.jpg
https://www.teebechic.com/ddn-mom-t03074?retailProductCode=626DE92F5BF4B2-F66C98FB9946-S3FBC342-TPS100-WHT,BT12 - Eagle - Mom -To my Son,https://cdn.32pt.com/public/sl-prod-od-0/images/retail-products/626DE92F5BF4B2/626DE92F5BF4B2-F66C98FB9946-S3FBC342-TPS100-WHT/front/regular.jpg
https://www.teebechic.com/ttt-t321188?retailProductCode=626DE92F5BF4B2-4CCAC8FB9903-S3FBC563-TPS104-WHT,BT10 - GIFT FOR DAUGHTER - BEST DESIGN,https://cdn.32pt.com/public/sl-prod-od-0/images/retail-products/626DE92F5BF4B2/626DE92F5BF4B2-4CCAC8FB9903-S3FBC563-TPS104-WHT/front/regular.jpg
https://www.teebechic.com/pvt-daughter-blanket-t03265?retailProductCode=626DE92F5BF4B2-7A614DFEC806-S3FBC680-TPS101-WHT,PVT - Daughter - To my bonus mom - 05,https://cdn.32pt.com/public/sl-prod-od-0/images/retail-products/626DE92F5BF4B2/626DE92F5BF4B2-7A614DFEC806-S3FBC680-TPS101-WHT/front/regular.jpg
https://www.teebechic.com/pvt-daughter-t03226b?retailProductCode=626DE92F5BF4B2-7B814DABD942-S3FBS560-TPS102-WHT,PVT - Daughter - To my beloved mom - 05,https://cdn.32pt.com/public/sl-prod-od-0/images/retail-products/626DE92F5BF4B2/626DE92F5BF4B2-7B814DABD942-S3FBS560-TPS102-WHT/front/regular.jpg
https://www.teebechic.com/ddn-mom-t12068?retailProductCode=626DE92F5BF4B2-7C8F457F9916-S3FBS682-TPS103-WHT,BT12 - Mom -To my Son,https://cdn.32pt.com/public/sl-prod-od-0/images/retail-products/626DE92F5BF4B2/626DE92F5BF4B2-7C8F457F9916-S3FBS682-TPS103-WHT/front/regular.jpg
https://www.teebechic.com/pvt-son-mom-t03320?retailProductCode=626DE92F5BF4B2-9B38A8FB9D17-S3FBS563-TPS102-WHT,PVT - YOU ARE THE WORLD - LOVELY GIFT FOR MOM,https://cdn.32pt.com/public/sl-prod-od-0/images/retail-products/626DE92F5BF4B2/626DE92F5BF4B2-9B38A8FB9D17-S3FBS563-TPS102-WHT/front/regular.jpg
https://www.teebechic.com/ntl-mom-t01482?retailProductCode=626DE92F5BF4B2-6F73B7EBDD47-S3FBC561-TPS104-WHT,BT04 -Mom- Gift For Daughter,https://cdn.32pt.com/public/sl-prod-od-0/images/retail-products/626DE92F5BF4B2/626DE92F5BF4B2-6F73B7EBDD47-S3FBC561-TPS104-WHT/front/regular.jpg
https://www.teebechic.com/tad-blanket-son-t12456?retailProductCode=626DE92F5BF4B2-0B6AA6AA9D03-S3FBC561-TPS104-WHT,Son - Gifts For Mom Blanket - BT11,https://cdn.32pt.com/public/sl-prod-od-0/images/retail-products/626DE92F5BF4B2/626DE92F5BF4B2-0B6AA6AA9D03-S3FBC561-TPS104-WHT/front/regular.jpg
https://www.teebechic.com/tad-daughter-t01179?retailProductCode=626DE92F5BF4B2-86BBA3AECC03-S3FBC564-TPS104-WHT,Perfect Gift For Your Mom - BT11,https://cdn.32pt.com/public/sl-prod-od-0/images/retail-products/626DE92F5BF4B2/626DE92F5BF4B2-86BBA3AECC03-S3FBC564-TPS104-WHT/front/regular.jpg
https://www.teebechic.com/tad-blanket-son-t12182?retailProductCode=626DE92F5BF4B2-EF3BF6BED943-S3FBC563-TPS104-WHT,Son - Gifts For Mom Blanket - BT11,https://cdn.32pt.com/public/sl-prod-od-0/images/retail-products/626DE92F5BF4B2/626DE92F5BF4B2-EF3BF6BED943-S3FBC563-TPS104-WHT/front/regular.jpg
https://www.teebechic.com/tad-daughter-t01175-mom?retailProductCode=626DE92F5BF4B2-D8BBF7AADD52-S3FBC561-TPS104-WHT,Perfect Gift For Your Mom - BT11,https://cdn.32pt.com/public/sl-prod-od-0/images/retail-products/626DE92F5BF4B2/626DE92F5BF4B2-D8BBF7AADD52-S3FBC561-TPS104-WHT/front/regular.jpg
https://www.teebechic.com/tad-daughter-t01178-01?retailProductCode=626DE92F5BF4B2-53EBA6FB8913-S3FBC561-TPS104-WHT,Perfect Gift For Your Mom - BT11,https://cdn.32pt.com/public/sl-prod-od-0/images/retail-products/626DE92F5BF4B2/626DE92F5BF4B2-53EBA6FB8913-S3FBC561-TPS104-WHT/front/regular.jpg
https://www.teebechic.com/tad-daughter-t01174-mom?retailProductCode=626DE92F5BF4B2-28EFB3BECC53-S3FBC563-TPS104-WHT,Perfect Gift For Your Mom - BT11,https://cdn.32pt.com/public/sl-prod-od-0/images/retail-products/626DE92F5BF4B2/626DE92F5BF4B2-28EFB3BECC53-S3FBC563-TPS104-WHT/front/regular.jpg
https://www.teebechic.com/pvt-mom-t11339?retailProductCode=626DE92F5BF4B2-5BF3983BCD53-S3FBC562-TPS104-WHT,PVT - Mom - To my Son - 05,https://cdn.32pt.com/public/sl-prod-od-0/images/retail-products/626DE92F5BF4B2/626DE92F5BF4B2-5BF3983BCD53-S3FBC562-TPS104-WHT/front/regular.jpg
https://www.teebechic.com/tad-daughter-t01177?retailProductCode=626DE92F5BF4B2-ECBAE7EE8946-S3FBC560-TPS104-WHT,Perfect Gift For Your Mom - BT11,https://cdn.32pt.com/public/sl-prod-od-0/images/retail-products/626DE92F5BF4B2/626DE92F5BF4B2-ECBAE7EE8946-S3FBC560-TPS104-WHT/front/regular.jpg
https://www.teebechic.com/tad-blanket-son-t11356?retailProductCode=626DE92F5BF4B2-7F2BA2FE8D52-S3FBC563-TPS104-WHT,Son - Gifts For Mom Blanket - BT11,https://cdn.32pt.com/public/sl-prod-od-0/images/retail-products/626DE92F5BF4B2/626DE92F5BF4B2-7F2BA2FE8D52-S3FBC563-TPS104-WHT/front/regular.jpg
https://www.teebechic.com/tad-daughter-12403?retailProductCode=626DE92F5BF4B2-63FBB3BFDD13-S3FBC564-TPS104-RED,Daughter - Gift For Your Beloved Mom - BT11,https://cdn.32pt.com/public/sl-prod-od-0/images/retail-products/626DE92F5BF4B2/626DE92F5BF4B2-63FBB3BFDD13-S3FBC564-TPS104-RED/front/regular.jpg
https://www.teebechic.com/tad-mom-t11358-b1?retailProductCode=626DE92F5BF4B2-8D53046ED906-S3FBC560-TPS104-WHT,Mom - Perfect Gift For My Son - BT11,https://cdn.32pt.com/public/sl-prod-od-0/images/retail-products/626DE92F5BF4B2/626DE92F5BF4B2-8D53046ED906-S3FBC560-TPS104-WHT/front/regular.jpg
https://www.teebechic.com/ttt-mom--daughter-bl-t121495?retailProductCode=626DE92F5BF4B2-27D0E7AB9D47-S3FBC560-TPS104-WHT,MOM - GIFT FOR YOUR DAUGHTER - ELEPHANT - BT10,https://cdn.32pt.com/public/sl-prod-od-0/images/retail-products/626DE92F5BF4B2/626DE92F5BF4B2-27D0E7AB9D47-S3FBC560-TPS104-WHT/front/regular.jpg
https://www.teebechic.com/tad-blanket-daughter-t12397?retailProductCode=626DE92F5BF4B2-A3BAF7BA8D12-S3FBC560-TPS104-WHT,BT11 - Daughter - Gifts For Mom Blanket Sunflower,https://cdn.32pt.com/public/sl-prod-od-0/images/retail-products/626DE92F5BF4B2/626DE92F5BF4B2-A3BAF7BA8D12-S3FBC560-TPS104-WHT/front/regular.jpg
https://www.teebechic.com/tmc-mom-t12134?retailProductCode=626DE92F5BF4B2-1D6EC03B8852-S3FBC561-TPS104-WHT,To My SON - MOM Gifts For Your SON - BT09,https://cdn.32pt.com/public/sl-prod-od-0/images/retail-products/626DE92F5BF4B2/626DE92F5BF4B2-1D6EC03B8852-S3FBC561-TPS104-WHT/front/regular.jpg
https://www.teebechic.com/tmc-soimt-o1-mom?retailProductCode=626DE92F5BF4B2-61B1C82F8843-S3FBC561-TPS104-WHT,To My SON - MOM Gifts For Your SON - BT09,https://cdn.32pt.com/public/sl-prod-od-0/images/retail-products/626DE92F5BF4B2/626DE92F5BF4B2-61B1C82F8843-S3FBC561-TPS104-WHT/front/regular.jpg
https://www.teebechic.com/tmc-family-t10063-bt09?retailProductCode=626DE92F5BF4B2-553C3E3FDC46-S3FBC560-TPS104-WHT,MOM - Gifts For Your SON - To My SON -- BT09,https://cdn.32pt.com/public/sl-prod-od-0/images/retail-products/626DE92F5BF4B2/626DE92F5BF4B2-553C3E3FDC46-S3FBC560-TPS104-WHT/front/regular.jpg
https://www.teebechic.com/tad-daughter-02042-mom?retailProductCode=626DE92F5BF4B2-E4FFF3EF8903-S3FBC561-TPS104-WHT,Daughter - Gift For Your Beloved Mom - BT11,https://cdn.32pt.com/public/sl-prod-od-0/images/retail-products/626DE92F5BF4B2/626DE92F5BF4B2-E4FFF3EF8903-S3FBC561-TPS104-WHT/front/regular.jpg
https://www.teebechic.com/tmc-son04-mom-t12017?retailProductCode=626DE92F5BF4B2-2FC64C3F9C06-S3FBC560-TPS104-WHT,To My SON - MOM Gifts For Your SON - BT09,https://cdn.32pt.com/public/sl-prod-od-0/images/retail-products/626DE92F5BF4B2/626DE92F5BF4B2-2FC64C3F9C06-S3FBC560-TPS104-WHT/front/regular.jpg
https://www.teebechic.com/tmc-ctmt0-mom1?retailProductCode=626DE92F5BF4B2-00E6986E8817-S3FBC561-TPS104-WHT,MOM - Gifts For Your SON - To My SON - - BT09,https://cdn.32pt.com/public/sl-prod-od-0/images/retail-products/626DE92F5BF4B2/626DE92F5BF4B2-00E6986E8817-S3FBC561-TPS104-WHT/front/regular.jpg
https://www.teebechic.com/ntl-mom-02018?retailProductCode=626DE92F5BF4B2-CF27A2BE9D46-S3FBC561-TPS104-WHT,Mom - Gift For Your Beloved Daughter - BT04,https://cdn.32pt.com/public/sl-prod-od-0/images/retail-products/626DE92F5BF4B2/626DE92F5BF4B2-CF27A2BE9D46-S3FBC561-TPS104-WHT/front/regular.jpg
https://www.teebechic.com/tmc-family-t10080-mom2?retailProductCode=626DE92F5BF4B2-5B0D6A2ACC03-S3FBC560-TPS104-WHT,To My SON - MOM Gifts For Your SON - BT09,https://cdn.32pt.com/public/sl-prod-od-0/images/retail-products/626DE92F5BF4B2/626DE92F5BF4B2-5B0D6A2ACC03-S3FBC560-TPS104-WHT/front/regular.jpg
https://www.teebechic.com/tmc-family-t10080-mom2-?retailProductCode=626DE92F5BF4B2-F76AC07FCC07-S3FBC563-TPS104-WHT,To My SON - MOM Gifts For Your SON - BT09,https://cdn.32pt.com/public/sl-prod-od-0/images/retail-products/626DE92F5BF4B2/626DE92F5BF4B2-F76AC07FCC07-S3FBC563-TPS104-WHT/front/regular.jpg
https://www.teebechic.com/tmc-family-t10108-son-05?retailProductCode=626DE92F5BF4B2-167B7F3A9946-S3FBC562-TPS104-WHT,MOM - Gifts For Your SON - To My SON -- BT09,https://cdn.32pt.com/public/sl-prod-od-0/images/retail-products/626DE92F5BF4B2/626DE92F5BF4B2-167B7F3A9946-S3FBC562-TPS104-WHT/front/regular.jpg
https://www.teebechic.com/ntc-mom-11228?retailProductCode=626DE92F5BF4B2-7FF3E2AE8C43-S3FBC560-TPS104-WHT,Mom - Gift For Your Beloved Daughter - BT03,https://cdn.32pt.com/public/sl-prod-od-0/images/retail-products/626DE92F5BF4B2/626DE92F5BF4B2-7FF3E2AE8C43-S3FBC560-TPS104-WHT/front/regular.jpg
https://www.teebechic.com/tmc-nnn01-to-my-son-from-mom-t12078?retailProductCode=626DE92F5BF4B2-2057853F8C13-S3FBC561-TPS104-WHT,MOM - Gifts For Your SON - To My SON -- BT09,https://cdn.32pt.com/public/sl-prod-od-0/images/retail-products/626DE92F5BF4B2/626DE92F5BF4B2-2057853F8C13-S3FBC561-TPS104-WHT/front/regular.jpg
https://www.teebechic.com/tmc-bb12?retailProductCode=626DE92F5BF4B2-FCE1066BD906-S3FBC561-TPS104-WHT,To My SON - MOM Gifts For Your SON - BT09,https://cdn.32pt.com/public/sl-prod-od-0/images/retail-products/626DE92F5BF4B2/626DE92F5BF4B2-FCE1066BD906-S3FBC561-TPS104-WHT/front/regular.jpg
https://www.teebechic.com/tmc-bb13-mom-dad?retailProductCode=626DE92F5BF4B2-00D5576B9D17-S3FBC562-TPS104-WHT,MOM - Gifts For Your SON - To My SON -- BT09,https://cdn.32pt.com/public/sl-prod-od-0/images/retail-products/626DE92F5BF4B2/626DE92F5BF4B2-00D5576B9D17-S3FBC562-TPS104-WHT/front/regular.jpg
https://www.teebechic.com/tad-daughter-blanket-t12333?retailProductCode=626DE92F5BF4B2-61FAB7ABCC52-S3FBC562-TPS104-WHT,BT11 - Daughter - To my beloved mom - 05,https://cdn.32pt.com/public/sl-prod-od-0/images/retail-products/626DE92F5BF4B2/626DE92F5BF4B2-61FAB7ABCC52-S3FBC562-TPS104-WHT/front/regular.jpg
https://www.teebechic.com/tmc-bbct09-mom?retailProductCode=626DE92F5BF4B2-1EA6E76FC817-S3FBC562-TPS104-WHT,To My SON - MOM Gifts For Your SON - BT09,https://cdn.32pt.com/public/sl-prod-od-0/images/retail-products/626DE92F5BF4B2/626DE92F5BF4B2-1EA6E76FC817-S3FBC562-TPS104-WHT/front/regular.jpg
https://www.teebechic.com/tmc-family-t10037-mom21?retailProductCode=626DE92F5BF4B2-FAC46F2BDD52-S3FBC564-TPS104-WHT,MOM - Gifts For Your SON - To My SON -- BT09,https://cdn.32pt.com/public/sl-prod-od-0/images/retail-products/626DE92F5BF4B2/626DE92F5BF4B2-FAC46F2BDD52-S3FBC564-TPS104-WHT/front/regular.jpg
https://www.teebechic.com/ttt-mom-t0121068?retailProductCode=626DE92F5BF4B2-A34CE2AA9C46-S3FBC563-TPS104-WHT,BT10 - Mom - Gift For Your Beloved Daughter,https://cdn.32pt.com/public/sl-prod-od-0/images/retail-products/626DE92F5BF4B2/626DE92F5BF4B2-A34CE2AA9C46-S3FBC563-TPS104-WHT/front/regular.jpg
https://www.teebechic.com/ntl-daughter-02038-mom?retailProductCode=626DE92F5BF4B2-DE92A3FF9D52-S3FBC564-TPS104-WHT,Daughter - Gift For Your Beloved Mom - BT04,https://cdn.32pt.com/public/sl-prod-od-0/images/retail-products/626DE92F5BF4B2/626DE92F5BF4B2-DE92A3FF9D52-S3FBC564-TPS104-WHT/front/regular.jpg
https://www.teebechic.com/tmc-soi-doi-tl-tach-11112c?retailProductCode=626DE92F5BF4B2-F48F846E9903-S3FBC564-TPS104-WHT,To My SON - MOM Gifts For Your SON - BT09,https://cdn.32pt.com/public/sl-prod-od-0/images/retail-products/626DE92F5BF4B2/626DE92F5BF4B2-F48F846E9903-S3FBC564-TPS104-WHT/front/regular.jpg
https://www.teebechic.com/tmc-mom-t12206?retailProductCode=626DE92F5BF4B2-2167417FD806-S3FBC564-TPS104-WHT,MOM - Gifts For Your SON - To My SON -- BT09,https://cdn.32pt.com/public/sl-prod-od-0/images/retail-products/626DE92F5BF4B2/626DE92F5BF4B2-2167417FD806-S3FBC564-TPS104-WHT/front/regular.jpg
https://www.teebechic.com/tmc-mom-t12088?retailProductCode=626DE92F5BF4B2-22D6813FC947-S3FBC563-TPS104-WHT,MOM - Gifts For Your SON - To My SON -- BT09,https://cdn.32pt.com/public/sl-prod-od-0/images/retail-products/626DE92F5BF4B2/626DE92F5BF4B2-22D6813FC947-S3FBC563-TPS104-WHT/front/regular.jpg
https://www.teebechic.com/tmc-t12052?retailProductCode=626DE92F5BF4B2-AE5E857E8913-S3FBC560-TPS104-WHT,MOM - Gifts For Your SON - To My SON -- BT09,https://cdn.32pt.com/public/sl-prod-od-0/images/retail-products/626DE92F5BF4B2/626DE92F5BF4B2-AE5E857E8913-S3FBC560-TPS104-WHT/front/regular.jpg
https://www.teebechic.com/tmc-mom-t12068?retailProductCode=626DE92F5BF4B2-010EC02EC856-S3FBC564-TPS104-WHT,To My SON - MOM Gifts For Your SON - BT09,https://cdn.32pt.com/public/sl-prod-od-0/images/retail-products/626DE92F5BF4B2/626DE92F5BF4B2-010EC02EC856-S3FBC564-TPS104-WHT/front/regular.jpg
https://www.teebechic.com/tmc-bbct03-mom?retailProductCode=626DE92F5BF4B2-A146167A9903-S3FBC563-TPS104-WHT,To My SON - MOM Gifts For Your SON - BT09,https://cdn.32pt.com/public/sl-prod-od-0/images/retail-products/626DE92F5BF4B2/626DE92F5BF4B2-A146167A9903-S3FBC563-TPS104-WHT/front/regular.jpg
https://www.teebechic.com/ttt-mom-12020?retailProductCode=626DE92F5BF4B2-2E0DF2BE8807-S3FBC564-TPS104-WHT,Mom - Gift For Your Beloved Daughter - BT10,https://cdn.32pt.com/public/sl-prod-od-0/images/retail-products/626DE92F5BF4B2/626DE92F5BF4B2-2E0DF2BE8807-S3FBC564-TPS104-WHT/front/regular.jpg
https://www.teebechic.com/tad-son-t0221048-mom?retailProductCode=626DE92F5BF4B2-F34AA2BE8D47-S3FBC562-TPS104-WHT,Son - Perfect Gift For Your Mom - BT11,https://cdn.32pt.com/public/sl-prod-od-0/images/retail-products/626DE92F5BF4B2/626DE92F5BF4B2-F34AA2BE8D47-S3FBC562-TPS104-WHT/front/regular.jpg
https://www.teebechic.com/btg-daughter-blanket-t02066?retailProductCode=626DE92F5BF4B2-9A5173EA8D56-S3FBC561-TPS104-WHT,BTG - Gifts For Your Mother - To my Mom,https://cdn.32pt.com/public/sl-prod-od-0/images/retail-products/626DE92F5BF4B2/626DE92F5BF4B2-9A5173EA8D56-S3FBC561-TPS104-WHT/front/regular.jpg
https://www.teebechic.com/tmc-zaim0-01-mom?retailProductCode=626DE92F5BF4B2-27345C3F9D42-S3FBC562-TPS104-WHT,MOM - Gifts For Your SON - To My SON -- BT09,https://cdn.32pt.com/public/sl-prod-od-0/images/retail-products/626DE92F5BF4B2/626DE92F5BF4B2-27345C3F9D42-S3FBC562-TPS104-WHT/front/regular.jpg
https://www.teebechic.com/tmc-son04-mom-t11370?retailProductCode=626DE92F5BF4B2-29CAD93E9C46-S3FBC561-TPS104-WHT,MOM - Gifts For Your SON - To My SON -- BT09,https://cdn.32pt.com/public/sl-prod-od-0/images/retail-products/626DE92F5BF4B2/626DE92F5BF4B2-29CAD93E9C46-S3FBC561-TPS104-WHT/front/regular.jpg
https://www.teebechic.com/tmc-mtct001-mom-son?retailProductCode=626DE92F5BF4B2-2E7E083ACC06-S3FBC560-TPS104-WHT,To My SON - MOM Gifts For Your SON - BT09,https://cdn.32pt.com/public/sl-prod-od-0/images/retail-products/626DE92F5BF4B2/626DE92F5BF4B2-2E7E083ACC06-S3FBC560-TPS104-WHT/front/regular.jpg
https://www.teebechic.com/tad-daughter-02038-mom?retailProductCode=626DE92F5BF4B2-5DEBE2EAC812-S3FBC561-TPS104-WHT,Daughter - Gift For Your Beloved Mom - BT11,https://cdn.32pt.com/public/sl-prod-od-0/images/retail-products/626DE92F5BF4B2/626DE92F5BF4B2-5DEBE2EAC812-S3FBC561-TPS104-WHT/front/regular.jpg
https://www.teebechic.com/btg-daughter-blanket-t02068?retailProductCode=626DE92F5BF4B2-710177BFD906-S3FBC561-TPS104-WHT,BTG - Gifts For Your Mother - To my Mom,https://cdn.32pt.com/public/sl-prod-od-0/images/retail-products/626DE92F5BF4B2/626DE92F5BF4B2-710177BFD906-S3FBC561-TPS104-WHT/front/regular.jpg
https://www.teebechic.com/tmc-son-t11162?retailProductCode=626DE92F5BF4B2-CEBEC17AC853-S3FBC564-TPS104-WHT,MOM - Gifts For Your SON - To My SON -- BT09,https://cdn.32pt.com/public/sl-prod-od-0/images/retail-products/626DE92F5BF4B2/626DE92F5BF4B2-CEBEC17AC853-S3FBC564-TPS104-WHT/front/regular.jpg
https://www.teebechic.com/tmc-mtct-01-mom?retailProductCode=626DE92F5BF4B2-9B21882E8812-S3FBC562-TPS104-WHT,MOM - Gifts For Your SON - To My SON -- BT09,https://cdn.32pt.com/public/sl-prod-od-0/images/retail-products/626DE92F5BF4B2/626DE92F5BF4B2-9B21882E8812-S3FBC562-TPS104-WHT/front/regular.jpg
https://www.teebechic.com/tmc-son-t11162?retailProductCode=626DE92F5BF4B2-CEBEC17AC853-S3FBC564-TPS104-WHT,MOM - Gifts For Your SON - To My SON -- BT09,https://cdn.32pt.com/public/sl-prod-od-0/images/retail-products/626DE92F5BF4B2/626DE92F5BF4B2-CEBEC17AC853-S3FBC564-TPS104-WHT/front/regular.jpg
https://www.teebechic.com/tad-son-t01178-mom?retailProductCode=626DE92F5BF4B2-873EA7BE8D56-S3FBC561-TPS104-WHT,Son - Perfect Gift For Your Mom - BT11,https://cdn.32pt.com/public/sl-prod-od-0/images/retail-products/626DE92F5BF4B2/626DE92F5BF4B2-873EA7BE8D56-S3FBC561-TPS104-WHT/front/regular.jpg
https://www.teebechic.com/tad-daughter-blanket-t12387?retailProductCode=626DE92F5BF4B2-1FBBB2EE8D16-S3FBC561-TPS104-WHT,BT11 - Daughter - To my beloved mom - 05,https://cdn.32pt.com/public/sl-prod-od-0/images/retail-products/626DE92F5BF4B2/626DE92F5BF4B2-1FBBB2EE8D16-S3FBC561-TPS104-WHT/front/regular.jpg
https://www.teebechic.com/tad-daughter-blanket-t12385?retailProductCode=626DE92F5BF4B2-8FAAB2BEDD47-S3FBC560-TPS104-WHT,BT11 - Daughter - To my beloved mom - 05,https://cdn.32pt.com/public/sl-prod-od-0/images/retail-products/626DE92F5BF4B2/626DE92F5BF4B2-8FAAB2BEDD47-S3FBC560-TPS104-WHT/front/regular.jpg
https://www.teebechic.com/ntl-mom-t11053b?retailProductCode=626DE92F5BF4B2-473FF7AEDC12-S3FBC562-TPS104-WHT,Mom - Gift For Your Beloved Daughter - BT04,https://cdn.32pt.com/public/sl-prod-od-0/images/retail-products/626DE92F5BF4B2/626DE92F5BF4B2-473FF7AEDC12-S3FBC562-TPS104-WHT/front/regular.jpg
https://www.teebechic.com/tmc-t12117?retailProductCode=626DE92F5BF4B2-2A5AC52B8907-S3FBC562-TPS104-WHT,MOM - Gifts For Your SON - To My SON -- BT09,https://cdn.32pt.com/public/sl-prod-od-0/images/retail-products/626DE92F5BF4B2/626DE92F5BF4B2-2A5AC52B8907-S3FBC562-TPS104-WHT/front/regular.jpg
https://www.teebechic.com/tmc-son05-mom-t11358b1?retailProductCode=626DE92F5BF4B2-8500B83A8853-S3FBC561-TPS104-WHT,MOM - Gifts For Your SON - To My SON -- BT09,https://cdn.32pt.com/public/sl-prod-od-0/images/retail-products/626DE92F5BF4B2/626DE92F5BF4B2-8500B83A8853-S3FBC561-TPS104-WHT/front/regular.jpg
https://www.teebechic.com/tmc-mom-t11219b?retailProductCode=626DE92F5BF4B2-904BC53A9D46-S3FBC564-TPS104-WHT,To My SON - MOM Gifts For Your SON - BT09,https://cdn.32pt.com/public/sl-prod-od-0/images/retail-products/626DE92F5BF4B2/626DE92F5BF4B2-904BC53A9D46-S3FBC564-TPS104-WHT/front/regular.jpg
https://www.teebechic.com/ntl-daughter-02042-mom?retailProductCode=626DE92F5BF4B2-FD7BE6FF8D06-S3FBC561-TPS104-WHT,Daughter - Gift For Your Beloved Mom - BT04,https://cdn.32pt.com/public/sl-prod-od-0/images/retail-products/626DE92F5BF4B2/626DE92F5BF4B2-FD7BE6FF8D06-S3FBC561-TPS104-WHT/front/regular.jpg
https://www.teebechic.com/btg-daughter-blanket-t02067?retailProductCode=626DE92F5BF4B2-B19466EBCD42-S3FBC564-TPS104-WHT,BTG - Gifts For Your Mother - To my Mom,https://cdn.32pt.com/public/sl-prod-od-0/images/retail-products/626DE92F5BF4B2/626DE92F5BF4B2-B19466EBCD42-S3FBC564-TPS104-WHT/front/regular.jpg
https://www.teebechic.com/tmc-family-t10014-mom22?retailProductCode=626DE92F5BF4B2-9AD53A2ADC43-S3FBC562-TPS104-ASH,Mom's Gift For DAUGHTER - To My DAUGHTER -- BT09,https://cdn.32pt.com/public/sl-prod-od-0/images/retail-products/626DE92F5BF4B2/626DE92F5BF4B2-9AD53A2ADC43-S3FBC562-TPS104-ASH/front/regular.jpg
https://www.teebechic.com/tmc-baby04-01-mom?retailProductCode=626DE92F5BF4B2-68411D3FDC53-S3FBC561-TPS104-WHT,Mom's Gift For DAUGHTER - To My DAUGHTER -- BT09,https://cdn.32pt.com/public/sl-prod-od-0/images/retail-products/626DE92F5BF4B2/626DE92F5BF4B2-68411D3FDC53-S3FBC561-TPS104-WHT/front/regular.jpg
https://www.teebechic.com/tmc-baby01-01-mom?retailProductCode=626DE92F5BF4B2-D3345C7FC806-S3FBC564-TPS104-WHT,Mom's Gift For DAUGHTER - To My DAUGHTER -- BT09,https://cdn.32pt.com/public/sl-prod-od-0/images/retail-products/626DE92F5BF4B2/626DE92F5BF4B2-D3345C7FC806-S3FBC564-TPS104-WHT/front/regular.jpg
https://www.teebechic.com/tmc-bb27-mom?retailProductCode=626DE92F5BF4B2-2FB9033FD952-S3FBC562-TPS104-WHT,Mom's Gift For DAUGHTER - To My DAUGHTER -- BT09,https://cdn.32pt.com/public/sl-prod-od-0/images/retail-products/626DE92F5BF4B2/626DE92F5BF4B2-2FB9033FD952-S3FBC562-TPS104-WHT/front/regular.jpg
https://www.teebechic.com/tmc-bb19-mom?retailProductCode=626DE92F5BF4B2-86D5473A9903-S3FBC562-TPS104-WHT,Mom's Gift For DAUGHTER - To My DAUGHTER -- BT09,https://cdn.32pt.com/public/sl-prod-od-0/images/retail-products/626DE92F5BF4B2/626DE92F5BF4B2-86D5473A9903-S3FBC562-TPS104-WHT/front/regular.jpg
https://www.teebechic.com/tmc-up03-mom01?retailProductCode=626DE92F5BF4B2-36B2E23EC947-S3FBC561-TPS104-WHT,Mom's Gift For DAUGHTER - To My DAUGHTER -- BT09,https://cdn.32pt.com/public/sl-prod-od-0/images/retail-products/626DE92F5BF4B2/626DE92F5BF4B2-36B2E23EC947-S3FBC561-TPS104-WHT/front/regular.jpg
https://www.teebechic.com/tmc-bb38-mom?retailProductCode=626DE92F5BF4B2-FA99467AC852-S3FBC562-TPS104-WHT,Mom's Gift For DAUGHTER - To My DAUGHTER -- BT09,https://cdn.32pt.com/public/sl-prod-od-0/images/retail-products/626DE92F5BF4B2/626DE92F5BF4B2-FA99467AC852-S3FBC562-TPS104-WHT/front/regular.jpg
https://www.teebechic.com/tmc-bb14-mom?retailProductCode=626DE92F5BF4B2-31C5166EC853-S3FBC561-TPS104-WHT,Mom's Gift For DAUGHTER - To My DAUGHTER -- BT09,https://cdn.32pt.com/public/sl-prod-od-0/images/retail-products/626DE92F5BF4B2/626DE92F5BF4B2-31C5166EC853-S3FBC561-TPS104-WHT/front/regular.jpg
https://www.teebechic.com/tmc-mom-t11198-daughter?retailProductCode=626DE92F5BF4B2-CECB17BBCD43-S3FBC563-TPS104-WHT,Mom's Gift For DAUGHTER - To My DAUGHTER -- BT09,https://cdn.32pt.com/public/sl-prod-od-0/images/retail-products/626DE92F5BF4B2/626DE92F5BF4B2-CECB17BBCD43-S3FBC563-TPS104-WHT/front/regular.jpg
https://www.teebechic.com/tmc-ctmt1-mom123?retailProductCode=626DE92F5BF4B2-3AD0A96B8D12-S3FBC562-TPS104-WHT,Mom - Perfect Gift For Your Beloved Son- BT09,https://cdn.32pt.com/public/sl-prod-od-0/images/retail-products/626DE92F5BF4B2/626DE92F5BF4B2-3AD0A96B8D12-S3FBC562-TPS104-WHT/front/regular.jpg
https://www.teebechic.com/tmc-daughter04-t11371-mom?retailProductCode=626DE92F5BF4B2-CB4E8D3ECC52-S3FBC562-TPS104-WHT,Mom's Gift For DAUGHTER - To My DAUGHTER -- BT09,https://cdn.32pt.com/public/sl-prod-od-0/images/retail-products/626DE92F5BF4B2/626DE92F5BF4B2-CB4E8D3ECC52-S3FBC562-TPS104-WHT/front/regular.jpg
https://www.teebechic.com/tmc-family-t09099-mom-09?retailProductCode=626DE92F5BF4B2-F7C13A3FCC53-S3FBC562-TPS104-WHT,Mom's Gift For DAUGHTER - To My DAUGHTER -- BT09,https://cdn.32pt.com/public/sl-prod-od-0/images/retail-products/626DE92F5BF4B2/626DE92F5BF4B2-F7C13A3FCC53-S3FBC562-TPS104-WHT/front/regular.jpg
https://www.teebechic.com/tmc-mtcg-02?retailProductCode=626DE92F5BF4B2-7BA0DD2A8C42-S3FBC561-TPS104-WHT,Mom's Gift For DAUGHTER - To My DAUGHTER -- BT09,https://cdn.32pt.com/public/sl-prod-od-0/images/retail-products/626DE92F5BF4B2/626DE92F5BF4B2-7BA0DD2A8C42-S3FBC561-TPS104-WHT/front/regular.jpg
https://www.teebechic.com/tmc-cgmt2-mom01?retailProductCode=626DE92F5BF4B2-D7E38D2AD957-S3FBC561-TPS104-WHT,Mom's Gift For DAUGHTER - To My DAUGHTER -- BT09,https://cdn.32pt.com/public/sl-prod-od-0/images/retail-products/626DE92F5BF4B2/626DE92F5BF4B2-D7E38D2AD957-S3FBC561-TPS104-WHT/front/regular.jpg
https://www.teebechic.com/tmc-bb29-mom?retailProductCode=626DE92F5BF4B2-6148077A9906-S3FBC562-TPS104-WHT,Mom's Gift For DAUGHTER - To My DAUGHTER -- BT09,https://cdn.32pt.com/public/sl-prod-od-0/images/retail-products/626DE92F5BF4B2/626DE92F5BF4B2-6148077A9906-S3FBC562-TPS104-WHT/front/regular.jpg
https://www.teebechic.com/tmc-bb28-mom?retailProductCode=626DE92F5BF4B2-901C136E8C52-S3FBC561-TPS104-WHT,Mom's Gift For DAUGHTER - To My DAUGHTER -- BT09,https://cdn.32pt.com/public/sl-prod-od-0/images/retail-products/626DE92F5BF4B2/626DE92F5BF4B2-901C136E8C52-S3FBC561-TPS104-WHT/front/regular.jpg
https://www.teebechic.com/tmc-mom-t01482-2?retailProductCode=626DE92F5BF4B2-D6F1F2BBDD42-S3FBC560-TPS104-WHT,Mom's Gift For DAUGHTER - To My DAUGHTER -- BT09,https://cdn.32pt.com/public/sl-prod-od-0/images/retail-products/626DE92F5BF4B2/626DE92F5BF4B2-D6F1F2BBDD42-S3FBC560-TPS104-WHT/front/regular.jpg
https://www.teebechic.com/tmc-family-blanket-mama-t21?retailProductCode=626DE92F5BF4B2-C6A56A6A8953-S3FBC563-TPS104-WHT,Mom's Gift For DAUGHTER - To My DAUGHTER -- BT09,https://cdn.32pt.com/public/sl-prod-od-0/images/retail-products/626DE92F5BF4B2/626DE92F5BF4B2-C6A56A6A8953-S3FBC563-TPS104-WHT/front/regular.jpg
https://www.teebechic.com/tmc-mom-t11035-daughter?retailProductCode=626DE92F5BF4B2-79CA57BE8D47-S3FBC563-TPS104-WHT,Mom's Gift For DAUGHTER - To My DAUGHTER -- BT09,https://cdn.32pt.com/public/sl-prod-od-0/images/retail-products/626DE92F5BF4B2/626DE92F5BF4B2-79CA57BE8D47-S3FBC563-TPS104-WHT/front/regular.jpg
https://www.teebechic.com/tmc-mom-t11228?retailProductCode=626DE92F5BF4B2-AE8F56EA8916-S3FBC561-TPS104-WHT,Mom's Gift For DAUGHTER - To My DAUGHTER -- BT09,https://cdn.32pt.com/public/sl-prod-od-0/images/retail-products/626DE92F5BF4B2/626DE92F5BF4B2-AE8F56EA8916-S3FBC561-TPS104-WHT/front/regular.jpg
https://www.teebechic.com/tmc-bb16-mom?retailProductCode=626DE92F5BF4B2-E585136F8847-S3FBC560-TPS104-WHT,Mom's Gift For DAUGHTER - To My DAUGHTER -- BT09,https://cdn.32pt.com/public/sl-prod-od-0/images/retail-products/626DE92F5BF4B2/626DE92F5BF4B2-E585136F8847-S3FBC560-TPS104-WHT/front/regular.jpg
https://www.teebechic.com/tmc-bb30-mom?retailProductCode=626DE92F5BF4B2-5859522FCD53-S3FBC561-TPS104-WHT,Mom's Gift For DAUGHTER - To My DAUGHTER -- BT09,https://cdn.32pt.com/public/sl-prod-od-0/images/retail-products/626DE92F5BF4B2/626DE92F5BF4B2-5859522FCD53-S3FBC561-TPS104-WHT/front/regular.jpg
https://www.teebechic.com/tmc-daughter04-t11338b?retailProductCode=626DE92F5BF4B2-0B87D86BC917-S3FBC562-TPS104-WHT,Mom's Gift For DAUGHTER - To My DAUGHTER -- BT09,https://cdn.32pt.com/public/sl-prod-od-0/images/retail-products/626DE92F5BF4B2/626DE92F5BF4B2-0B87D86BC917-S3FBC562-TPS104-WHT/front/regular.jpg
https://www.teebechic.com/tmc-mtcg0002-daughter-mom-t11412-?retailProductCode=626DE92F5BF4B2-55FB4C7BDC13-S3FBC561-TPS104-WHT,Mom's Gift For DAUGHTER - To My DAUGHTER -- BT09,https://cdn.32pt.com/public/sl-prod-od-0/images/retail-products/626DE92F5BF4B2/626DE92F5BF4B2-55FB4C7BDC13-S3FBC561-TPS104-WHT/front/regular.jpg
https://www.teebechic.com/tmc-daughter03-t11338?retailProductCode=626DE92F5BF4B2-F8F6997AD947-S3FBC563-TPS104-WHT,Mom's Gift For DAUGHTER - To My DAUGHTER -- BT09,https://cdn.32pt.com/public/sl-prod-od-0/images/retail-products/626DE92F5BF4B2/626DE92F5BF4B2-F8F6997AD947-S3FBC563-TPS104-WHT/front/regular.jpg
https://www.teebechic.com/tmc-mom-t11228?retailProductCode=626DE92F5BF4B2-AE8F56EA8916-S3FBC561-TPS104-WHT,Mom's Gift For DAUGHTER - To My DAUGHTER -- BT09,https://cdn.32pt.com/public/sl-prod-od-0/images/retail-products/626DE92F5BF4B2/626DE92F5BF4B2-AE8F56EA8916-S3FBC561-TPS104-WHT/front/regular.jpg
https://www.teebechic.com/tmc-bb16-mom?retailProductCode=626DE92F5BF4B2-E585136F8847-S3FBC560-TPS104-WHT,Mom's Gift For DAUGHTER - To My DAUGHTER -- BT09,https://cdn.32pt.com/public/sl-prod-od-0/images/retail-products/626DE92F5BF4B2/626DE92F5BF4B2-E585136F8847-S3FBC560-TPS104-WHT/front/regular.jpg
https://www.teebechic.com/tmc-bb30-mom?retailProductCode=626DE92F5BF4B2-5859522FCD53-S3FBC561-TPS104-WHT,Mom's Gift For DAUGHTER - To My DAUGHTER -- BT09,https://cdn.32pt.com/public/sl-prod-od-0/images/retail-products/626DE92F5BF4B2/626DE92F5BF4B2-5859522FCD53-S3FBC561-TPS104-WHT/front/regular.jpg
https://www.teebechic.com/tmc-family-blanket-t1014602?retailProductCode=626DE92F5BF4B2-71ABC42BCD03-S3FBC563-TPS104-WHT,Mom's Gift For DAUGHTER - To My DAUGHTER BT09,https://cdn.32pt.com/public/sl-prod-od-0/images/retail-products/626DE92F5BF4B2/626DE92F5BF4B2-71ABC42BCD03-S3FBC563-TPS104-WHT/front/regular.jpg
https://www.teebechic.com/tmc-bb36-mom?retailProductCode=626DE92F5BF4B2-668D563ECD03-S3FBC563-TPS104-WHT,Mom's Gift For DAUGHTER - To My DAUGHTER -- BT09,https://cdn.32pt.com/public/sl-prod-od-0/images/retail-products/626DE92F5BF4B2/626DE92F5BF4B2-668D563ECD03-S3FBC563-TPS104-WHT/front/regular.jpg
https://www.teebechic.com/tmc-family-t10019-blanket-to-daughter-t22?retailProductCode=626DE92F5BF4B2-583D2F6ACC46-S3FBC562-TPS104-WHT,Mom's Gift For DAUGHTER - To My DAUGHTER -- BT09,https://cdn.32pt.com/public/sl-prod-od-0/images/retail-products/626DE92F5BF4B2/626DE92F5BF4B2-583D2F6ACC46-S3FBC562-TPS104-WHT/front/regular.jpg
https://www.teebechic.com/tmc-son04-mom-t1202617?retailProductCode=626DE92F5BF4B2-558F1D7A9C43-S3FBC563-TPS104-WHT,The Wolf - Perfect Gift For Your Beloved Son- BT09,https://cdn.32pt.com/public/sl-prod-od-0/images/retail-products/626DE92F5BF4B2/626DE92F5BF4B2-558F1D7A9C43-S3FBC563-TPS104-WHT/front/regular.jpg
https://www.teebechic.com/tmc-to-son-from-mom-t12088?retailProductCode=626DE92F5BF4B2-AAD6A86F9903-S3FBC562-TPS104-WHT,WOFL- Mom -Perfect Gift For Your Beloved Son- BT09,https://cdn.32pt.com/public/sl-prod-od-0/images/retail-products/626DE92F5BF4B2/626DE92F5BF4B2-AAD6A86F9903-S3FBC562-TPS104-WHT/front/regular.jpg
https://www.teebechic.com/tmc-mtcg0004-daughter-mom-t12044?retailProductCode=626DE92F5BF4B2-18A0AD7FDD42-S3FBC564-TPS104-WHT,Mom's Gift For DAUGHTER - To My DAUGHTER -- BT09,https://cdn.32pt.com/public/sl-prod-od-0/images/retail-products/626DE92F5BF4B2/626DE92F5BF4B2-18A0AD7FDD42-S3FBC564-TPS104-WHT/front/regular.jpg
https://www.teebechic.com/tmc-mom-t11266?retailProductCode=626DE92F5BF4B2-2065A7FFDD16-S3FBC561-TPS104-WHT,Mom's Gift For DAUGHTER - To My DAUGHTER -- BT09,https://cdn.32pt.com/public/sl-prod-od-0/images/retail-products/626DE92F5BF4B2/626DE92F5BF4B2-2065A7FFDD16-S3FBC561-TPS104-WHT/front/regular.jpg
https://www.teebechic.com/tmc-mom-t1482?retailProductCode=626DE92F5BF4B2-F921A6BED917-S3FBC563-TPS104-WHT,Mom's Gift For DAUGHTER - To My DAUGHTER -- BT09,https://cdn.32pt.com/public/sl-prod-od-0/images/retail-products/626DE92F5BF4B2/626DE92F5BF4B2-F921A6BED917-S3FBC563-TPS104-WHT/front/regular.jpg
https://www.teebechic.com/tmc-dad-mom-t11150-01-daughter?retailProductCode=626DE92F5BF4B2-3BDF03EFDD47-S3FBC564-TPS104-WHT,Mom's Gift For DAUGHTER - To My DAUGHTER -- BT09,https://cdn.32pt.com/public/sl-prod-od-0/images/retail-products/626DE92F5BF4B2/626DE92F5BF4B2-3BDF03EFDD47-S3FBC564-TPS104-WHT/front/regular.jpg
https://www.teebechic.com/tmc-baby05-01-mom?retailProductCode=626DE92F5BF4B2-A8105C3BD803-S3FBC560-TPS104-WHT,Mom's Gift For DAUGHTER - To My DAUGHTER -- BT09,https://cdn.32pt.com/public/sl-prod-od-0/images/retail-products/626DE92F5BF4B2/626DE92F5BF4B2-A8105C3BD803-S3FBC560-TPS104-WHT/front/regular.jpg
https://www.teebechic.com/tmc-baby02-01-mom?retailProductCode=626DE92F5BF4B2-AB711D6ED856-S3FBC562-TPS104-WHT,Mom's Gift For DAUGHTER - To My DAUGHTER -- BT09,https://cdn.32pt.com/public/sl-prod-od-0/images/retail-products/626DE92F5BF4B2/626DE92F5BF4B2-AB711D6ED856-S3FBC562-TPS104-WHT/front/regular.jpg
https://www.teebechic.com/tmc-mom-t11091-daughter?retailProductCode=626DE92F5BF4B2-529A56EED806-S3FBC564-TPS104-WHT,Mom's Gift For DAUGHTER - To My DAUGHTER -- BT09,https://cdn.32pt.com/public/sl-prod-od-0/images/retail-products/626DE92F5BF4B2/626DE92F5BF4B2-529A56EED806-S3FBC564-TPS104-WHT/front/regular.jpg
https://www.teebechic.com/tmc-bb01-mom01?retailProductCode=626DE92F5BF4B2-4C7A072BDD12-S3FBC563-TPS104-WHT,Mom's Gift For DAUGHTER - To My DAUGHTER -- BT09,https://cdn.32pt.com/public/sl-prod-od-0/images/retail-products/626DE92F5BF4B2/626DE92F5BF4B2-4C7A072BDD12-S3FBC563-TPS104-WHT/front/regular.jpg
https://www.teebechic.com/tmc-family-t10074-daughter-mom?retailProductCode=626DE92F5BF4B2-CCBBFC7A8817-S3FBC560-TPS104-WHT,Mom's Gift For DAUGHTER - To My DAUGHTER -- BT09,https://cdn.32pt.com/public/sl-prod-od-0/images/retail-products/626DE92F5BF4B2/626DE92F5BF4B2-CCBBFC7A8817-S3FBC560-TPS104-WHT/front/regular.jpg
https://www.teebechic.com/tmc-bb33-mom?retailProductCode=626DE92F5BF4B2-B359077B8D06-S3FBC562-TPS104-WHT,Mom's Gift For DAUGHTER - To My DAUGHTER -- BT09,https://cdn.32pt.com/public/sl-prod-od-0/images/retail-products/626DE92F5BF4B2/626DE92F5BF4B2-B359077B8D06-S3FBC562-TPS104-WHT/front/regular.jpg
https://www.teebechic.com/tmc-bb17-mom?retailProductCode=626DE92F5BF4B2-53D5423E9D47-S3FBC561-TPS104-WHT,Mom's Gift For DAUGHTER - To My DAUGHTER -- BT09,https://cdn.32pt.com/public/sl-prod-od-0/images/retail-products/626DE92F5BF4B2/626DE92F5BF4B2-53D5423E9D47-S3FBC561-TPS104-WHT/front/regular.jpg
https://www.teebechic.com/tmc-bb47-mom?retailProductCode=626DE92F5BF4B2-40E7073E8D42-S3FBC563-TPS104-WHT,Mom's Gift For DAUGHTER - To My DAUGHTER -- BT09,https://cdn.32pt.com/public/sl-prod-od-0/images/retail-products/626DE92F5BF4B2/626DE92F5BF4B2-40E7073E8D42-S3FBC563-TPS104-WHT/front/regular.jpg
https://www.teebechic.com/tmc-mom-t11230?retailProductCode=626DE92F5BF4B2-F2DE56FE8D42-S3FBC561-TPS104-WHT,Mom's Gift For DAUGHTER - To My DAUGHTER -- BT09,https://cdn.32pt.com/public/sl-prod-od-0/images/retail-products/626DE92F5BF4B2/626DE92F5BF4B2-F2DE56FE8D42-S3FBC561-TPS104-WHT/front/regular.jpg
https://www.teebechic.com/tmc-mom-t11166b?retailProductCode=626DE92F5BF4B2-238B12AB8D16-S3FBC564-TPS104-WHT,Mom's Gift For DAUGHTER - To My DAUGHTER - BT09,https://cdn.32pt.com/public/sl-prod-od-0/images/retail-products/626DE92F5BF4B2/626DE92F5BF4B2-238B12AB8D16-S3FBC564-TPS104-WHT/front/regular.jpg
https://www.teebechic.com/tmc-mom-dau-t11262?retailProductCode=626DE92F5BF4B2-D065E3BB9C57-S3FBC562-TPS104-WHT,Mom's Gift For DAUGHTER - To My DAUGHTER -- BT09,https://cdn.32pt.com/public/sl-prod-od-0/images/retail-products/626DE92F5BF4B2/626DE92F5BF4B2-D065E3BB9C57-S3FBC562-TPS104-WHT/front/regular.jpg
https://www.teebechic.com/tmc-bb04-daughter-mom?retailProductCode=626DE92F5BF4B2-9BD6B93B8D16-S3FBC564-TPS104-WHT,Mom's Gift For DAUGHTER - To My DAUGHTER -- BT09,https://cdn.32pt.com/public/sl-prod-od-0/images/retail-products/626DE92F5BF4B2/626DE92F5BF4B2-9BD6B93B8D16-S3FBC564-TPS104-WHT/front/regular.jpg
https://www.teebechic.com/tmc-daughter04-t11201-01?retailProductCode=626DE92F5BF4B2-B12FBD7AC802-S3FBC561-TPS104-WHT,Mom's Gift For DAUGHTER - To My DAUGHTER -- BT09,https://cdn.32pt.com/public/sl-prod-od-0/images/retail-products/626DE92F5BF4B2/626DE92F5BF4B2-B12FBD7AC802-S3FBC561-TPS104-WHT/front/regular.jpg
https://www.teebechic.com/tmc-mom-t11295?retailProductCode=626DE92F5BF4B2-F125B6FFC946-S3FBC563-TPS104-WHT,Mom's Gift For DAUGHTER - To My DAUGHTER -- BT09,https://cdn.32pt.com/public/sl-prod-od-0/images/retail-products/626DE92F5BF4B2/626DE92F5BF4B2-F125B6FFC946-S3FBC563-TPS104-WHT/front/regular.jpg
https://www.teebechic.com/tmc-mom-t11076-05?retailProductCode=626DE92F5BF4B2-ACDF16AECC06-S3FBC562-TPS104-WHT,Mom's Gift For DAUGHTER - To My DAUGHTER -- BT09,https://cdn.32pt.com/public/sl-prod-od-0/images/retail-products/626DE92F5BF4B2/626DE92F5BF4B2-ACDF16AECC06-S3FBC562-TPS104-WHT/front/regular.jpg
https://www.teebechic.com/tmc-cgmt0-mom01?retailProductCode=626DE92F5BF4B2-A3739D6ED806-S3FBC562-TPS104-WHT,Mom's Gift For DAUGHTER - To My DAUGHTER -- BT09,https://cdn.32pt.com/public/sl-prod-od-0/images/retail-products/626DE92F5BF4B2/626DE92F5BF4B2-A3739D6ED806-S3FBC562-TPS104-WHT/front/regular.jpg
https://www.teebechic.com/tmc-bb44-mom?retailProductCode=626DE92F5BF4B2-9B63427BC903-S3FBC560-TPS104-WHT,Mom's Gift For DAUGHTER - To My DAUGHTER -- BT09,https://cdn.32pt.com/public/sl-prod-od-0/images/retail-products/626DE92F5BF4B2/626DE92F5BF4B2-9B63427BC903-S3FBC560-TPS104-WHT/front/regular.jpg
https://www.teebechic.com/tmc-cgai0-01-mom?retailProductCode=626DE92F5BF4B2-626ECC3B8C06-S3FBC561-TPS104-WHT,Mom's Gift For DAUGHTER - To My DAUGHTER -- BT09,https://cdn.32pt.com/public/sl-prod-od-0/images/retail-products/626DE92F5BF4B2/626DE92F5BF4B2-626ECC3B8C06-S3FBC561-TPS104-WHT/front/regular.jpg
https://www.teebechic.com/tmc-bb05-t10133-mom?retailProductCode=626DE92F5BF4B2-A94F872B8943-S3FBC562-TPS104-WHT,Mom's Gift For DAUGHTER - To My DAUGHTER -- BT09,https://cdn.32pt.com/public/sl-prod-od-0/images/retail-products/626DE92F5BF4B2/626DE92F5BF4B2-A94F872B8943-S3FBC562-TPS104-WHT/front/regular.jpg
https://www.teebechic.com/tmc-mtcg-m1?retailProductCode=626DE92F5BF4B2-2E20882A8952-S3FBC563-TPS104-WHT,Mom's Gift For DAUGHTER - To My DAUGHTER -- BT09,https://cdn.32pt.com/public/sl-prod-od-0/images/retail-products/626DE92F5BF4B2/626DE92F5BF4B2-2E20882A8952-S3FBC563-TPS104-WHT/front/regular.jpg
https://www.teebechic.com/tmc-mtcg0003-daughter-mom-t11411-?retailProductCode=626DE92F5BF4B2-C1EE1C2B8D57-S3FBC561-TPS104-WHT,Mom's Gift For DAUGHTER - To My DAUGHTER -- BT09,https://cdn.32pt.com/public/sl-prod-od-0/images/retail-products/626DE92F5BF4B2/626DE92F5BF4B2-C1EE1C2B8D57-S3FBC561-TPS104-WHT/front/regular.jpg
https://www.teebechic.com/tmc-mom-t11161?retailProductCode=626DE92F5BF4B2-0860A7FB9917-S3FBC564-TPS104-WHT,Mom's Gift For DAUGHTER - To My DAUGHTER -- BT09,https://cdn.32pt.com/public/sl-prod-od-0/images/retail-products/626DE92F5BF4B2/626DE92F5BF4B2-0860A7FB9917-S3FBC564-TPS104-WHT/front/regular.jpg
https://www.teebechic.com/tmc-daughter-t11178?retailProductCode=626DE92F5BF4B2-829F52EF9857-S3FBC563-TPS104-WHT,Mom's Gift For DAUGHTER - To My DAUGHTER -- BT09,https://cdn.32pt.com/public/sl-prod-od-0/images/retail-products/626DE92F5BF4B2/626DE92F5BF4B2-829F52EF9857-S3FBC563-TPS104-WHT/front/regular.jpg
https://www.teebechic.com/tmc-bb32-mom?retailProductCode=626DE92F5BF4B2-5208063BC943-S3FBC564-TPS104-WHT,Mom's Gift For DAUGHTER - To My DAUGHTER -- BT09,https://cdn.32pt.com/public/sl-prod-od-0/images/retail-products/626DE92F5BF4B2/626DE92F5BF4B2-5208063BC943-S3FBC564-TPS104-WHT/front/regular.jpg
https://www.teebechic.com/tmc-bb05-t10133-daughter-mom?retailProductCode=626DE92F5BF4B2-2ED2FD2FCC13-S3FBC563-TPS104-WHT,Mom's Gift For DAUGHTER - To My DAUGHTER -- BT09,https://cdn.32pt.com/public/sl-prod-od-0/images/retail-products/626DE92F5BF4B2/626DE92F5BF4B2-2ED2FD2FCC13-S3FBC563-TPS104-WHT/front/regular.jpg
https://www.teebechic.com/tmc-mom-t11240b?retailProductCode=626DE92F5BF4B2-5075A3ABCD43-S3FBC561-TPS104-WHT,Mom's Gift For DAUGHTER - To My DAUGHTER -- BT09,https://cdn.32pt.com/public/sl-prod-od-0/images/retail-products/626DE92F5BF4B2/626DE92F5BF4B2-5075A3ABCD43-S3FBC561-TPS104-WHT/front/regular.jpg
https://www.teebechic.com/ntl-mom-t02046?retailProductCode=626DE92F5BF4B2-C64BE2AA9C03-S3FBC563-TPS104-WHT,Mom - Perfect Gift For Your Beloved Son - BT04,https://cdn.32pt.com/public/sl-prod-od-0/images/retail-products/626DE92F5BF4B2/626DE92F5BF4B2-C64BE2AA9C03-S3FBC563-TPS104-WHT/front/regular.jpg
https://www.teebechic.com/tmc-t11157?retailProductCode=626DE92F5BF4B2-528DA2AA9947-S3FBC560-TPS104-WHT,Dad - Mom - Perfect Gift For Your Son - BT09,https://cdn.32pt.com/public/sl-prod-od-0/images/retail-products/626DE92F5BF4B2/626DE92F5BF4B2-528DA2AA9947-S3FBC560-TPS104-WHT/front/regular.jpg
https://www.teebechic.com/ntl-family-t10080-mom2?retailProductCode=626DE92F5BF4B2-CFFD7E7BCC47-S3FBC562-TPS104-WHT,BT04 - Mom -Perfect Gift For Your Beloved Son Wolf,https://cdn.32pt.com/public/sl-prod-od-0/images/retail-products/626DE92F5BF4B2/626DE92F5BF4B2-CFFD7E7BCC47-S3FBC562-TPS104-WHT/front/regular.jpg
https://www.teebechic.com/ttt-mom-daughter-t121482?retailProductCode=626DE92F5BF4B2-95F0F6EAD952-S3FBC563-TPS104-WHT,BT10-A MEANINGFUL GIFT FOR YOUR DAUGHTER,https://cdn.32pt.com/public/sl-prod-od-0/images/retail-products/626DE92F5BF4B2/626DE92F5BF4B2-95F0F6EAD952-S3FBC563-TPS104-WHT/front/regular.jpg
https://www.teebechic.com/ntl-mom-t12013?retailProductCode=626DE92F5BF4B2-77DD487EDC16-S3FBC563-TPS104-WHT,Mom - Perfect Gift For Your Beloved Son -Lion BT04,https://cdn.32pt.com/public/sl-prod-od-0/images/retail-products/626DE92F5BF4B2/626DE92F5BF4B2-77DD487EDC16-S3FBC563-TPS104-WHT/front/regular.jpg
https://www.teebechic.com/ddn-daughter-in-law-t03304?retailProductCode=626DE92F5BF4B2-1D2E0DFB9953-S3FBC564-TPS104-WHT,BT12 - Daughter's Gift For Mom,https://cdn.32pt.com/public/sl-prod-od-0/images/retail-products/626DE92F5BF4B2/626DE92F5BF4B2-1D2E0DFB9953-S3FBC564-TPS104-WHT/front/regular.jpg
https://www.teebechic.com/tad-daughter-mom-t03218?retailProductCode=626DE92F5BF4B2-F5A4BCFAC812-S3FBC563-TPS104-WHT,BT11 - Daughter's Gift For Mom,https://cdn.32pt.com/public/sl-prod-od-0/images/retail-products/626DE92F5BF4B2/626DE92F5BF4B2-F5A4BCFAC812-S3FBC563-TPS104-WHT/front/regular.jpg
https://www.teebechic.com/ddn--mom-t11339?retailProductCode=626DE92F5BF4B2-2AABF56B9953-S3FBC560-TPS104-WHT,BT12 - Mom - To my Son,https://cdn.32pt.com/public/sl-prod-od-0/images/retail-products/626DE92F5BF4B2/626DE92F5BF4B2-2AABF56B9953-S3FBC560-TPS104-WHT/front/regular.jpg
https://www.teebechic.com/ddn-daughter-mom-t03286?retailProductCode=626DE92F5BF4B2-08A95CFE8C52-S3FBC562-TPS104-WHT,BT12 - Daughter's Gift For Mom,https://cdn.32pt.com/public/sl-prod-od-0/images/retail-products/626DE92F5BF4B2/626DE92F5BF4B2-08A95CFE8C52-S3FBC562-TPS104-WHT/front/regular.jpg
https://www.teebechic.com/ddn-mom-t11339?retailProductCode=626DE92F5BF4B2-308E402FDD42-S3FBC561-TPS104-WHT,BT12 - Mom - To my Son,https://cdn.32pt.com/public/sl-prod-od-0/images/retail-products/626DE92F5BF4B2/626DE92F5BF4B2-308E402FDD42-S3FBC561-TPS104-WHT/front/regular.jpg
https://www.teebechic.com/ddn-daughter-in-law-t03305?retailProductCode=626DE92F5BF4B2-A13F58EF8D13-S3FBC564-TPS104-WHT,BT12 - Daughter's Gift For Mom,https://cdn.32pt.com/public/sl-prod-od-0/images/retail-products/626DE92F5BF4B2/626DE92F5BF4B2-A13F58EF8D13-S3FBC564-TPS104-WHT/front/regular.jpg
https://www.teebechic.com/ddn-daughter-mom-t03218?retailProductCode=626DE92F5BF4B2-84CE98FB8913-S3FBC563-TPS104-WHT,BT12 - Daughter's Gift For Mom,https://cdn.32pt.com/public/sl-prod-od-0/images/retail-products/626DE92F5BF4B2/626DE92F5BF4B2-84CE98FB8913-S3FBC563-TPS104-WHT/front/regular.jpg
https://www.teebechic.com/ddn-daughter-mom-t03287?retailProductCode=626DE92F5BF4B2-AB850CAB8806-S3FBC561-TPS104-WHT,BT12 - Daughter's Gift For Mom,https://cdn.32pt.com/public/sl-prod-od-0/images/retail-products/626DE92F5BF4B2/626DE92F5BF4B2-AB850CAB8806-S3FBC561-TPS104-WHT/front/regular.jpg
https://www.teebechic.com/ddn-daughter-mom-t03039?retailProductCode=626DE92F5BF4B2-DFE0ACBAD906-S3FBC561-TPS104-WHT,BT12 - Daughter's Gift For Mom,https://cdn.32pt.com/public/sl-prod-od-0/images/retail-products/626DE92F5BF4B2/626DE92F5BF4B2-DFE0ACBAD906-S3FBC561-TPS104-WHT/front/regular.jpg
https://www.teebechic.com/ddn-blanket-mom-son-t12052?retailProductCode=626DE92F5BF4B2-1106746EC812-S3FBC560-TPS104-WHT,BT12 - Mom -To my Son -,https://cdn.32pt.com/public/sl-prod-od-0/images/retail-products/626DE92F5BF4B2/626DE92F5BF4B2-1106746EC812-S3FBC560-TPS104-WHT/front/regular.jpg
https://www.teebechic.com/ddn-daughter-in-law?retailProductCode=626DE92F5BF4B2-2D9D0DAF9C46-S3FBC560-TPS104-WHT,BT12 - Daughter's Gift For Mom,https://cdn.32pt.com/public/sl-prod-od-0/images/retail-products/626DE92F5BF4B2/626DE92F5BF4B2-2D9D0DAF9C46-S3FBC560-TPS104-WHT/front/regular.jpg
https://www.teebechic.com/ddn-daughter-mom-t12397?retailProductCode=626DE92F5BF4B2-7BB4E9FE9957-S3FBC564-TPS104-WHT,BT12 - Daughter's Gift For Mom,https://cdn.32pt.com/public/sl-prod-od-0/images/retail-products/626DE92F5BF4B2/626DE92F5BF4B2-7BB4E9FE9957-S3FBC564-TPS104-WHT/front/regular.jpg
https://www.teebechic.com/tad-daughter-mom-t03230?retailProductCode=626DE92F5BF4B2-0F0F48EB8902-S3FBC564-TPS104-WHT,BT11 - Daughter's Gift For Mom,https://cdn.32pt.com/public/sl-prod-od-0/images/retail-products/626DE92F5BF4B2/626DE92F5BF4B2-0F0F48EB8902-S3FBC564-TPS104-WHT/front/regular.jpg
https://www.teebechic.com/ddn-daughter-mom-t03226?retailProductCode=626DE92F5BF4B2-30EC08FB8D52-S3FBC560-TPS104-WHT,BT12 - Daughter's Gift For Mom,https://cdn.32pt.com/public/sl-prod-od-0/images/retail-products/626DE92F5BF4B2/626DE92F5BF4B2-30EC08FB8D52-S3FBC560-TPS104-WHT/front/regular.jpg
https://www.teebechic.com/ttt-t321040-1?retailProductCode=626DE92F5BF4B2-AF70FDAA8C53-S3FBC560-TPS104-WHT,BT10 - GIFT FOR YOUR MOM,https://cdn.32pt.com/public/sl-prod-od-0/images/retail-products/626DE92F5BF4B2/626DE92F5BF4B2-AF70FDAA8C53-S3FBC560-TPS104-WHT/front/regular.jpg
https://www.teebechic.com/ddn-mom-t12111?retailProductCode=626DE92F5BF4B2-DD49743A9D12-S3FBC562-TPS104-WHT,BT12 - Mom - To my Daughter,https://cdn.32pt.com/public/sl-prod-od-0/images/retail-products/626DE92F5BF4B2/626DE92F5BF4B2-DD49743A9D12-S3FBC562-TPS104-WHT/front/regular.jpg
https://www.teebechic.com/ddn-daughter-mom-t03227?retailProductCode=626DE92F5BF4B2-B6654CAF9917-S3FBC561-TPS104-WHT,BT12 - Daughter's Gift For Mom,https://cdn.32pt.com/public/sl-prod-od-0/images/retail-products/626DE92F5BF4B2/626DE92F5BF4B2-B6654CAF9917-S3FBC561-TPS104-WHT/front/regular.jpg
https://www.teebechic.com/ttt-t321049-1?retailProductCode=626DE92F5BF4B2-E3A1EDBEDD56-S3FBC563-TPS104-WHT,BT10 - GIFT FOR YOUR MOM,https://cdn.32pt.com/public/sl-prod-od-0/images/retail-products/626DE92F5BF4B2/626DE92F5BF4B2-E3A1EDBEDD56-S3FBC563-TPS104-WHT/front/regular.jpg
https://www.teebechic.com/tad-son-01044?retailProductCode=626DE92F5BF4B2-E67FF3AB9842-S3FBC560-TPS104-WHT,Son Gifts For Mother - BT11,https://cdn.32pt.com/public/sl-prod-od-0/images/retail-products/626DE92F5BF4B2/626DE92F5BF4B2-E67FF3AB9842-S3FBC560-TPS104-WHT/front/regular.jpg
https://www.teebechic.com/tad-son-12259-mom?retailProductCode=626DE92F5BF4B2-54AFF3BFCC56-S3FBC563-TPS104-WHT,Son Gifts For Mother - BT11,https://cdn.32pt.com/public/sl-prod-od-0/images/retail-products/626DE92F5BF4B2/626DE92F5BF4B2-54AFF3BFCC56-S3FBC563-TPS104-WHT/front/regular.jpg
https://www.teebechic.com/tad-mom-from-son-t12047a?retailProductCode=626DE92F5BF4B2-C4AAB6FAD853-S3FBC563-TPS104-WHT,Son - Gift is Wonderful Beloved Mother's - BT11,https://cdn.32pt.com/public/sl-prod-od-0/images/retail-products/626DE92F5BF4B2/626DE92F5BF4B2-C4AAB6FAD853-S3FBC563-TPS104-WHT/front/regular.jpg
https://www.teebechic.com/ttt-mama-daughter-t321108?retailProductCode=626DE92F5BF4B2-B6B7C8BF8852-S3WB56-TPS2100-WHT,BT10 - GIFT FOR DAUGHTER - BUTTERFLY,https://cdn.32pt.com/public/sl-prod-od-0/images/retail-products/626DE92F5BF4B2/626DE92F5BF4B2-B6B7C8BF8852-S3WB56-TPS2100-WHT/front/regular.jpg
https://www.teebechic.com/tad-son-01044b?retailProductCode=626DE92F5BF4B2-267FF2EAD903-S3FBC560-TPS104-WHT,Son Gifts For Mother - BT11,https://cdn.32pt.com/public/sl-prod-od-0/images/retail-products/626DE92F5BF4B2/626DE92F5BF4B2-267FF2EAD903-S3FBC560-TPS104-WHT/front/regular.jpg
https://www.teebechic.com/ttt-mama-daughter-t321099?retailProductCode=626DE92F5BF4B2-85E2C9EF9953-S3WB65-TPS2101-WHT,BT10 - GIFT FOR DAUGHTER - BUTTERFLY,https://cdn.32pt.com/public/sl-prod-od-0/images/retail-products/626DE92F5BF4B2/626DE92F5BF4B2-85E2C9EF9953-S3WB65-TPS2101-WHT/front/regular.jpg
https://www.teebechic.com/tad-son-t12108-mom?retailProductCode=626DE92F5BF4B2-9B2BA2BE9843-S3FBC563-TPS104-WHT,Son Gifts For Mother - BT11,https://cdn.32pt.com/public/sl-prod-od-0/images/retail-products/626DE92F5BF4B2/626DE92F5BF4B2-9B2BA2BE9843-S3FBC563-TPS104-WHT/front/regular.jpg
https://www.teebechic.com/tad-daughter-mom-t03287-2?retailProductCode=626DE92F5BF4B2-1A71F9AF8913-S3FBC564-TPS104-WHT,BT11 - Daughter's Gift For Mom,https://cdn.32pt.com/public/sl-prod-od-0/images/retail-products/626DE92F5BF4B2/626DE92F5BF4B2-1A71F9AF8913-S3FBC564-TPS104-WHT/front/regular.jpg
https://www.teebechic.com/tad-daughter-blanket-t03259?retailProductCode=626DE92F5BF4B2-E3BE49EB8C02-S3FBC560-TPS104-WHT,BT11 - Daughter - To my beloved mom,https://cdn.32pt.com/public/sl-prod-od-0/images/retail-products/626DE92F5BF4B2/626DE92F5BF4B2-E3BE49EB8C02-S3FBC560-TPS104-WHT/front/regular.jpg
https://www.teebechic.com/tad-family-blanket-t0321281b?retailProductCode=626DE92F5BF4B2-DBB849AACD07-S3FBC564-TPS104-WHT,Mom - Best Gift For Son - BT11,https://cdn.32pt.com/public/sl-prod-od-0/images/retail-products/626DE92F5BF4B2/626DE92F5BF4B2-DBB849AACD07-S3FBC564-TPS104-WHT/front/regular.jpg
https://www.teebechic.com/ttt-mom-son-t321047b?retailProductCode=626DE92F5BF4B2-C057DCAA9946-S3FBC560-TPS104-WHT,BT10 - MOM - GIFT FOR SON - EAGLE,https://cdn.32pt.com/public/sl-prod-od-0/images/retail-products/626DE92F5BF4B2/626DE92F5BF4B2-C057DCAA9946-S3FBC560-TPS104-WHT/front/regular.jpg
https://www.teebechic.com/ttt-mom-son-t321047b?retailProductCode=626DE92F5BF4B2-C057DCAA9946-S3FBC560-TPS104-WHT,BT10 - MOM - GIFT FOR SON - EAGLE,https://cdn.32pt.com/public/sl-prod-od-0/images/retail-products/626DE92F5BF4B2/626DE92F5BF4B2-C057DCAA9946-S3FBC560-TPS104-WHT/front/regular.jpg
https://www.teebechic.com/ddn-blanket-son-t12456?retailProductCode=626DE92F5BF4B2-FE810FEEDD53-S3FBC564-TPS104-WHT,Son - Gifts For Mom Blanket - BT12,https://cdn.32pt.com/public/sl-prod-od-0/images/retail-products/626DE92F5BF4B2/626DE92F5BF4B2-FE810FEEDD53-S3FBC564-TPS104-WHT/front/regular.jpg
https://www.teebechic.com/06td-blanket-son-t03282b?retailProductCode=626DE92F5BF4B2-1963A9AFDD57-S3FBC562-TPS104-WHT,BT06 - Son - Gifts For Mom Blanket,https://cdn.32pt.com/public/sl-prod-od-0/images/retail-products/626DE92F5BF4B2/626DE92F5BF4B2-1963A9AFDD57-S3FBC562-TPS104-WHT/front/regular.jpg
https://www.teebechic.com/ddn-mom-t03115?retailProductCode=626DE92F5BF4B2-06138DAF8D56-S3FBC563-TPS104-WHT,BT12 -Mom- Gift For Daughter Blanket,https://cdn.32pt.com/public/sl-prod-od-0/images/retail-products/626DE92F5BF4B2/626DE92F5BF4B2-06138DAF8D56-S3FBC563-TPS104-WHT/front/regular.jpg
https://www.teebechic.com/ddn-son-t03075?retailProductCode=626DE92F5BF4B2-D3ED9CBADC46-S3FBC563-TPS104-WHT,BT12 - Eagle - Mom -To my Son,https://cdn.32pt.com/public/sl-prod-od-0/images/retail-products/626DE92F5BF4B2/626DE92F5BF4B2-D3ED9CBADC46-S3FBC563-TPS104-WHT/front/regular.jpg
https://www.teebechic.com/ttt-t321266-2?retailProductCode=626DE92F5BF4B2-EFEE49EE9813-S3FBC561-TPS104-WHT,BT10 - DAUGHTER - GIFT FOR YOUR MOM,https://cdn.32pt.com/public/sl-prod-od-0/images/retail-products/626DE92F5BF4B2/626DE92F5BF4B2-EFEE49EE9813-S3FBC561-TPS104-WHT/front/regular.jpg
https://www.teebechic.com/ttt-t321036?retailProductCode=626DE92F5BF4B2-5E2A08FB8C12-S3FBC562-TPS104-WHT,BT10 - DAUGHTER - GIFT FOR YOUR MOM,https://cdn.32pt.com/public/sl-prod-od-0/images/retail-products/626DE92F5BF4B2/626DE92F5BF4B2-5E2A08FB8C12-S3FBC562-TPS104-WHT/front/regular.jpg
https://www.teebechic.com/tad-daughter-t03226b?retailProductCode=626DE92F5BF4B2-ADFE08FB8D17-S3FBC561-TPS104-WHT,BT11 - Daughter - To my beloved mom,https://cdn.32pt.com/public/sl-prod-od-0/images/retail-products/626DE92F5BF4B2/626DE92F5BF4B2-ADFE08FB8D17-S3FBC561-TPS104-WHT/front/regular.jpg
https://www.teebechic.com/ddn-daughter-blanket-t11103?retailProductCode=626DE92F5BF4B2-AC73F03F8803-S3FBC560-TPS104-WHT,Daughter's Gift For Mom - To My Mom - BT12,https://cdn.32pt.com/public/sl-prod-od-0/images/retail-products/626DE92F5BF4B2/626DE92F5BF4B2-AC73F03F8803-S3FBC560-TPS104-WHT/front/regular.jpg
https://www.teebechic.com/ddn-blanket-son-t03346?retailProductCode=626DE92F5BF4B2-CC51BCABDD13-S3FBC560-TPS104-WHT,BT12 - Son - Gifts For Mother-in-law,https://cdn.32pt.com/public/sl-prod-od-0/images/retail-products/626DE92F5BF4B2/626DE92F5BF4B2-CC51BCABDD13-S3FBC560-TPS104-WHT/front/regular.jpg
