https://funnytillyoudie.com/products/stop-starting-at-my-cock,Stop Staring At My C - Custom Swim Trunks,https://cdn.shopify.com/s/files/1/0260/7995/2947/products/Acook__44986.1591781899copy.jpg?v=1593687833,https://cdn.shopify.com/s/files/1/0260/7995/2947/products/SF001.jpg?v=1593687862
https://funnytillyoudie.com/products/look-at-my-pecker,Look At My P - Custom Swim Trunks,https://cdn.shopify.com/s/files/1/0260/7995/2947/products/Apeeker_1__69956.1592550634.png?v=1593595059,https://cdn.shopify.com/s/files/1/0260/7995/2947/products/LookAtMyPeckermockup.jpg?v=1593626359
https://funnytillyoudie.com/products/stop-starting-at-my-cock-black,Stop Staring At My C (Black)- Custom Swim Trunks,https://cdn.shopify.com/s/files/1/0260/7995/2947/products/front_STK_1024x1024_0a054f36-bbd7-4031-8ec8-ed4762b25f70copycopycopy.png?v=1593595099,https://cdn.shopify.com/s/files/1/0260/7995/2947/products/StopStaringAtMyCock_Black_mockup.jpg?v=1593626719
https://funnytillyoudie.com/products/stop-staring-at-my-banana,Stop Staring At My Banana - Custom Swim Trunks,https://cdn.shopify.com/s/files/1/0260/7995/2947/products/banana.jpg?v=1593593596,https://cdn.shopify.com/s/files/1/0260/7995/2947/products/Mockupnguoi_3ad8c2a7-8a8d-49c3-ade0-7daa30bcfc6e.jpg?v=1593769372
https://funnytillyoudie.com/products/stop-staring-at-my-cock-2,Stop Staring At My C2 - Custom Swim Trunks,https://cdn.shopify.com/s/files/1/0260/7995/2947/products/2_c413659f-f63f-4e02-b13e-49f893d7c67b.png?v=1593626270
https://funnytillyoudie.com/products/rock-out-with-your-cock-out,Rock Out - Custom Swim Trunks,https://cdn.shopify.com/s/files/1/0260/7995/2947/products/k230620-rockout__02072.1592885805.png?v=1593594362,https://cdn.shopify.com/s/files/1/0260/7995/2947/products/Mockupnguoi_3459049a-7f5f-4109-8e03-20741766c408.jpg?v=1593685889
https://funnytillyoudie.com/products/stop-staring-at-my-cock-lgbt,Stop Staring At My C LGBT - Custom Swim Trunks,https://cdn.shopify.com/s/files/1/0260/7995/2947/products/SF014LGBT2.jpg?v=1593515442,https://cdn.shopify.com/s/files/1/0260/7995/2947/products/Mockupnguoi_d4afbf36-5d48-4270-ac12-f6e41c7d94dd.jpg?v=1593686838
https://funnytillyoudie.com/products/im-sexy-and-i-mow-it,I'm Sexy And I Mow It - Custom Swim Trunks,https://cdn.shopify.com/s/files/1/0260/7995/2947/products/Amowit__83789.1591860426.png?v=1593594472,https://cdn.shopify.com/s/files/1/0260/7995/2947/products/I_mSexyAndIMowItmockup.jpg?v=1593626425
https://funnytillyoudie.com/products/come-here-ill-pour-you-some-beer,Come Here I'll Pour You Some Beer - Custom Swim Trunks,https://cdn.shopify.com/s/files/1/0260/7995/2947/products/Abeer__11093.1592885813.png?v=1593595132,https://cdn.shopify.com/s/files/1/0260/7995/2947/products/w6-1.jpg?v=1593626476
https://funnytillyoudie.com/products/stop-staring-at-my-lightsaber,Stop Staring At My Lightsaber - Custom Swim Trunks,https://cdn.shopify.com/s/files/1/0260/7995/2947/products/W1_58c13b4d-fa6f-41d9-9ff8-c5ef6e2dfde5.jpg?v=1593830122,https://cdn.shopify.com/s/files/1/0260/7995/2947/products/w1-2.jpg?v=1593830122
https://funnytillyoudie.com/products/stop-staring-at-my-cock-4-custom-swim-trunks,Stop Staring At My C 4 - Custom Swim Trunks,https://cdn.shopify.com/s/files/1/0260/7995/2947/products/w5.png?v=1593671178,https://cdn.shopify.com/s/files/1/0260/7995/2947/products/i5-2.jpg?v=1593671178
https://funnytillyoudie.com/products/lets-drink-beer-custom-swim-trunks,Let's Drink Beer - Custom Swim Trunks,https://cdn.shopify.com/s/files/1/0260/7995/2947/products/DemoFront_22.jpg?v=1594718237,https://cdn.shopify.com/s/files/1/0260/7995/2947/products/Mockupnguoi_37.jpg?v=1594718237,https://cdn.shopify.com/s/files/1/0260/7995/2947/products/DemoBack.jpg?v=1594718237
https://funnytillyoudie.com/products/stop-staring-at-my-coke,Stop Staring At My Coke - Custom Swim Trunks,https://cdn.shopify.com/s/files/1/0260/7995/2947/products/enjoycock2copycopy_eb08bb06-faa7-4a4f-9d79-67f549f84036.png?v=1596165753,https://cdn.shopify.com/s/files/1/0260/7995/2947/products/enjoycockad_73546da8-5193-48f8-8516-8a1bf7ebbe32.jpg?v=1596165753
https://funnytillyoudie.com/products/adult-balloon-2-custom-swim-trunks,Adult Balloon 2 - Custom Swim Trunks,https://cdn.shopify.com/s/files/1/0260/7995/2947/products/w43.jpg?v=1595043738,https://cdn.shopify.com/s/files/1/0260/7995/2947/products/w43-1.jpg?v=1595043738,https://cdn.shopify.com/s/files/1/0260/7995/2947/products/w43-2.jpg?v=1595043738
https://funnytillyoudie.com/products/david-custom-swim-trunks,David - Custom Swim Trunks,https://cdn.shopify.com/s/files/1/0260/7995/2947/products/SF-024.jpg?v=1593682000,https://cdn.shopify.com/s/files/1/0260/7995/2947/products/Mockupnguoi_b0982104-ab66-4178-9452-84fbe67010ee.jpg?v=1593682000
https://funnytillyoudie.com/products/stop-staring-at-my-cock-lgbt-black,Stop Staring At My C LGBT (Black) - Custom Swim Trunks,https://cdn.shopify.com/s/files/1/0260/7995/2947/products/SF014LGBT.jpg?v=1593515701,https://cdn.shopify.com/s/files/1/0260/7995/2947/products/Mockupnguoi_3b536ca1-5259-4f69-855f-0c7237de4a08.jpg?v=1593686795
https://funnytillyoudie.com/products/keep-rubbing-custom-swim-trunks,Keep Rubbing - Custom Swim Trunks,https://cdn.shopify.com/s/files/1/0260/7995/2947/products/DemoFront_35_ed442bee-2d1e-4d49-9d5c-5f3c31bdd315.jpg?v=1595485672,https://cdn.shopify.com/s/files/1/0260/7995/2947/products/Mockupnguoi_48_7c0035c2-1241-4b4e-82b1-0d74a222bc05.jpg?v=1595485672,https://cdn.shopify.com/s/files/1/0260/7995/2947/products/DemoBack_5_0fc7b7f8-8c63-40a9-8b4d-add82d017a0c.jpg?v=1595485672
https://funnytillyoudie.com/products/shark-bite-custom-swim-trunks,Shark Bite - Custom Swim Trunks,https://cdn.shopify.com/s/files/1/0260/7995/2947/products/DemoFront_30.jpg?v=1595228291,https://cdn.shopify.com/s/files/1/0260/7995/2947/products/Mockupnguoi_42.jpg?v=1595228292,https://cdn.shopify.com/s/files/1/0260/7995/2947/products/Mockupnguoisau_2.jpg?v=1595228292
https://funnytillyoudie.com/products/stop-staring-at-my-cock-pussy-couple-custom-beach-shorts,Stop Staring At My C/P - Couple Custom Swim Trunks,https://cdn.shopify.com/s/files/1/0260/7995/2947/products/July1stAdspic.jpg?v=1593585789,https://cdn.shopify.com/s/files/1/0260/7995/2947/products/Acook__44986.1591781899.jpg?v=1593585789,https://cdn.shopify.com/s/files/1/0260/7995/2947/products/SF-011-Front.jpg?v=1593585797
https://funnytillyoudie.com/products/adult-balloon-custom-swim-trunks,Adult Balloon - Custom Swim Trunks,https://cdn.shopify.com/s/files/1/0260/7995/2947/products/w35.jpg?v=1594811017,https://cdn.shopify.com/s/files/1/0260/7995/2947/products/w35-2.jpg?v=1594811017,https://cdn.shopify.com/s/files/1/0260/7995/2947/products/w35-1.jpg?v=1594811017
https://funnytillyoudie.com/products/stop-staring-at-my-ass-donkey,Stop Staring At My A D - Custom Swim Trunks,https://cdn.shopify.com/s/files/1/0260/7995/2947/products/Donkeycopy.jpg?v=1593503118,https://cdn.shopify.com/s/files/1/0260/7995/2947/products/puss.jpg?v=1593769210
https://funnytillyoudie.com/products/stop-staring-at-my-shark-custom-swim-trunks,Stop Staring At My Shark - Custom Swim Trunks,https://cdn.shopify.com/s/files/1/0260/7995/2947/products/w17.jpg?v=1594116501,https://cdn.shopify.com/s/files/1/0260/7995/2947/products/w17-1.jpg?v=1594116501
https://funnytillyoudie.com/products/stop-staring-at-my-cocktail-2,Stop Staring At My Cooktail  2 - Custom Swim Trunks,https://cdn.shopify.com/s/files/1/0260/7995/2947/products/Stopstaringatmycocktail.jpg?v=1593501390,https://cdn.shopify.com/s/files/1/0260/7995/2947/products/Mockupnguoi_74fa5965-e18f-41c1-a60a-5ea915f3811f.jpg?v=1593769450
https://funnytillyoudie.com/products/i-swear-its-this-long-custom-swim-trunks,I Swear It's This Long - Custom Swim Trunks,https://cdn.shopify.com/s/files/1/0260/7995/2947/products/mockup_1.jpg?v=1593682416,https://cdn.shopify.com/s/files/1/0260/7995/2947/products/Mockupnguoi_2.jpg?v=1593682416
https://funnytillyoudie.com/products/pocket-short-custom-swim-trunks,Pocket Short - Custom Swim Trunks,https://cdn.shopify.com/s/files/1/0260/7995/2947/products/fagg.jpg?v=1594373063,https://cdn.shopify.com/s/files/1/0260/7995/2947/products/w18-2.jpg?v=1594373063,https://cdn.shopify.com/s/files/1/0260/7995/2947/products/w21-3.jpg?v=1594373063,https://cdn.shopify.com/s/files/1/0260/7995/2947/products/w20.jpg?v=1594373063,https://cdn.shopify.com/s/files/1/0260/7995/2947/products/w22-3.jpg?v=1594373063,https://cdn.shopify.com/s/files/1/0260/7995/2947/products/w19-3.jpg?v=1594373063,https://cdn.shopify.com/s/files/1/0260/7995/2947/products/w17_1.jpg?v=1594373063
https://funnytillyoudie.com/products/shrek-custom-swim-trunks,Shrek - Custom Swim Trunks,https://cdn.shopify.com/s/files/1/0260/7995/2947/products/w10.jpg?v=1593683816,https://cdn.shopify.com/s/files/1/0260/7995/2947/products/w10-2.jpg?v=1593683816
https://funnytillyoudie.com/products/us-flag-custom-swim-trunks,US Flag - Custom Swim Trunks,https://cdn.shopify.com/s/files/1/0260/7995/2947/products/w11.jpg?v=1593999505,https://cdn.shopify.com/s/files/1/0260/7995/2947/products/w11-2.jpg?v=1593999505
https://funnytillyoudie.com/products/cowboy-cat-riding-a-rainbow-puking-shark-custom-swim-trunks,Cowboy Cat Riding A Rainbow Puking Shark - Custom Swim Trunks,https://cdn.shopify.com/s/files/1/0260/7995/2947/products/w14.jpg?v=1593843129,https://cdn.shopify.com/s/files/1/0260/7995/2947/products/w14-1.jpg?v=1593843129
https://funnytillyoudie.com/products/spongebob-custom-swim-trunks,SpongeBob - Custom Swim Trunks,https://cdn.shopify.com/s/files/1/0260/7995/2947/products/w7_1.jpg?v=1593681762,https://cdn.shopify.com/s/files/1/0260/7995/2947/products/i7-1.jpg?v=1593681762
https://funnytillyoudie.com/products/stop-staring-at-my-lucille,Stop Staring At My Luci - Custom Swim Trunks,https://cdn.shopify.com/s/files/1/0260/7995/2947/products/StopstaringatmyLucille.jpg?v=1593501171,https://cdn.shopify.com/s/files/1/0260/7995/2947/products/Mockupnguoi_3eaaf185-0751-4992-bbf6-570d8631ee06.jpg?v=1593686936
https://funnytillyoudie.com/products/art-banana-custom-swim-trunks,Art Banana - Custom Swim Trunks,https://cdn.shopify.com/s/files/1/0260/7995/2947/products/Mockup.jpg?v=1593673589,https://cdn.shopify.com/s/files/1/0260/7995/2947/products/Mockupnguoi.jpg?v=1593673589,https://cdn.shopify.com/s/files/1/0260/7995/2947/products/shortmockup.jpg?v=1593673589
https://funnytillyoudie.com/products/stop-staring-at-my-cock-tail,Stop Staring At My Cooktail - Custom Swim Trunks,https://cdn.shopify.com/s/files/1/0260/7995/2947/products/k-220620-stop__15466.1592799130_4005d1b4-3563-4206-be52-22299f388e4d.png?v=1593671326,https://cdn.shopify.com/s/files/1/0260/7995/2947/products/w5-1.jpg?v=1593671326
https://funnytillyoudie.com/products/i-pecked-you-3-times-custom-swim-trunks,I Pecked You 3 Times - Custom Swim Trunks,https://cdn.shopify.com/s/files/1/0260/7995/2947/products/image_2020_07_03T07_27_01_915Z.png?v=1593763160,https://cdn.shopify.com/s/files/1/0260/7995/2947/products/w8-1.jpg?v=1593763160
https://funnytillyoudie.com/products/stop-staring-at-my-dragon-ball,Stop Staring At My Dragon Balls - Custom Swim Trunks,https://cdn.shopify.com/s/files/1/0260/7995/2947/products/dragon.jpg?v=1594195795,https://cdn.shopify.com/s/files/1/0260/7995/2947/products/dragon1.jpg?v=1594195795
https://funnytillyoudie.com/products/srirachai-sauce,Sriracha Sauce - Custom Swim Trunks,https://cdn.shopify.com/s/files/1/0260/7995/2947/products/SF013SrirachaCock.jpg?v=1593507223,https://cdn.shopify.com/s/files/1/0260/7995/2947/products/Mockupnguoi_c4cd456a-6ce9-4cd3-9466-e1f6293af6dd.jpg?v=1593686752
https://funnytillyoudie.com/products/xl-extra-large,XL Extra Large - Custom Swim Trunks,https://cdn.shopify.com/s/files/1/0260/7995/2947/products/k240620-XL__34506.1592986379_718de55d-293a-4e82-98bd-7f26924747ef.png?v=1593671495
https://funnytillyoudie.com/products/stop-staring-at-my-pecker-custom-swim-trunks,Stop Staring At My Pecker - Custom Swim Trunks,https://cdn.shopify.com/s/files/1/0260/7995/2947/products/DemoFront_10.jpg?v=1594365379,https://cdn.shopify.com/s/files/1/0260/7995/2947/products/Mockupnguoi_27.jpg?v=1594365379
https://funnytillyoudie.com/products/cock-dab-custom-swim-trunks,Cock Dab - Custom Swim Trunks,https://cdn.shopify.com/s/files/1/0260/7995/2947/products/W15.jpg?v=1594018039,https://cdn.shopify.com/s/files/1/0260/7995/2947/products/w15-1.jpg?v=1594018039
https://funnytillyoudie.com/products/stop-staring-at-my-hot-c-ck,Stop Staring At My Hot C - Custom Swim Trunks,https://cdn.shopify.com/s/files/1/0260/7995/2947/products/SF013Sriracha.jpg?v=1593686675,https://cdn.shopify.com/s/files/1/0260/7995/2947/products/Mockupnguoi_5d324948-2824-4df2-a4a4-f4ea86b4c883.jpg?v=1593687788
https://funnytillyoudie.com/products/stop-staring-at-my-fire-hose-custom-swim-trunks,Stop Staring At My Fire Hose - Custom Swim Trunks,https://cdn.shopify.com/s/files/1/0260/7995/2947/products/DemoFront_19.jpg?v=1594622945,https://cdn.shopify.com/s/files/1/0260/7995/2947/products/Mockupnguoi_35.jpg?v=1594622945
https://funnytillyoudie.com/products/couple-matching-return-to-bae-shorts,Couple Matching - Return To Babe - Shorts,https://cdn.shopify.com/s/files/1/0260/7995/2947/products/SS-040.jpg?v=1596165502,https://cdn.shopify.com/s/files/1/0260/7995/2947/products/I3_9278e405-b1d5-4e68-9b92-c3d16a65456d.jpg?v=1596165502,https://cdn.shopify.com/s/files/1/0260/7995/2947/products/W2_ccbf396a-7283-4f78-874e-3941f8532f18.jpg?v=1596165502,https://cdn.shopify.com/s/files/1/0260/7995/2947/products/W3_67305b05-305b-45b4-a4f1-746cc42464dd.jpg?v=1596165502
https://funnytillyoudie.com/products/goku-vs-vegeta-custom-swim-trunks,Goku vs Vegeta - Custom Swim Trunks,https://cdn.shopify.com/s/files/1/0260/7995/2947/products/mockup_8.jpg?v=1594018232,https://cdn.shopify.com/s/files/1/0260/7995/2947/products/Mockupnguoi_10.jpg?v=1594018232
https://funnytillyoudie.com/products/stop-staring-at-my-c-starry-night-van-gogh-style-custom-swim-trunks,Stop Staring At My C (Starry Night Van Gogh Style) - Custom Swim Trunks,https://cdn.shopify.com/s/files/1/0260/7995/2947/products/vangogh.jpg?v=1593843790,https://cdn.shopify.com/s/files/1/0260/7995/2947/products/vangogh1.jpg?v=1593843790
https://funnytillyoudie.com/products/rick-sanchez-custom-swim-trunks,Rick Sanchez - Custom Swim Trunks,https://cdn.shopify.com/s/files/1/0260/7995/2947/products/mockup_4.jpg?v=1593750486,https://cdn.shopify.com/s/files/1/0260/7995/2947/products/Mockupnguoi_6.jpg?v=1593750486
https://funnytillyoudie.com/products/im-on-fire-today,I'm On Fire Today - Custom Swim Trunks,https://cdn.shopify.com/s/files/1/0260/7995/2947/products/I2.png?v=1593686643,https://cdn.shopify.com/s/files/1/0260/7995/2947/products/w2.jpg?v=1593686643,https://cdn.shopify.com/s/files/1/0260/7995/2947/products/I2-1.jpg?v=1593686643
https://funnytillyoudie.com/products/stop-staring-at-my-comic-custom-swim-trunks,Stop Staring At My Comic - Custom Swim Trunks,https://cdn.shopify.com/s/files/1/0260/7995/2947/products/DEMO-FRONT_16.jpg?v=1595321844,https://cdn.shopify.com/s/files/1/0260/7995/2947/products/MockupNguoi_47.jpg?v=1595321844,https://cdn.shopify.com/s/files/1/0260/7995/2947/products/DEMO-BACK_2.jpg?v=1595321844
https://funnytillyoudie.com/products/skull-custom-swim-trunks,Skull - Custom Swim Trunks,https://cdn.shopify.com/s/files/1/0260/7995/2947/products/w28.jpg?v=1594623117,https://cdn.shopify.com/s/files/1/0260/7995/2947/products/w28-2.jpg?v=1594623117
https://funnytillyoudie.com/products/pew-pew-custom-swim-trunks,Pew Pew - Custom Swim Trunks,https://cdn.shopify.com/s/files/1/0260/7995/2947/products/w23.jpg?v=1594287187,https://cdn.shopify.com/s/files/1/0260/7995/2947/products/w23-2.jpg?v=1594287187
https://funnytillyoudie.com/products/wanna-touch-my-cock-custom-swim-trunks,Wanna Touch My C - Custom Swim Trunks,https://cdn.shopify.com/s/files/1/0260/7995/2947/products/mockup_578228fa-566c-458a-9d5d-eaf6db2c47a1.jpg?v=1593682163,https://cdn.shopify.com/s/files/1/0260/7995/2947/products/Mockupnguoi_1.jpg?v=1593682163
https://funnytillyoudie.com/products/20th-anniversary-custom-swim-trunks,20th anniversary - Custom Swim Trunks,https://cdn.shopify.com/s/files/1/0260/7995/2947/products/w56.jpg?v=1595486304,https://cdn.shopify.com/s/files/1/0260/7995/2947/products/w56-2.jpg?v=1595486304,https://cdn.shopify.com/s/files/1/0260/7995/2947/products/w56-1.jpg?v=1595486304
https://funnytillyoudie.com/products/hulk-comic-custom-swim-trunks,Hulk Comic - Custom Swim Trunks,https://cdn.shopify.com/s/files/1/0260/7995/2947/products/DemoBack_7.jpg?v=1595313154,https://cdn.shopify.com/s/files/1/0260/7995/2947/products/DemoFront_37.jpg?v=1595313154,https://cdn.shopify.com/s/files/1/0260/7995/2947/products/Mockupnguoisau_6.jpg?v=1595313155
https://funnytillyoudie.com/products/fck-short-custom-swim-trunks,Fck Short - Custom Swim Trunks,https://cdn.shopify.com/s/files/1/0260/7995/2947/products/w51.jpg?v=1595305994,https://cdn.shopify.com/s/files/1/0260/7995/2947/products/w51-2.jpg?v=1595305994,https://cdn.shopify.com/s/files/1/0260/7995/2947/products/w51-1.jpg?v=1595305994
https://funnytillyoudie.com/products/cornholio-custom-swim-trunks,Cornholio - Custom Swim Trunks,https://cdn.shopify.com/s/files/1/0260/7995/2947/products/DEMO-FRONT_12.jpg?v=1594437546,https://cdn.shopify.com/s/files/1/0260/7995/2947/products/DEMO-BACK.jpg?v=1594437546,https://cdn.shopify.com/s/files/1/0260/7995/2947/products/Mockupnguoi_31.jpg?v=1594437542
https://funnytillyoudie.com/products/my-pen-is-huge-custom-swim-trunks,My Pen Is Huge - Custom Swim Trunks,https://cdn.shopify.com/s/files/1/0260/7995/2947/products/mockup_1_6790d535-dc8a-41e8-b217-842c76ccc102.jpg?v=1593844126,https://cdn.shopify.com/s/files/1/0260/7995/2947/products/Mockupnguoi_1_8d783b8d-f2ef-4bec-b540-55103ebc8ba1.jpg?v=1593844126
https://funnytillyoudie.com/products/cat-galaxy-custom-swim-trunks,Cat Galaxy - Custom Swim Trunks,https://cdn.shopify.com/s/files/1/0260/7995/2947/products/image_2020_07_03T07_26_45_364Z.png?v=1593763114,https://cdn.shopify.com/s/files/1/0260/7995/2947/products/Mockupnguoi_3.jpg?v=1593763114
https://funnytillyoudie.com/products/monkey-custom-swim-trunks,Monkey - Custom Swim Trunks,https://cdn.shopify.com/s/files/1/0260/7995/2947/products/w9.jpg?v=1593683606,https://cdn.shopify.com/s/files/1/0260/7995/2947/products/w9-2.jpg?v=1593683606
https://funnytillyoudie.com/products/yoda-custom-swim-trunks,Yoda - Custom Swim Trunks,https://cdn.shopify.com/s/files/1/0260/7995/2947/products/DemoFront_36_ec853ba0-b29f-4dc4-ab77-538a32719230.jpg?v=1595560246,https://cdn.shopify.com/s/files/1/0260/7995/2947/products/DemoBack_7_745c5570-429c-4db4-a4dd-ecd9fd172176.jpg?v=1595560246,https://cdn.shopify.com/s/files/1/0260/7995/2947/products/Mockupnguoi_49_bf785e44-096a-4bd9-b0a0-32331f6a55c2.jpg?v=1595560172
https://funnytillyoudie.com/products/american-hawk-custom-swim-trunks,American Hawk - Custom Swim Trunks,https://cdn.shopify.com/s/files/1/0260/7995/2947/products/DemoFront_27.jpg?v=1594803349,https://cdn.shopify.com/s/files/1/0260/7995/2947/products/Mockupnguoi_39.jpg?v=1594803349,https://cdn.shopify.com/s/files/1/0260/7995/2947/products/DemoBack_1.jpg?v=1594803349
https://funnytillyoudie.com/products/wanna-play-with-my-joystick-custom-swim-trunks,Wanna Play With My Joystick? - Custom Swim Trunks,https://cdn.shopify.com/s/files/1/0260/7995/2947/products/DemoFront_12.jpg?v=1594432111,https://cdn.shopify.com/s/files/1/0260/7995/2947/products/Mockupnguoi_30.jpg?v=1594432111
https://funnytillyoudie.com/products/stop-staring-at-my-pole-custom-swim-trunks,Stop Staring At My Pole - Custom Swim Trunks,https://cdn.shopify.com/s/files/1/0260/7995/2947/products/mockupa.jpg?v=1594204551,https://cdn.shopify.com/s/files/1/0260/7995/2947/products/Mockupnguoiden.jpg?v=1594204551
https://funnytillyoudie.com/products/bite-me-custom-swim-trunks,Bite Me - Custom Swim Trunks,https://cdn.shopify.com/s/files/1/0260/7995/2947/products/DemoFront_2.jpg?v=1594199449,https://cdn.shopify.com/s/files/1/0260/7995/2947/products/Mockupnguoi_17.jpg?v=1594199449
https://funnytillyoudie.com/products/thacock-custom-swim-trunks,Thacock - Custom Swim Trunks,https://cdn.shopify.com/s/files/1/0260/7995/2947/products/thacock.jpg?v=1594017429,https://cdn.shopify.com/s/files/1/0260/7995/2947/products/Mockupnguoi_8.jpg?v=1594017587
https://funnytillyoudie.com/products/dammm-custom-swim-trunks,Dammm - Custom Swim Trunks,https://cdn.shopify.com/s/files/1/0260/7995/2947/products/W13_1.jpg?v=1593844260,https://cdn.shopify.com/s/files/1/0260/7995/2947/products/w13-1.jpg?v=1593844260
https://funnytillyoudie.com/products/couple-matching-everything-shorts,Couple Matching - Everything - Shorts,https://cdn.shopify.com/s/files/1/0260/7995/2947/products/SS-027.jpg?v=1596165615,https://cdn.shopify.com/s/files/1/0260/7995/2947/products/HUSBAND.jpg?v=1596165615,https://cdn.shopify.com/s/files/1/0260/7995/2947/products/WIFE.jpg?v=1596165615
https://funnytillyoudie.com/products/horror-film-custom-swim-trunks,Horror Film - Custom Swim Trunks,https://cdn.shopify.com/s/files/1/0260/7995/2947/products/DemoFront_34_5ae81366-0c2b-4b33-b4f5-486e3406c271.jpg?v=1595319949,https://cdn.shopify.com/s/files/1/0260/7995/2947/products/Mockupnguoi_46_54940a90-b683-49bf-842f-9e7dde7a8116.jpg?v=1595319949,https://cdn.shopify.com/s/files/1/0260/7995/2947/products/Mockupnguoisau_5_dc7457d8-f21e-4376-a7f8-e1309f9f6268.jpg?v=1595319949
https://funnytillyoudie.com/products/game-of-thrones-custom-swim-trunks,Game Of Thrones - Custom Swim Trunks,https://cdn.shopify.com/s/files/1/0260/7995/2947/products/DemoFront_38.jpg?v=1595316723,https://cdn.shopify.com/s/files/1/0260/7995/2947/products/Mockupnguoi_52.jpg?v=1595316723,https://cdn.shopify.com/s/files/1/0260/7995/2947/products/DemoBack_8.jpg?v=1595316723
https://funnytillyoudie.com/products/morty-custom-swim-trunks,Morty - Custom Swim Trunks,https://cdn.shopify.com/s/files/1/0260/7995/2947/products/DemoFont.jpg?v=1595312694,https://cdn.shopify.com/s/files/1/0260/7995/2947/products/Mockupnguoi_50.jpg?v=1595312694,https://cdn.shopify.com/s/files/1/0260/7995/2947/products/DemoBack_5.jpg?v=1595312694
https://funnytillyoudie.com/products/stop-staring-at-my-hotdog-custom-swim-trunks,Stop Staring At My Hot Dog - Custom Swim Trunks,https://cdn.shopify.com/s/files/1/0260/7995/2947/products/DemoFront_26.jpg?v=1594799733,https://cdn.shopify.com/s/files/1/0260/7995/2947/products/Mockupnguoi_38.jpg?v=1594799733,https://cdn.shopify.com/s/files/1/0260/7995/2947/products/Mockupnguoisau.jpg?v=1594799733
https://funnytillyoudie.com/products/mine-is-so-big-custom-swim-trunks,Mine Is So Big - Custom Swim Trunks,https://cdn.shopify.com/s/files/1/0260/7995/2947/products/DEMO-FRONT_5.jpg?v=1594200215,https://cdn.shopify.com/s/files/1/0260/7995/2947/products/Mockupnguoi_20.jpg?v=1594200215
https://funnytillyoudie.com/products/admit-it-custom-swim-trunks,Admit It - Custom Swim Trunks,https://cdn.shopify.com/s/files/1/0260/7995/2947/products/mockup_11.jpg?v=1594021765,https://cdn.shopify.com/s/files/1/0260/7995/2947/products/Mockupnguoi_13.jpg?v=1594021765
https://funnytillyoudie.com/products/naruto-vs-sasuke-custom-swim-trunks,Naruto vs Sasuke - Custom Swim Trunks,https://cdn.shopify.com/s/files/1/0260/7995/2947/products/mockup_9.jpg?v=1594018417,https://cdn.shopify.com/s/files/1/0260/7995/2947/products/Mockupnguoi_11.jpg?v=1594018417
https://funnytillyoudie.com/products/dragon-ball-custom-swim-trunks,Dragon Ball - Custom Swim Trunks,https://cdn.shopify.com/s/files/1/0260/7995/2947/products/w12.jpg?v=1593829542,https://cdn.shopify.com/s/files/1/0260/7995/2947/products/w12-1.jpg?v=1593829542
https://funnytillyoudie.com/products/stop-staring-at-my-trump-custom-swim-trunks,Stop Staring At My Trump - Custom Swim Trunks,https://cdn.shopify.com/s/files/1/0260/7995/2947/products/DemoFront_f149b8fd-be8b-4456-861a-759006fddc4f.jpg?v=1596540984,https://cdn.shopify.com/s/files/1/0260/7995/2947/products/DemoBack_df298479-6be7-4294-8910-5f03ca47d396.jpg?v=1596540984,https://cdn.shopify.com/s/files/1/0260/7995/2947/products/Mockupnguoi_f61e76ae-af99-41f3-899f-bce4c238916e.jpg?v=1596540984,https://cdn.shopify.com/s/files/1/0260/7995/2947/products/AD_3378788e-e891-40a7-8253-6d5fe371db4a.jpg?v=1596540984
https://funnytillyoudie.com/products/its-a-father-figure-shorts,It's A Father Figure - Shorts,https://cdn.shopify.com/s/files/1/0260/7995/2947/products/W1_5beab1df-dbfd-469d-9929-db3966e132e7.jpg?v=1596165815
https://funnytillyoudie.com/products/couple-matching-i-am-lucky-to-have-you-shorts,Couple Matching - I Am Lucky To Have You - Shorts,https://cdn.shopify.com/s/files/1/0260/7995/2947/products/w1_770ff1dd-d49c-4fb9-8ddf-86591fefc844.jpg?v=1596165624,https://cdn.shopify.com/s/files/1/0260/7995/2947/products/w2_740bad66-5b34-437f-a2d0-25a1b1714202.jpg?v=1596165624,https://cdn.shopify.com/s/files/1/0260/7995/2947/products/w3_eb23bbca-a8d1-4c0b-be91-e1f5d40b43c8.jpg?v=1596165624
https://funnytillyoudie.com/products/couple-matching-his-peace-and-her-rock-shorts,Couple Matching - His Peace And Her Rock - Shorts,https://cdn.shopify.com/s/files/1/0260/7995/2947/products/SS-019.jpg?v=1596165527,https://cdn.shopify.com/s/files/1/0260/7995/2947/products/w3_2ca83f54-3dab-4331-a6b5-cbc134757567.jpg?v=1596165527,https://cdn.shopify.com/s/files/1/0260/7995/2947/products/man.jpg?v=1596165527,https://cdn.shopify.com/s/files/1/0260/7995/2947/products/woman.jpg?v=1596165527
https://funnytillyoudie.com/products/couple-matching-forerver-king-queen-shorts,Couple Matching - Forerver King & Queen - Shorts,https://cdn.shopify.com/s/files/1/0260/7995/2947/products/SS-041.jpg?v=1596165489,https://cdn.shopify.com/s/files/1/0260/7995/2947/products/w1_2b56c526-4edc-4f7a-8130-3a64417b3aa9.jpg?v=1596165489,https://cdn.shopify.com/s/files/1/0260/7995/2947/products/w2_78c7e864-2f52-4cb6-85ea-cbb51d002cba.jpg?v=1596165489
https://funnytillyoudie.com/products/couple-matching-i-dont-do-matching-short-shorts,Couple Matching - I Don't Do Matching Shorts - Shorts,https://cdn.shopify.com/s/files/1/0260/7995/2947/products/SS-051-V2.jpg?v=1596165422,https://cdn.shopify.com/s/files/1/0260/7995/2947/products/W1_3_83144ac1-baef-44b1-aea8-0c7d32cf17fb.jpg?v=1596165422,https://cdn.shopify.com/s/files/1/0260/7995/2947/products/W3_2_add91755-4a1f-4594-902e-9caadc880cfb.jpg?v=1596165422
https://funnytillyoudie.com/products/couple-matching-spider-love-shorts,Couple Matching - Spider Love - Shorts,https://cdn.shopify.com/s/files/1/0260/7995/2947/products/W1_86850cab-d4e1-4499-80b4-1919ec9f3d92.jpg?v=1596165325,https://cdn.shopify.com/s/files/1/0260/7995/2947/products/W4_24fa90ac-4f70-43ff-a0c5-fbd522c8de8c.jpg?v=1596165325,https://cdn.shopify.com/s/files/1/0260/7995/2947/products/W2_31c246ee-2467-4ac3-8d68-3149177a4610.jpg?v=1596165325,https://cdn.shopify.com/s/files/1/0260/7995/2947/products/W3_80cf0c7f-98da-418a-8e88-bdfccb4435a2.jpg?v=1596165325
https://funnytillyoudie.com/products/couple-matching-i-have-everything-i-need-shorts,Couple Matching - I Have Everything I Need - Shorts,https://cdn.shopify.com/s/files/1/0260/7995/2947/products/W1_8c3fc8b5-d126-419c-84f5-ba99b5de081a.jpg?v=1596165308,https://cdn.shopify.com/s/files/1/0260/7995/2947/products/I3_ff171af2-5252-45aa-851a-3d7086e2cb88.jpg?v=1596165308,https://cdn.shopify.com/s/files/1/0260/7995/2947/products/W2_deefc61a-6aab-404f-8b69-7939e77d2757.jpg?v=1596165308,https://cdn.shopify.com/s/files/1/0260/7995/2947/products/W3_07177e03-7f33-48ad-a988-15cfec7c9f68.jpg?v=1596165308
https://funnytillyoudie.com/products/couple-matching-i-am-everything-shorts,Couple Matching - I Am Everything - Shorts,https://cdn.shopify.com/s/files/1/0260/7995/2947/products/AD_38e400cf-48dc-4f90-81ee-34dfe73da1b5.jpg?v=1596165256,https://cdn.shopify.com/s/files/1/0260/7995/2947/products/MANDEMO-BACK.jpg?v=1596165256,https://cdn.shopify.com/s/files/1/0260/7995/2947/products/MANDEMO-FRONT.jpg?v=1596165256,https://cdn.shopify.com/s/files/1/0260/7995/2947/products/WOMANDEMO-FRONT.jpg?v=1596165256,https://cdn.shopify.com/s/files/1/0260/7995/2947/products/WOMANDEMO-BACK.jpg?v=1596165257
https://funnytillyoudie.com/products/couple-matching-angel-and-devil-shorts,Couple Matching - Angel And Devil - Shorts,https://cdn.shopify.com/s/files/1/0260/7995/2947/products/W1_41d10bf4-f585-47a6-900b-a48c4ddf629c.jpg?v=1596165183,https://cdn.shopify.com/s/files/1/0260/7995/2947/products/W4_1483805c-d156-4bec-a8fb-bad41acac9a4.jpg?v=1596165183,https://cdn.shopify.com/s/files/1/0260/7995/2947/products/W2_125392a0-2b02-4480-be6a-a192b9a845d9.jpg?v=1596165183,https://cdn.shopify.com/s/files/1/0260/7995/2947/products/W3_91a19149-babb-4ece-b205-5c8fa2a2e1d1.jpg?v=1596165183
https://funnytillyoudie.com/products/dog-denim-custom-swim-trunks,Dog Denim - Custom Swim Trunks,https://cdn.shopify.com/s/files/1/0260/7995/2947/products/w57.jpg?v=1595645253,https://cdn.shopify.com/s/files/1/0260/7995/2947/products/w57-1.jpg?v=1595645253,https://cdn.shopify.com/s/files/1/0260/7995/2947/products/w57-2.jpg?v=1595645253
https://funnytillyoudie.com/products/cartoonnetwork-custom-swim-trunks,Cartoonnetwork - Custom Swim Trunks,https://cdn.shopify.com/s/files/1/0260/7995/2947/products/w47.jpg?v=1595313664,https://cdn.shopify.com/s/files/1/0260/7995/2947/products/w47-2.jpg?v=1595313664,https://cdn.shopify.com/s/files/1/0260/7995/2947/products/w47-1.jpg?v=1595313664
https://funnytillyoudie.com/products/corgi-custom-swim-trunks,Corgi - Custom Swim Trunks,https://cdn.shopify.com/s/files/1/0260/7995/2947/products/DemoFront_36.jpg?v=1595312813,https://cdn.shopify.com/s/files/1/0260/7995/2947/products/Mockupnguoi_51.jpg?v=1595312813,https://cdn.shopify.com/s/files/1/0260/7995/2947/products/DemoBack_6.jpg?v=1595312813
https://funnytillyoudie.com/products/tiger-king-custom-swim-trunks,Tiger King - Custom Swim Trunks,https://cdn.shopify.com/s/files/1/0260/7995/2947/products/DEMO-FRONT_17.jpg?v=1595305017,https://cdn.shopify.com/s/files/1/0260/7995/2947/products/MockupNguoi_49.jpg?v=1595305017,https://cdn.shopify.com/s/files/1/0260/7995/2947/products/DEMO-BACK_3.jpg?v=1595305017
https://funnytillyoudie.com/products/joker-custom-swim-trunks,Joker - Custom Swim Trunks,https://cdn.shopify.com/s/files/1/0260/7995/2947/products/DemoBack_4.jpg?v=1595303736,https://cdn.shopify.com/s/files/1/0260/7995/2947/products/DemoFront_35.jpg?v=1595303736,https://cdn.shopify.com/s/files/1/0260/7995/2947/products/Mockupnguoi_48.jpg?v=1595303736
https://funnytillyoudie.com/products/watermelon-custom-swim-trunks,Watermelon - Custom Swim Trunks,https://cdn.shopify.com/s/files/1/0260/7995/2947/products/DemoFront_34.jpg?v=1595299555,https://cdn.shopify.com/s/files/1/0260/7995/2947/products/Mockupnguoi_46.jpg?v=1595299556,https://cdn.shopify.com/s/files/1/0260/7995/2947/products/Mockupnguoisau_5.jpg?v=1595299556
https://funnytillyoudie.com/products/420-short-custom-swim-trunks,420 Short - Custom Swim Trunks,https://cdn.shopify.com/s/files/1/0260/7995/2947/products/DemoFront_33.jpg?v=1595235303,https://cdn.shopify.com/s/files/1/0260/7995/2947/products/Mockupnguoi_45.jpg?v=1595235303,https://cdn.shopify.com/s/files/1/0260/7995/2947/products/Mockupnguoisau_4.jpg?v=1595235303
https://funnytillyoudie.com/products/fishing-short-custom-swim-trunks,Fishing Short - Custom Swim Trunks,https://cdn.shopify.com/s/files/1/0260/7995/2947/products/DemoFront_29.jpg?v=1595228044,https://cdn.shopify.com/s/files/1/0260/7995/2947/products/Mockupnguoi_41.jpg?v=1595228044,https://cdn.shopify.com/s/files/1/0260/7995/2947/products/DemoBack_3.jpg?v=1595228044
https://funnytillyoudie.com/products/pikachu-custom-swim-trunks,Pikachu - Custom Swim Trunks,https://cdn.shopify.com/s/files/1/0260/7995/2947/products/DemoFront_28.jpg?v=1595227817,https://cdn.shopify.com/s/files/1/0260/7995/2947/products/Mockupnguoi_40.jpg?v=1595227817,https://cdn.shopify.com/s/files/1/0260/7995/2947/products/DemoBack_2.jpg?v=1595227817,https://cdn.shopify.com/s/files/1/0260/7995/2947/products/Mockupnguoisau_1.jpg?v=1595227797
https://funnytillyoudie.com/products/im-not-waiting-til-5-custom-swim-trunks,I'm Not Waiting Til 5 - Custom Swim Trunks,https://cdn.shopify.com/s/files/1/0260/7995/2947/products/w32.jpg?v=1594800743,https://cdn.shopify.com/s/files/1/0260/7995/2947/products/w32-2.jpg?v=1594800743,https://cdn.shopify.com/s/files/1/0260/7995/2947/products/w32-1.jpg?v=1594800743
https://funnytillyoudie.com/products/dbz-uniform-custom-swim-trunks,DBZ uniform - Custom Swim Trunks,https://cdn.shopify.com/s/files/1/0260/7995/2947/products/w30.jpg?v=1594710724,https://cdn.shopify.com/s/files/1/0260/7995/2947/products/w30-1.jpg?v=1594710724
https://funnytillyoudie.com/products/godzilla-custom-swim-trunks,Godzilla - Custom Swim Trunks,https://cdn.shopify.com/s/files/1/0260/7995/2947/products/image_1.png?v=1594626275
https://funnytillyoudie.com/products/pocket-british-longhair-custom-swim-trunks,Pocket British Longhair - Custom Swim Trunks,https://cdn.shopify.com/s/files/1/0260/7995/2947/products/W25-1.jpg?v=1594460029,https://cdn.shopify.com/s/files/1/0260/7995/2947/products/W25.jpg?v=1594460029
https://funnytillyoudie.com/products/pocket-persian-cat-custom-swim-trunks,Pocket Persian Cat - Custom Swim Trunks,https://cdn.shopify.com/s/files/1/0260/7995/2947/products/DEMO-FRONT_14.jpg?v=1594459919
https://funnytillyoudie.com/products/pocket-golden-custom-swim-trunks,Pocket Golden - Custom Swim Trunks,https://cdn.shopify.com/s/files/1/0260/7995/2947/products/DemoFront2_1.jpg?v=1594459578
https://funnytillyoudie.com/products/ride-a-c-custom-swim-trunks,Ride A C - Custom Swim Trunks,https://cdn.shopify.com/s/files/1/0260/7995/2947/products/w24.jpg?v=1594374124,https://cdn.shopify.com/s/files/1/0260/7995/2947/products/w24-1.jpg?v=1594374124
https://funnytillyoudie.com/products/i-will-bite-you-custom-swim-trunks,I Will Bite You - Custom Swim Trunks,https://cdn.shopify.com/s/files/1/0260/7995/2947/products/DEMO-FRONT_10.jpg?v=1594364554,https://cdn.shopify.com/s/files/1/0260/7995/2947/products/Mockupnguoi_26.jpg?v=1594364554
https://funnytillyoudie.com/products/that-fish-was-so-big-custom-swim-trunks,That Fish Was So Big - Custom Swim Trunks,https://cdn.shopify.com/s/files/1/0260/7995/2947/products/DemoFront_1.jpg?v=1594199303,https://cdn.shopify.com/s/files/1/0260/7995/2947/products/Mockupnguoi_16.jpg?v=1594199303
https://funnytillyoudie.com/products/native-american-custom-swim-trunks,Native American - Custom Swim Trunks,https://cdn.shopify.com/s/files/1/0260/7995/2947/products/DEMO-Front_3.jpg?v=1594114884,https://cdn.shopify.com/s/files/1/0260/7995/2947/products/Mockupnguoi_14.jpg?v=1594114884
https://funnytillyoudie.com/products/stary-night-cat-custom-swim-trunks,Starry Night Cat - Custom Swim Trunks,https://cdn.shopify.com/s/files/1/0260/7995/2947/products/DEMO-Front_1cce59a1-8c39-4f99-af58-bd0421a46165.jpg?v=1594018802,https://cdn.shopify.com/s/files/1/0260/7995/2947/products/asffs.jpg?v=1594018802
https://funnytillyoudie.com/products/always-protect-your-queen-shorts,Always Protect Your Queen - Shorts,https://cdn.shopify.com/s/files/1/0260/7995/2947/products/W1_ad815c68-f923-4444-b9f6-62c2907d7cbd.jpg?v=1596165813
https://funnytillyoudie.com/products/always-trust-your-king-shorts,Always Trust Your King - Shorts,https://cdn.shopify.com/s/files/1/0260/7995/2947/products/W2_7391ab21-9559-49f6-85f7-eb65131aa740.jpg?v=1596165811
https://funnytillyoudie.com/products/couple-matching-king-queen-shorts,Couple Matching - King & Queen - Shorts,https://cdn.shopify.com/s/files/1/0260/7995/2947/products/I1COUPLE.jpg?v=1596165704,https://cdn.shopify.com/s/files/1/0260/7995/2947/products/W3_22a26af7-f6aa-4513-bdc3-0280fb3264dc.jpg?v=1596165704,https://cdn.shopify.com/s/files/1/0260/7995/2947/products/W4_1_4ad33078-2f23-44e6-a5fb-84c57830ee2c.jpg?v=1596165704,https://cdn.shopify.com/s/files/1/0260/7995/2947/products/W3_d30740a9-2cab-4fd3-b3a7-27b620de5ed5.jpg?v=1596165704
https://funnytillyoudie.com/products/couple-matching-pizza-piece-shorts,Couple Matching - Pizza Piece - Shorts,https://cdn.shopify.com/s/files/1/0260/7995/2947/products/W1_9e283918-825f-4dd5-a4b5-5844c999cd5e.jpg?v=1596165651,https://cdn.shopify.com/s/files/1/0260/7995/2947/products/W2_83153ed4-8d27-421b-b25e-72d1bfc53b99.jpg?v=1596165651,https://cdn.shopify.com/s/files/1/0260/7995/2947/products/W3_91e7c977-6018-43c5-b43a-2023e25160cb.jpg?v=1596165651
https://funnytillyoudie.com/products/couple-matching-i-licked-it-shorts,Couple Matching - I Licked it - Shorts,https://cdn.shopify.com/s/files/1/0260/7995/2947/products/SS-023.jpg?v=1596165642,https://cdn.shopify.com/s/files/1/0260/7995/2947/products/Dad_9b474c32-1469-4d10-ba26-ca415017f08b.jpg?v=1596165642,https://cdn.shopify.com/s/files/1/0260/7995/2947/products/Mom_1a21469e-780b-4046-b554-375dd622672f.jpg?v=1596165642
https://funnytillyoudie.com/products/couple-matching-i-like-shorts,Couple Matching - I Like - Shorts,https://cdn.shopify.com/s/files/1/0260/7995/2947/products/SS-025.jpg?v=1596165632,https://cdn.shopify.com/s/files/1/0260/7995/2947/products/w2_1fa21b90-321d-4bfe-89aa-e86b8dca163c.jpg?v=1596165632,https://cdn.shopify.com/s/files/1/0260/7995/2947/products/w3_9cd8a55c-918a-4f23-a755-28a62c50d5b4.jpg?v=1596165632
https://funnytillyoudie.com/products/couple-matching-king-and-queen-shorts,Couple Matching - King and Queen - Shorts,https://cdn.shopify.com/s/files/1/0260/7995/2947/products/SS-021.jpg?v=1596165606,https://cdn.shopify.com/s/files/1/0260/7995/2947/products/W3_966e2e18-87e3-490a-9bfc-7b135adf7cb0.jpg?v=1596165606,https://cdn.shopify.com/s/files/1/0260/7995/2947/products/W2_5265405b-53e4-4f11-a2c9-f67b20c99383.jpg?v=1596165606
https://funnytillyoudie.com/products/couple-matching-bad-buoy-and-naughti-girl-shorts,Couple Matching - Bad Buoy And Naughti Girl - Shorts,https://cdn.shopify.com/s/files/1/0260/7995/2947/products/SS-031.jpg?v=1596165574,https://cdn.shopify.com/s/files/1/0260/7995/2947/products/W4_f3d9d709-bd79-497e-ace9-a0281c50a9fc.jpg?v=1596165574,https://cdn.shopify.com/s/files/1/0260/7995/2947/products/W2_914d7bd2-5647-4371-9771-8717d3444969.jpg?v=1596165574,https://cdn.shopify.com/s/files/1/0260/7995/2947/products/W3_afeeca21-5635-479a-968a-ed748b41492d.jpg?v=1596165574
https://funnytillyoudie.com/products/couple-matching-i-whale-always-love-you-shorts,Couple Matching - I Whale Always Love You - Shorts,https://cdn.shopify.com/s/files/1/0260/7995/2947/products/SS-029.jpg?v=1596165563,https://cdn.shopify.com/s/files/1/0260/7995/2947/products/W4_f416d470-cb64-44b3-b587-a5943f397976.jpg?v=1596165563,https://cdn.shopify.com/s/files/1/0260/7995/2947/products/W2_b67119f7-7e5b-4b04-9828-a4cab4be1e02.jpg?v=1596165563,https://cdn.shopify.com/s/files/1/0260/7995/2947/products/W3_dff8ea2a-a485-40c1-9c40-4993854ee965.jpg?v=1596165563
https://funnytillyoudie.com/products/couple-matching-i-love-you-berry-much-shorts,Couple Matching - I Love You Berry Much - Shorts,https://cdn.shopify.com/s/files/1/0260/7995/2947/products/SS-028.jpg?v=1596165538,https://cdn.shopify.com/s/files/1/0260/7995/2947/products/w3_6f2ea1cb-181e-4c55-bf66-8d1ba8516bad.jpg?v=1596165538,https://cdn.shopify.com/s/files/1/0260/7995/2947/products/w2_ef7ef6ab-175d-4205-af6b-e66e297ad8ff.jpg?v=1596165539,https://cdn.shopify.com/s/files/1/0260/7995/2947/products/w1_bf04f3b3-5635-41a8-968a-e7f333e552f1.jpg?v=1596165539
https://funnytillyoudie.com/products/surfing-banana-mens-shorts,Surfing Banana - Men's Shorts,https://cdn.shopify.com/s/files/1/0260/7995/2947/products/w1_31b51e68-1a0c-4730-b341-16d8aa9a4c29.jpg?v=1596165521,https://cdn.shopify.com/s/files/1/0260/7995/2947/products/w2_41bc8ad0-6d9d-44a6-8382-5b6e7483e266.jpg?v=1596165521
https://funnytillyoudie.com/products/couple-matching-lick-me-shorts,Couple Matching - Lick Me - Shorts,https://cdn.shopify.com/s/files/1/0260/7995/2947/products/SS-047.jpg?v=1596165471,https://cdn.shopify.com/s/files/1/0260/7995/2947/products/W4_2dd9d0c5-7f76-4e7c-b6d8-2d9442e80599.jpg?v=1596165471,https://cdn.shopify.com/s/files/1/0260/7995/2947/products/W2_84273739-2534-428b-acf3-fb515284dddb.jpg?v=1596165471,https://cdn.shopify.com/s/files/1/0260/7995/2947/products/W3_e9e15fa9-653a-4a14-a97f-39c76610801d.jpg?v=1596165471
https://funnytillyoudie.com/products/couple-matching-her-rock-and-his-peace-shorts,Couple Matching - Her Rock And His Peace - Shorts,https://cdn.shopify.com/s/files/1/0260/7995/2947/products/SS-048.jpg?v=1596165459,https://cdn.shopify.com/s/files/1/0260/7995/2947/products/i2_310f6e9f-f273-49ec-a21c-46c097e49aeb.jpg?v=1596165459,https://cdn.shopify.com/s/files/1/0260/7995/2947/products/w1_99d6b308-ecd6-45d3-b7eb-7703f85c8416.jpg?v=1596165459,https://cdn.shopify.com/s/files/1/0260/7995/2947/products/w2_b40bc504-d7ec-499e-a6b3-bfdada041c87.jpg?v=1596165459
https://funnytillyoudie.com/products/couple-matching-beauty-and-the-beast-shorts,Couple Matching - Beauty and The Beast - Shorts,https://cdn.shopify.com/s/files/1/0260/7995/2947/products/SS-043.jpg?v=1596165448,https://cdn.shopify.com/s/files/1/0260/7995/2947/products/W2_9cf25387-9320-4487-9bd9-0e74c8eace65.jpg?v=1596165448,https://cdn.shopify.com/s/files/1/0260/7995/2947/products/W3_95df1168-aa75-441f-9242-37869ad14c53.jpg?v=1596165448
https://funnytillyoudie.com/products/couple-matching-joker-and-harley-shorts,Couple Matching - Joker and Harley - Shorts,https://cdn.shopify.com/s/files/1/0260/7995/2947/products/SS-042.jpg?v=1596165440,https://cdn.shopify.com/s/files/1/0260/7995/2947/products/W4_d74d24f4-c5d9-4c2b-9e9b-ae53ed3ace73.jpg?v=1596165440,https://cdn.shopify.com/s/files/1/0260/7995/2947/products/W1_1_95769b95-a034-435c-af40-696c0c57a016.jpg?v=1596165440
https://funnytillyoudie.com/products/couple-matching-i-do-shorts,Couple Matching - I Do - Shorts,https://cdn.shopify.com/s/files/1/0260/7995/2947/products/SS-051-V1.jpg?v=1596165431,https://cdn.shopify.com/s/files/1/0260/7995/2947/products/W4_1_e09edecc-1035-4284-8119-2e757c1f3a50.jpg?v=1596165431,https://cdn.shopify.com/s/files/1/0260/7995/2947/products/W2_2_ede35fdb-e90b-43a1-857c-7e187aeb2cd5.jpg?v=1596165431
https://funnytillyoudie.com/products/couple-matching-you-are-my-better-half-shorts,Couple Matching - You Are My Better Half - Shorts,https://cdn.shopify.com/s/files/1/0260/7995/2947/products/SS052.jpg?v=1596165412,https://cdn.shopify.com/s/files/1/0260/7995/2947/products/W3_04c4acda-adb3-470d-b454-c3b61d848bf0.jpg?v=1596165412,https://cdn.shopify.com/s/files/1/0260/7995/2947/products/W2_b79c746a-7d12-46ba-8cf7-7e68eed35c78.jpg?v=1596165412
https://funnytillyoudie.com/products/couple-matching-this-belongs-to-my-bae-and-i-am-bae-shorts,Couple Matching - This Belongs To My Bae And I Am Bae - Shorts,https://cdn.shopify.com/s/files/1/0260/7995/2947/products/i59-1.jpg?v=1596165398,https://cdn.shopify.com/s/files/1/0260/7995/2947/products/w59-3.jpg?v=1596165398,https://cdn.shopify.com/s/files/1/0260/7995/2947/products/w59-4.jpg?v=1596165398,https://cdn.shopify.com/s/files/1/0260/7995/2947/products/W1_317ca09f-dec2-4c86-a610-17bc9c559a4f.jpg?v=1596165398
https://funnytillyoudie.com/products/couple-matching-k-q-shorts,Couple Matching - K & Q - Shorts,https://cdn.shopify.com/s/files/1/0260/7995/2947/products/SS-049.jpg?v=1596165386,https://cdn.shopify.com/s/files/1/0260/7995/2947/products/W2_2_bd01dbe4-8239-41e0-87cd-918f73002fb6.jpg?v=1596165386,https://cdn.shopify.com/s/files/1/0260/7995/2947/products/W3_2_c6bf61a8-cc0c-478d-b6b2-ad3cfddecf26.jpg?v=1596165386
https://funnytillyoudie.com/products/couple-matching-clyde-bonnie-shorts,Couple Matching - Clyde & Bonnie - Shorts,https://cdn.shopify.com/s/files/1/0260/7995/2947/products/SS-050.jpg?v=1596165376,https://cdn.shopify.com/s/files/1/0260/7995/2947/products/W3_3_96351a15-4748-4413-9e69-2b66ff3ce8a0.jpg?v=1596165376,https://cdn.shopify.com/s/files/1/0260/7995/2947/products/W2_3_149d2693-a298-403a-8333-784ad0ea263c.jpg?v=1596165376
https://funnytillyoudie.com/products/couple-matching-this-belongs-to-my-bae-and-i-am-bae-personalized-shorts,Couple Matching - This Belongs To My Bae And I Am Bae - Personalized Shorts,https://cdn.shopify.com/s/files/1/0260/7995/2947/products/i59.jpg?v=1596165366,https://cdn.shopify.com/s/files/1/0260/7995/2947/products/w59.jpg?v=1596165366,https://cdn.shopify.com/s/files/1/0260/7995/2947/products/w59-1.jpg?v=1596165366
https://funnytillyoudie.com/products/couple-matching-after-all-this-time-shorts,Couple Matching - After All This Time - Shorts,https://cdn.shopify.com/s/files/1/0260/7995/2947/products/AD1.jpg?v=1596165356,https://cdn.shopify.com/s/files/1/0260/7995/2947/products/AD_85ba05e5-8843-4893-8425-4c7fc1733e7c.jpg?v=1596165356,https://cdn.shopify.com/s/files/1/0260/7995/2947/products/DEMO-BACK_28a0a3be-8967-4578-b492-37f97526fd81.jpg?v=1596165356,https://cdn.shopify.com/s/files/1/0260/7995/2947/products/DEMO-BACK_1_bf26f07d-a467-4043-a2cd-910b17588788.jpg?v=1596165356,https://cdn.shopify.com/s/files/1/0260/7995/2947/products/DEMO-FRONT_630d8554-6abe-4330-877a-b8bd094fc880.jpg?v=1596165356
https://funnytillyoudie.com/products/couple-matching-hubby-and-wifey-personalized-shorts,Couple Matching - Hubby And Wifey - Personalized Shorts,https://cdn.shopify.com/s/files/1/0260/7995/2947/products/AD_a2261c6b-c72e-40d5-8295-4ec9b806d28a.jpg?v=1596165344,https://cdn.shopify.com/s/files/1/0260/7995/2947/products/SDEMO-AD.jpg?v=1596165344,https://cdn.shopify.com/s/files/1/0260/7995/2947/products/SDEMO-BACK.jpg?v=1596165344,https://cdn.shopify.com/s/files/1/0260/7995/2947/products/WDEMO-FRONT.jpg?v=1596165344,https://cdn.shopify.com/s/files/1/0260/7995/2947/products/WDEMO-BACK.jpg?v=1596165344
https://funnytillyoudie.com/products/couple-this-belongs-to-my-bae-and-i-am-bae-shorts,Couple - This Belongs To My Bae And I Am Bae - Shorts,https://cdn.shopify.com/s/files/1/0260/7995/2947/products/i59-1_09b69b20-dd1f-4c27-b019-1bc6971a7cc7.jpg?v=1596165333,https://cdn.shopify.com/s/files/1/0260/7995/2947/products/w59-3_8cf7d3a4-8261-4274-a310-1c12164e7af2.jpg?v=1596165333,https://cdn.shopify.com/s/files/1/0260/7995/2947/products/w59-4_1d29e7ae-7e9d-47a3-b04b-a707c164f858.jpg?v=1596165333
https://funnytillyoudie.com/products/couple-matching-wasabae-shorts,Couple Matching - Wasabae - Shorts,https://cdn.shopify.com/s/files/1/0260/7995/2947/products/W3_de18390c-f16e-4128-8858-c8686c72c6a1.jpg?v=1596165317,https://cdn.shopify.com/s/files/1/0260/7995/2947/products/i3_a9b89249-40f6-4064-85bd-e714f95f6627.jpg?v=1596165317,https://cdn.shopify.com/s/files/1/0260/7995/2947/products/W2_f10008b1-5638-434b-a8a3-8e33495f495f.jpg?v=1596165317,https://cdn.shopify.com/s/files/1/0260/7995/2947/products/w1_071b510a-e7dc-40cf-a164-6d47fbc45856.jpg?v=1596165317
https://funnytillyoudie.com/products/couple-matching-stitch-and-angel-shorts,Couple Matching - Stitch And Angel- Shorts,https://cdn.shopify.com/s/files/1/0260/7995/2947/products/AD_cfbcfb06-b1e4-4fc5-ae62-e38fede82d4f.jpg?v=1596165298,https://cdn.shopify.com/s/files/1/0260/7995/2947/products/SFDemoFront.jpg?v=1596165298,https://cdn.shopify.com/s/files/1/0260/7995/2947/products/SFDemoBack.jpg?v=1596165298,https://cdn.shopify.com/s/files/1/0260/7995/2947/products/WSDemoFront.jpg?v=1596165298,https://cdn.shopify.com/s/files/1/0260/7995/2947/products/WSDemoBack.jpg?v=1596165298
https://funnytillyoudie.com/products/couple-matching-together-since-personalized-shorts,Couple Matching - Together Since - Personalized Shorts,https://cdn.shopify.com/s/files/1/0260/7995/2947/products/W1_93f2fd58-84da-4f8e-92d7-bfc0d6b7a15c.jpg?v=1596165288,https://cdn.shopify.com/s/files/1/0260/7995/2947/products/W4_7ad739f2-d795-452c-b9a5-8f148bc337a8.jpg?v=1596165288,https://cdn.shopify.com/s/files/1/0260/7995/2947/products/W2_e9325e70-d29b-4ba7-a11b-92408842cde9.jpg?v=1596165288,https://cdn.shopify.com/s/files/1/0260/7995/2947/products/W3_0bd414c9-f7b9-4ffa-83aa-1c18a5986afc.jpg?v=1596165288
https://funnytillyoudie.com/products/couple-matching-simpson-family-shorts,Couple Matching - Simpson Family - Shorts,https://cdn.shopify.com/s/files/1/0260/7995/2947/products/ADcouple.jpg?v=1596165278,https://cdn.shopify.com/s/files/1/0260/7995/2947/products/Mockupcouplenguoi.jpg?v=1596165278,https://cdn.shopify.com/s/files/1/0260/7995/2947/products/DemoFront_1937d471-5dc6-43a5-9568-735f6769a6df.jpg?v=1596165279,https://cdn.shopify.com/s/files/1/0260/7995/2947/products/DemoBack_5e864924-d555-4868-81ec-992e73d17247.jpg?v=1596165279,https://cdn.shopify.com/s/files/1/0260/7995/2947/products/WSDemoFront_f214eb39-69fb-4610-b6bd-8812db6ec9f7.jpg?v=1596165279,https://cdn.shopify.com/s/files/1/0260/7995/2947/products/WSDemoBack_dc308eca-f1b8-4b1f-823b-d1f8816b8817.jpg?v=1596165279
https://funnytillyoudie.com/products/couple-matching-togerther-personalized-shorts,Couple Matching - Togerther - Personalized Shorts,https://cdn.shopify.com/s/files/1/0260/7995/2947/products/W1_6934cb5c-a9d6-4247-b96b-084e9fa917c6.jpg?v=1596165266,https://cdn.shopify.com/s/files/1/0260/7995/2947/products/W4_8277fa18-dc1b-4d8c-a311-c926e655249a.jpg?v=1596165266,https://cdn.shopify.com/s/files/1/0260/7995/2947/products/W2_dfd75f8d-a9fb-41c0-b655-499b9324bb72.jpg?v=1596165266,https://cdn.shopify.com/s/files/1/0260/7995/2947/products/W3_8c2c94ad-3f5b-47e5-865f-426bfc300cfe.jpg?v=1596165266
https://funnytillyoudie.com/products/couple-matching-return-to-bae-personalized-shorts,Couple Matching - Return To Bae - Personalized Shorts,https://cdn.shopify.com/s/files/1/0260/7995/2947/products/i1_b9379ef4-c738-4a37-b60f-c5dc96719616.jpg?v=1596165246,https://cdn.shopify.com/s/files/1/0260/7995/2947/products/i3_fa682453-a547-4705-bcbc-9f2ef7f74360.jpg?v=1596165246,https://cdn.shopify.com/s/files/1/0260/7995/2947/products/w4_a0537094-b7b1-467b-921d-22ab354035da.jpg?v=1596165246,https://cdn.shopify.com/s/files/1/0260/7995/2947/products/w3_f8d4ade9-b1da-4b51-ac86-aaca47312166.jpg?v=1596165246
https://funnytillyoudie.com/products/couple-matching-clyde-bonnie-coral-shorts,Couple Matching - Clyde & Bonnie Coral - Shorts,https://cdn.shopify.com/s/files/1/0260/7995/2947/products/W1_a8ea0289-f1b4-45e7-b850-1f725661eacd.jpg?v=1596165234,https://cdn.shopify.com/s/files/1/0260/7995/2947/products/W4_2041fc0b-53a5-4427-b0f7-c4557349b3e6.jpg?v=1596165234,https://cdn.shopify.com/s/files/1/0260/7995/2947/products/W2_1c08a248-6273-4dd7-a1c7-3105f8024bdb.jpg?v=1596165234,https://cdn.shopify.com/s/files/1/0260/7995/2947/products/W3_56a16d57-5305-40fe-b575-71491f2c53b6.jpg?v=1596165234
https://funnytillyoudie.com/products/couple-matching-for-bae-shorts,Couple Matching - For Bae - Shorts,https://cdn.shopify.com/s/files/1/0260/7995/2947/products/W1_fb51ff7d-6d16-4cab-b277-83739fe7c939.jpg?v=1596165224,https://cdn.shopify.com/s/files/1/0260/7995/2947/products/W4_58379111-62ee-4a54-ade3-ddd3ec5cb7f3.jpg?v=1596165224,https://cdn.shopify.com/s/files/1/0260/7995/2947/products/W2_960d55cd-47fa-4b31-922e-0c6521e91278.jpg?v=1596165224,https://cdn.shopify.com/s/files/1/0260/7995/2947/products/W3_cff41ceb-4181-4dfb-9331-20564233a1b1.jpg?v=1596165224
https://funnytillyoudie.com/products/couple-matching-will-be-removed-by-shorts,Couple Matching - Will Be Removed By - Shorts,https://cdn.shopify.com/s/files/1/0260/7995/2947/products/W1_cead6503-6543-4a30-a55d-4e55b207627a.jpg?v=1596165214,https://cdn.shopify.com/s/files/1/0260/7995/2947/products/W4_56d45bb9-61e4-417c-9328-b156b7a8f1cb.jpg?v=1596165214,https://cdn.shopify.com/s/files/1/0260/7995/2947/products/W2_7b62c956-d881-4cfe-94ae-1075d2a7f94f.jpg?v=1596165214,https://cdn.shopify.com/s/files/1/0260/7995/2947/products/W3_2ecf1685-51f9-47a2-a923-8023ab1042da.jpg?v=1596165214
https://funnytillyoudie.com/products/couple-matching-beauty-and-beast-shorts,Couple Matching - Beauty And Beast - Shorts,https://cdn.shopify.com/s/files/1/0260/7995/2947/products/i2_e6750320-0400-4a7b-b481-8a7abca464e6.jpg?v=1596165205,https://cdn.shopify.com/s/files/1/0260/7995/2947/products/I3_2d2c2549-e36f-4295-9eb1-3bc9753acb9f.jpg?v=1596165205,https://cdn.shopify.com/s/files/1/0260/7995/2947/products/W3_f2c1b446-40db-46b1-b382-e748b1b5f092.jpg?v=1596165205,https://cdn.shopify.com/s/files/1/0260/7995/2947/products/W2_26d8a272-4e2d-4954-809e-6f0b4b0d6ede.jpg?v=1596165205
https://funnytillyoudie.com/products/couple-matching-sexy-beast-and-wild-beauty-shorts,Couple Matching - Sexy Beast And Wild Beauty - Shorts,https://cdn.shopify.com/s/files/1/0260/7995/2947/products/w1_79eef26d-4f6a-4013-9853-631f4096f43e.jpg?v=1596165194,https://cdn.shopify.com/s/files/1/0260/7995/2947/products/w4_ff2b8675-18d5-4abb-84a8-3543ae4c25a9.jpg?v=1596165194,https://cdn.shopify.com/s/files/1/0260/7995/2947/products/w3_4ed448cb-a0c4-4fcd-95e2-5a29cb6a2fd3.jpg?v=1596165194,https://cdn.shopify.com/s/files/1/0260/7995/2947/products/w2_c2caa8e8-b845-4b3c-b6b9-74feab3d550b.jpg?v=1596165194
https://funnytillyoudie.com/products/just-surf-it-custom-swim-trunks,Just Surf It - Custom Swim Trunks,https://cdn.shopify.com/s/files/1/0260/7995/2947/products/DEMO-FRONT_15.jpg?v=1595229705,https://cdn.shopify.com/s/files/1/0260/7995/2947/products/MockupNguoi_44.jpg?v=1595229705,https://cdn.shopify.com/s/files/1/0260/7995/2947/products/DEMO-BACK_1.jpg?v=1595229705
https://funnytillyoudie.com/products/dog-president-custom-swim-trunks,Dog President - Custom Swim Trunks,https://cdn.shopify.com/s/files/1/0260/7995/2947/products/DemoFront_31.jpg?v=1595228470,https://cdn.shopify.com/s/files/1/0260/7995/2947/products/Mockupnguoi_43.jpg?v=1595228470
https://funnytillyoudie.com/products/balloon-boxer,Adult Balloon - Hammock Boxers,https://cdn.shopify.com/s/files/1/0260/7995/2947/products/w45_76f06c69-56e8-4739-90be-16c3ab5cc3b5.jpg?v=1595039978,https://cdn.shopify.com/s/files/1/0260/7995/2947/products/w45-5.jpg?v=1595041734,https://cdn.shopify.com/s/files/1/0260/7995/2947/products/w45-1.jpg?v=1595041734,https://cdn.shopify.com/s/files/1/0260/7995/2947/products/w45-3.jpg?v=1595041734,https://cdn.shopify.com/s/files/1/0260/7995/2947/products/w45-4.jpg?v=1595041734
https://funnytillyoudie.com/products/akatsuki-uniform-custom-swim-trunks,Akatsuki uniform - Custom Swim Trunks,https://cdn.shopify.com/s/files/1/0260/7995/2947/products/w31-1.jpg?v=1594710912,https://cdn.shopify.com/s/files/1/0260/7995/2947/products/w31_2.jpg?v=1594710912
https://funnytillyoudie.com/products/pocket-bulldog-custom-swim-trunks,Pocket Bulldog - Custom Swim Trunks,https://cdn.shopify.com/s/files/1/0260/7995/2947/products/DEMO-FRONT_13.jpg?v=1594459815,https://cdn.shopify.com/s/files/1/0260/7995/2947/products/Mockupnguoi_34.jpg?v=1594459815
https://funnytillyoudie.com/products/pocket-pitbull-custom-swim-trunks,Pocket Pitbull - Custom Swim Trunks,https://cdn.shopify.com/s/files/1/0260/7995/2947/products/w26-2.jpg?v=1594459690,https://cdn.shopify.com/s/files/1/0260/7995/2947/products/w26.jpg?v=1594459690
https://funnytillyoudie.com/products/pocket-scottish-fold-custom-swim-trunks,Pocket Scottish Fold - Custom Swim Trunks,https://cdn.shopify.com/s/files/1/0260/7995/2947/products/DemoFront_20.jpg?v=1594623539,https://cdn.shopify.com/s/files/1/0260/7995/2947/products/Mockupnguoi_36.jpg?v=1594623539
https://funnytillyoudie.com/products/i-raise-tiny-dinosaur-custom-swim-trunks,I Raise Tiny Dinosaur - Custom Swim Trunks,https://cdn.shopify.com/s/files/1/0260/7995/2947/products/DemoFront_11.jpg?v=1594365553,https://cdn.shopify.com/s/files/1/0260/7995/2947/products/Mockupnguoi_28.jpg?v=1594365553
https://funnytillyoudie.com/products/no-gender-only-goose-custom-swim-trunks,No Gender - Only Goose - Custom Swim Trunks,https://cdn.shopify.com/s/files/1/0260/7995/2947/products/DEMO-FRONT_9.jpg?v=1594364403,https://cdn.shopify.com/s/files/1/0260/7995/2947/products/Mockupnguoi_25.jpg?v=1594364403
https://funnytillyoudie.com/products/get-out-of-my-bubble-custom-swim-trunks,Get Out Of My Bubble - Custom Swim Trunks,https://cdn.shopify.com/s/files/1/0260/7995/2947/products/DemoFront_9.jpg?v=1594286905,https://cdn.shopify.com/s/files/1/0260/7995/2947/products/Mockupnguoi_24.jpg?v=1594286905
https://funnytillyoudie.com/products/get-out-of-my-c-custom-swim-trunks,Get Out Of My C - Custom Swim Trunks,https://cdn.shopify.com/s/files/1/0260/7995/2947/products/DemoFront_8.jpg?v=1594286714,https://cdn.shopify.com/s/files/1/0260/7995/2947/products/Mockupnguoi_23.jpg?v=1594286714
https://funnytillyoudie.com/products/i-swing-both-ways-custom-swim-trunks,I Swing Both Ways - Custom Swim Trunks,https://cdn.shopify.com/s/files/1/0260/7995/2947/products/DemoFront_7.jpg?v=1594283632,https://cdn.shopify.com/s/files/1/0260/7995/2947/products/Mockupnguoi_22.jpg?v=1594283632
https://funnytillyoudie.com/products/unicorn-pride-lgbt-custom-swim-trunks,Unicorn Pride LGBT - Custom Swim Trunks,https://cdn.shopify.com/s/files/1/0260/7995/2947/products/DEMO-FRONT_8.jpg?v=1594283431,https://cdn.shopify.com/s/files/1/0260/7995/2947/products/Mockupnguoi_21.jpg?v=1594283431
https://funnytillyoudie.com/products/funny-lobster-custom-swim-trunks,Funny Lobster - Custom Swim Trunks,https://cdn.shopify.com/s/files/1/0260/7995/2947/products/DemoFront_4.jpg?v=1594200000,https://cdn.shopify.com/s/files/1/0260/7995/2947/products/Mockupnguoi_19.jpg?v=1594200001
https://funnytillyoudie.com/products/dragon-3-custom-swim-trunks,Dragon 3 - Custom Swim Trunks,https://cdn.shopify.com/s/files/1/0260/7995/2947/products/DemoFront_3.jpg?v=1594199825,https://cdn.shopify.com/s/files/1/0260/7995/2947/products/Mockupnguoi_18.jpg?v=1594199825
https://funnytillyoudie.com/products/lgbt-dinosaur-custom-swim-trunks,LGBT Dinosaur - Custom Swim Trunks,https://cdn.shopify.com/s/files/1/0260/7995/2947/products/LGBTbundle.jpg?v=1594278700,https://cdn.shopify.com/s/files/1/0260/7995/2947/products/BiceratopAD_fcb38b03-1724-4acc-b20b-a70b58cfa2e5.jpg?v=1594278700,https://cdn.shopify.com/s/files/1/0260/7995/2947/products/PanasaurolophusAD_3b89a3e7-577d-4a7c-85bb-1e5403c7b4bb.jpg?v=1594278700,https://cdn.shopify.com/s/files/1/0260/7995/2947/products/StegaysaurusAD_af82e07a-aaf1-41d4-85d0-f3e5c3a82d76.jpg?v=1594278700,https://cdn.shopify.com/s/files/1/0260/7995/2947/products/TranosaurusAD_072c2e1d-4e48-4655-8409-5310c730f938.jpg?v=1594278700,https://cdn.shopify.com/s/files/1/0260/7995/2947/products/DemoFront_5.jpg?v=1594278700,https://cdn.shopify.com/s/files/1/0260/7995/2947/products/DemoFront_6.jpg?v=1594278700
https://funnytillyoudie.com/products/dragon-1-custom-swim-trunks,Dragon 1 - Custom Swim Trunks,https://cdn.shopify.com/s/files/1/0260/7995/2947/products/DemoFront.jpg?v=1594115966,https://cdn.shopify.com/s/files/1/0260/7995/2947/products/Mockupnguoi_15.jpg?v=1594115967
https://funnytillyoudie.com/products/lgbt-dinasaur-custom-swim-trunks,LGBT Dinosaur - Custom Swim Trunks,https://cdn.shopify.com/s/files/1/0260/7995/2947/products/4pic.jpg?v=1594030713,https://cdn.shopify.com/s/files/1/0260/7995/2947/products/PanasaurolophusAD.jpg?v=1594030713,https://cdn.shopify.com/s/files/1/0260/7995/2947/products/StegaysaurusAD.jpg?v=1594030713,https://cdn.shopify.com/s/files/1/0260/7995/2947/products/TranosaurusAD.jpg?v=1594030713,https://cdn.shopify.com/s/files/1/0260/7995/2947/products/BiceratopAD.jpg?v=1594030713
https://funnytillyoudie.com/products/geogre-sloshington-custom-swim-trunks,Geogre Sloshington - Custom Swim Trunks,https://cdn.shopify.com/s/files/1/0260/7995/2947/products/DEMO-Front-GEOGRE.jpg?v=1594019947,https://cdn.shopify.com/s/files/1/0260/7995/2947/products/HumanMockup-GEOGRE.jpg?v=1594019947
https://funnytillyoudie.com/products/abe-drinkin-custom-swim-trunks,Abe Drinkin - Custom Swim Trunks,https://cdn.shopify.com/s/files/1/0260/7995/2947/products/DEMO-Front-ABE.jpg?v=1594019814,https://cdn.shopify.com/s/files/1/0260/7995/2947/products/HumanMockup-ABE.jpg?v=1594019814
https://funnytillyoudie.com/products/ben-drankin-custom-swim-trunks,Ben Drankin - Custom Swim Trunks,https://cdn.shopify.com/s/files/1/0260/7995/2947/products/DEMO-Front-BEN.jpg?v=1594019689,https://cdn.shopify.com/s/files/1/0260/7995/2947/products/HumanMockup-BEN.jpg?v=1594019689
https://funnytillyoudie.com/products/highly-recommened-custom-swim-trunks,Highly recommended - Custom Swim Trunks,https://cdn.shopify.com/s/files/1/0260/7995/2947/products/highlyrecommened.jpg?v=1594017721,https://cdn.shopify.com/s/files/1/0260/7995/2947/products/Mockupnguoi_9.jpg?v=1594017721
https://funnytillyoudie.com/products/stop-staring-at-my-pisa-tower-black-custom-swim-trunks,Stop Staring At My Pisa Tower Black - Custom Swim Trunks,https://cdn.shopify.com/s/files/1/0260/7995/2947/products/Mockup_3f110b14-23a5-49a8-8ba6-5be838676f5e.jpg?v=1593939963,https://cdn.shopify.com/s/files/1/0260/7995/2947/products/AD_6ea9e427-1e18-4856-bcb0-e49e23b5089e.jpg?v=1593939964,https://cdn.shopify.com/s/files/1/0260/7995/2947/products/Mockupnguoi_ee774bb2-a814-4b4f-9c00-ce250824d433.jpg?v=1593939964
https://funnytillyoudie.com/products/stop-staring-at-my-pisa-tower-white-custom-swim-trunks,Stop Staring At My Pisa Tower White - Custom Swim Trunks,https://cdn.shopify.com/s/files/1/0260/7995/2947/products/Mockup_ad62fdf5-648c-49a6-b47c-aa1301db5098.jpg?v=1593939755,https://cdn.shopify.com/s/files/1/0260/7995/2947/products/Mockupnguoi_ff7a723c-89a8-4057-b384-730a4a0b3608.jpg?v=1593939755,https://cdn.shopify.com/s/files/1/0260/7995/2947/products/AD.jpg?v=1593939755
