https://www.familygater.com/products/plh400018-css,Pug Car Sunshade LH400018,https://img.btdmp.com/10116/10116967/products/161553496143cae83f90.png
https://www.familygater.com/products/fav000476-css,FIREMAN - DALMATIAN CAR SUNSHADE AV000476,https://img.btdmp.com/10116/10116967/products/16153646462d5339bd39.png
https://www.familygater.com/products/persian-cat-family-car-sunshade,Persian Cat Family Car Sunshade,https://img.btdmp.com/10116/10116967/products/1608823029e2edd854c6.png
https://www.familygater.com/products/cheetah-and-leopard-safari-car-sunshade,Cheetah And Leopard Safari Car Sunshade,https://img.btdmp.com/10116/10116967/products/1608823029fc24e66eda.png
https://www.familygater.com/products/chihuahua-couple-car-sunshade,Chihuahua Couple Car Sunshade,https://img.btdmp.com/10116/10116967/products/1608823029d6ab524368.png
https://www.familygater.com/products/bernese-mountain-couple-car-sunshade,Bernese Mountain Couple Car Sunshade,https://img.btdmp.com/10116/10116967/products/16088230005ad9117be4.png
https://www.familygater.com/products/pug-eyes-auto-sunshade,Pug Eyes Car Sunshade,https://img.btdmp.com/10116/10116967/products/1608823000c0882ef901.png
https://www.familygater.com/products/boston-terrier-car-sunshade,Boston Terrier Car Sunshade,https://img.btdmp.com/10116/10116967/products/16088229995aa9378c9b.png
https://www.familygater.com/products/lovely-pug-couple-car-sunshade,Lovely Pug Couple Car Sunshade,https://img.btdmp.com/10116/10116967/products/1608822998007a1e6510.png
https://www.familygater.com/products/pomeranian-family-car-sunshade,Pomeranian Family Car Sunshade,https://img.btdmp.com/10116/10116967/products/1608822998d6b5d4cb09.png
https://www.familygater.com/products/english-springer-spaniel-family-car-sunshade,English Springer Spaniel Family Car Sunshade,https://img.btdmp.com/10116/10116967/products/16088229982a5b36556c.png
https://www.familygater.com/products/ragdoll-cat-family-car-sunshade,Ragdoll Cat Family Car Sunshade,https://img.btdmp.com/10116/10116967/products/1608822997fbdc0f6394.png
https://www.familygater.com/products/french-bulldog-family-car-sunshade,French Bulldog Family Car Sunshade,https://img.btdmp.com/10116/10116967/products/160882298649a3e85472.png
https://www.familygater.com/products/donkey-family-car-sunshade,Donkey Family Car Sunshade,https://img.btdmp.com/10116/10116967/products/1608822881f1d583a22e.png
https://www.familygater.com/products/native-arrow-car-sunshade,Native Arrow Car Sunshade,https://img.btdmp.com/10116/10116967/products/16088228817621cec8ca.png
https://www.familygater.com/products/german-shepherd-family-car-sunshade,German Shepherd Family Car Sunshade,https://img.btdmp.com/10116/10116967/products/1608822879ab33fe3d63.png
https://www.familygater.com/products/angus-cattle-car-sunshade,Angus Cattle Car Sunshade,https://img.btdmp.com/10116/10116967/products/160882287361faf422aa.png
https://www.familygater.com/products/cane-corso-family-car-sunshade,Cane Corso Family Car Sunshade,https://img.btdmp.com/10116/10116967/products/1608822873a25f6ed8a9.png
https://www.familygater.com/products/clydesdale-horse-family-car-sunshade,Clydesdale Horse Family Car Sunshade,https://img.btdmp.com/10116/10116967/products/1608822874c3cd4a4eaa.png
https://www.familygater.com/products/hippo-car-sunshade,Hippo Car Sunshade,https://img.btdmp.com/10116/10116967/products/1608822871c989d215b5.png
https://www.familygater.com/products/pitbull-family-car-sunshade,Pitbull Family Car Sunshade,https://img.btdmp.com/10116/10116967/products/1608822860eb42a47e49.png
https://www.familygater.com/products/dolphin-car-sunshade,Dolphin Car Sunshade,https://img.btdmp.com/10116/10116967/products/16088228600b9b14e5ae.png
https://www.familygater.com/products/horse-car-wiper-sunshade,Horse Wiper Car Sunshade,https://img.btdmp.com/10116/10116967/products/16088228576736780e6e.png
https://www.familygater.com/products/husky-couple-car-sunshade,Husky Couple Car Sunshade,https://img.btdmp.com/10116/10116967/products/16088228582a18332fb8.png
https://www.familygater.com/products/husky-family-car-sunshade,Husky Family Car Sunshade,https://img.btdmp.com/10116/10116967/products/16088228581a0269fd95.png
https://www.familygater.com/products/raccoon-independence-day-car-sunshade,Raccoon Independence Day Car Sunshade,https://img.btdmp.com/10116/10116967/products/1608822856c1a030e19d.png
https://www.familygater.com/products/zebra-car-sunshade,Zebra Car Sunshade,https://img.btdmp.com/10116/10116967/products/1608822855a03eb90800.png
https://www.familygater.com/products/labrador-retriever-family-car-sunshade,Labrador Retriever Family Car Sunshade,https://img.btdmp.com/10116/10116967/products/16088228555a016acc5a.png
https://www.familygater.com/products/cool-pug-couple-car-sunshade,Cool Pug Couple Car Sunshade,https://img.btdmp.com/10116/10116967/products/1608822854963a4e354c.png
https://www.familygater.com/products/black-poodle-and-goldendoodle-car-sunshade,Black Poodle And Goldendoodle Car Sunshade,https://img.btdmp.com/10116/10116967/products/160882285482b4405289.png
https://www.familygater.com/products/westie-family-car-sunshade,Westie Family Car Sunshade,https://img.btdmp.com/10116/10116967/products/1608822854ab3487699f.png
https://www.familygater.com/products/highland-cow-car-sunshade,Highland Cow Car Sunshade,https://img.btdmp.com/10116/10116967/products/1608822853639790af86.png
https://www.familygater.com/products/freezing-car-sunshade,Freezing Car Sunshade,https://img.btdmp.com/10116/10116967/products/16088228528791a16f6e.png
https://www.familygater.com/products/husky-puppies-car-sunshade,Husky Puppies Car Sunshade,https://img.btdmp.com/10116/10116967/products/1608822852c320b71c10.png
https://www.familygater.com/products/grumpy-cat-car-sunshade,Grumpy Cat Car Sunshade,https://img.btdmp.com/10116/10116967/products/160882285170fc8c7810.png
https://www.familygater.com/products/polar-bear-family-car-sunshade,Polar Bear Family Car Sunshade,https://img.btdmp.com/10116/10116967/products/1608822852b1d4e4b4a3.png
https://www.familygater.com/products/corgi-family-v4-car-sunshade,Corgi Family v4 Car Sunshade,https://img.btdmp.com/10116/10116967/products/1608822852718d0ecaa4.png
https://www.familygater.com/products/stinky-skunks-car-sunshade,Stinky Skunks Car Sunshade,https://img.btdmp.com/10116/10116967/products/1608822850b72944edf3.png
https://www.familygater.com/products/two-yorkshire-terriers-car-sunshade,Two Yorkshire Terriers Car Sunshade,https://img.btdmp.com/10116/10116967/products/16088228502bb86f99f4.jpeg
https://www.familygater.com/products/border-terrier-car-sunshade,Border Terrier Car Sunshade,https://img.btdmp.com/10116/10116967/products/1608822851a97b5d0882.png
https://www.familygater.com/products/kangaroo-family-car-sunshade,Kangaroo Family Car Sunshade,https://img.btdmp.com/10116/10116967/products/1608822851ae2a5b1ff8.png
https://www.familygater.com/products/miniature-horse-family-car-sunshade,Miniature Horse Family Car Sunshade,https://img.btdmp.com/10116/10116967/products/16088228515b99035d9f.png
https://www.familygater.com/products/border-collie-couple-car-sunshade,Border Collie Couple Car Sunshade,https://img.btdmp.com/10116/10116967/products/1608822849c16fdae259.png
https://www.familygater.com/products/beagle-family-v5-car-sunshade,Beagle Family v5 Car Sunshade,https://img.btdmp.com/10116/10116967/products/1608822850d04a244670.png
https://www.familygater.com/products/boxer-filled-car-sunshade,Boxer Filled Car Sunshade,https://img.btdmp.com/10116/10116967/products/16088228499ecce9d70a.png
https://www.familygater.com/products/deer-couple-car-sunshade,Deer Couple Car Sunshade,https://img.btdmp.com/10116/10116967/products/1608822846c62d0be114.png
https://www.familygater.com/products/bull-terrier-filled-car-sunshade,Bull Terrier Filled Car Sunshade,https://img.btdmp.com/10116/10116967/products/16088228466441ad4533.png
https://www.familygater.com/products/dalmatian-family-car-sunshade,Dalmatian Family Car Sunshade,https://img.btdmp.com/10116/10116967/products/160882284529b910a80a.png
https://www.familygater.com/products/deer-car-sunshade,Deer Car Sunshade,https://img.btdmp.com/10116/10116967/products/16088228432c0426089b.png
https://www.familygater.com/products/border-collie-car-sunshade,Border Collie Car Sunshade,https://img.btdmp.com/10116/10116967/products/16088228422298a84023.png
https://www.familygater.com/products/dachshund-family-v4-car-sunshade,Dachshund Family v4 Car Sunshade,https://img.btdmp.com/10116/10116967/products/160882284351daea8bc7.png
https://www.familygater.com/products/hedgehog-family-car-sunshade,Hedgehog Family Car Sunshade,https://img.btdmp.com/10116/10116967/products/1608822842de6b8987eb.png
https://www.familygater.com/products/pugs-driving-car-sunshade,Pugs Driving Car Sunshade,https://img.btdmp.com/10116/10116967/products/1608822843e3bec20a55.png
https://www.familygater.com/products/goldendoodle-car-sunshade,Goldendoodle Car Sunshade,https://img.btdmp.com/10116/10116967/products/16088228427432e51480.png
https://www.familygater.com/products/american-saddlebred-family-car-sunshade,American Saddlebred Family Car Sunshade,https://img.btdmp.com/10116/10116967/products/160882284279f26b7c32.png
https://www.familygater.com/products/gray-wolf-family-car-sunshade,Gray Wolf Family Car Sunshade,https://img.btdmp.com/10116/10116967/products/1608822842e47d8c2b69.png
https://www.familygater.com/products/pig-family-car-sunshade,Pig Family Car Sunshade,https://img.btdmp.com/10116/10116967/products/160882284102d26ac5ba.png
https://www.familygater.com/products/poodle-family-v2-car-sunshade,Poodle Family v2 Car Sunshade,https://img.btdmp.com/10116/10116967/products/1608822836669dc7ba8f.png
https://www.familygater.com/products/corgi-family-car-sunshade,Corgi Family Car Sunshade,https://img.btdmp.com/10116/10116967/products/1608822836a6227904d1.png
https://www.familygater.com/products/duck-and-goose-car-sunshade,Duck And Goose Car Sunshade,https://img.btdmp.com/10116/10116967/products/1608822836033ceaff7d.png
https://www.familygater.com/products/beagle-family-car-sunshade,Beagle Family Car Sunshade,https://img.btdmp.com/10116/10116967/products/1608822834dbedf41e5f.png
https://www.familygater.com/products/yorkshire-terrier-family-car-sunshade,Yorkshire Terrier Family Car Sunshade,https://img.btdmp.com/10116/10116967/products/1608822835a765bf4445.png
https://www.familygater.com/products/dachshund-couple-car-sunshade,Dachshund Couple Car Sunshade,https://img.btdmp.com/10116/10116967/products/1608822834321433b2e8.png
https://www.familygater.com/products/python-car-sunshade,Python Car Sunshade,https://img.btdmp.com/10116/10116967/products/1608822833b29e856eb3.png
https://www.familygater.com/products/poodle-ready-for-summer-vacation-car-sunshade,Poodle Ready For Summer Vacation Car Sunshade,https://img.btdmp.com/10116/10116967/products/16088228330a89e3041a.png
https://www.familygater.com/products/highland-cattle-family-car-sunshade,Highland Cattle Family Car Sunshade,https://img.btdmp.com/10116/10116967/products/16088228327b2b7475d0.png
https://www.familygater.com/products/goldendoodle-family-car-sunshade,Goldendoodle Family Car Sunshade,https://img.btdmp.com/10116/10116967/products/160882283202a67d4962.png
https://www.familygater.com/products/horse-couple-car-sunshade,Horse Couple Car Sunshade,https://img.btdmp.com/10116/10116967/products/16088228316874591b5f.png
https://www.familygater.com/products/jack-russell-family-car-sunshade,Jack Russell Family Car Sunshade,https://img.btdmp.com/10116/10116967/products/16088228301294835ec1.png
https://www.familygater.com/products/t-rex-couple-car-sunshade,T-Rex Couple Car Sunshade,https://img.btdmp.com/10116/10116967/products/160882282930c4efaa29.png
https://www.familygater.com/products/charolais-family-car-sunshade,Charolais Family Car Sunshade,https://img.btdmp.com/10116/10116967/products/1608822819f86863aa91.png
https://www.familygater.com/products/otters-custom-car-sunshade,Otters Custom Car Sunshade,https://img.btdmp.com/10116/10116967/products/1608822819786f11c500.png
https://www.familygater.com/products/boder-collie-family-v3-car-sunshade,Border Collie Family v3 Car Sunshade,https://img.btdmp.com/10116/10116967/products/16088228191652fac375.png
https://www.familygater.com/products/loving-pugs-driving-car-sunshade,Loving Pugs Driving Car Sunshade,https://img.btdmp.com/10116/10116967/products/1608822817f995ec4ca0.png
https://www.familygater.com/products/husky-puppies-grown-up-car-sunshade,Husky Puppies Grown Up Car Sunshade,https://img.btdmp.com/10116/10116967/products/16088228172788dbce22.png
https://www.familygater.com/products/cocker-spaniel-car-sunshade,Cocker Spaniel Car Sunshade,https://img.btdmp.com/10116/10116967/products/16088228168bb814873d.png
https://www.familygater.com/products/bison-driving-car-sunshade,Bison Driving Car Sunshade,https://img.btdmp.com/10116/10116967/products/1608822816f4cf543b32.png
https://www.familygater.com/products/cat-filled-car-sunshade,Cat Filled Car Sunshade,https://img.btdmp.com/10116/10116967/products/1608822814fcf3aeca19.png
https://www.familygater.com/products/koala-family-car-sunshade,Koala Family Car Sunshade,https://img.btdmp.com/10116/10116967/products/16088228152b399294f3.png
https://www.familygater.com/products/husky-big-family-car-sunshade,Husky Big Family Car Sunshade,https://img.btdmp.com/10116/10116967/products/1608822814b371924612.jpeg
https://www.familygater.com/products/cane-corso-couple-car-sunshade,Cane Corso Couple Car Sunshade,https://img.btdmp.com/10116/10116967/products/1608822815b36064f2cc.png
https://www.familygater.com/products/lion-family-car-sunshade,Lion Family Car Sunshade,https://img.btdmp.com/10116/10116967/products/1608822813a711539859.png
https://www.familygater.com/products/angus-family-car-sunshade,Angus Family Car Sunshade,https://img.btdmp.com/10116/10116967/products/160882281333e2c0c560.png
https://www.familygater.com/products/golden-retriever-v4-car-sunshade,Golden Retriever v4 Car Sunshade,https://img.btdmp.com/10116/10116967/products/1608822813eeeda64adb.png
https://www.familygater.com/products/dragon-car-sunshade,Dragon Car Sunshade,https://img.btdmp.com/10116/10116967/products/160882281489b7244cf7.png
https://www.familygater.com/products/we-bare-bears-car-sunshade,We Bare Bears Car Sunshade,https://img.btdmp.com/10116/10116967/products/1608822812d9925911a5.png
https://www.familygater.com/products/ferret-big-family-car-sunshade,Ferret Big Family Car Sunshade,https://img.btdmp.com/10116/10116967/products/160882281238c2c6e706.png
https://www.familygater.com/products/fjord-horse-family-car-sunshade,Fjord Horse Family Car Sunshade,https://img.btdmp.com/10116/10116967/products/1608822811d9370015b7.png
https://www.familygater.com/products/chihuahua-family-v3-car-sunshade,Chihuahua Family v3 Car Sunshade,https://img.btdmp.com/10116/10116967/products/1608822811e348a70052.png
https://www.familygater.com/products/bernese-couple-car-sunshade,Bernese Couple Car Sunshade,https://img.btdmp.com/10116/10116967/products/160882281096910f33c6.png
https://www.familygater.com/products/native-pattern-car-sunshade,Native Pattern Car Sunshade,https://img.btdmp.com/10116/10116967/products/160882281156a0ef3d8f.png
https://www.familygater.com/products/bengal-cat-car-sunshade-2,Bengal Cat Car Sunshade,https://img.btdmp.com/10116/10116967/products/1608822809e544393a73.png
https://www.familygater.com/products/bernese-mountain-family-car-sunshade,Bernese Mountain Family Car Sunshade,https://img.btdmp.com/10116/10116967/products/1608822810e5818ed8d2.png
https://www.familygater.com/products/maltese-family-car-sunshade,Maltese Family Car Sunshade,https://img.btdmp.com/10116/10116967/products/1608822810cda3e73546.png
https://www.familygater.com/products/yorkie-family-car-sunshade,Yorkie Family Car Sunshade,https://img.btdmp.com/10116/10116967/products/1608822809991f72c3a7.png
https://www.familygater.com/products/couple-french-bulldog-car-sunshade,Couple French Bulldog Car Sunshade,https://img.btdmp.com/10116/10116967/products/160882280962bb68cbac.png
https://www.familygater.com/products/two-black-beach-bulldog-car-sunshade,Two Black Beach Bulldog Car Sunshade,https://img.btdmp.com/10116/10116967/products/1608822808a6b42e61f8.png
https://www.familygater.com/products/french-bulldog-big-family-car-sunshade,French Bulldog Big Family Car Sunshade,https://img.btdmp.com/10116/10116967/products/160882280756851eb09f.png
https://www.familygater.com/products/cocker-spaniel-couple-car-sunshade,Cocker Spaniel Couple Car Sunshade,https://img.btdmp.com/10116/10116967/products/16088228068fbd1557be.jpeg
https://www.familygater.com/products/camel-car-sunshade,Camel Car Sunshade,https://img.btdmp.com/10116/10116967/products/1608822804863817c55b.png
https://www.familygater.com/products/heeler-family-car-sunshade,Heeler Family Car Sunshade,https://img.btdmp.com/10116/10116967/products/16088228051a58b8895d.png
https://www.familygater.com/products/driving-car-german-shepherd-car-sunshade,Driving Car – German Shepherd – Car Sunshade,https://img.btdmp.com/10116/10116967/products/160882280511e9e2816e.png
https://www.familygater.com/products/dalmatian-dog-family-car-sunshade,Dalmatian Dog Family Car Sunshade,https://img.btdmp.com/10116/10116967/products/1608822804279bac2564.png
https://www.familygater.com/products/black-cat-couple-car-sunshade,Black Cat Couple Car Sunshade,https://img.btdmp.com/10116/10116967/products/16088228026a4e3a4c1d.png
https://www.familygater.com/products/french-bulldog-family-driving-car-sunshade,French Bulldog Family Driving Car Sunshade,https://img.btdmp.com/10116/10116967/products/16088228024cdc15fcfc.png
https://www.familygater.com/products/golden-retriever-family-v3-car-sunshade,Golden Retriever Family v3 Car Sunshade,https://img.btdmp.com/10116/10116967/products/1608822802007eb54875.png
https://www.familygater.com/products/dogs-filled-car-auto-sunshade,Dogs Filled Car Sunshade,https://img.btdmp.com/10116/10116967/products/1608822802751dada77f.png
https://www.familygater.com/products/corgi-family-v3-car-sunshade,Corgi Family v3 Car Sunshade,https://img.btdmp.com/10116/10116967/products/16088228029bee1fe03f.png
https://www.familygater.com/products/chicken-sunshade,Chicken Car Sunshade,https://img.btdmp.com/10116/10116967/products/1608822800fa0356aed4.png
https://www.familygater.com/products/gorilla-family-car-sunshade,Gorilla Family Car Sunshade,https://img.btdmp.com/10116/10116967/products/16088228017516277879.png
https://www.familygater.com/products/ferret-car-sunshade,Ferret Car Sunshade,https://img.btdmp.com/10116/10116967/products/160882280063ab5ea0f9.png
https://www.familygater.com/products/maine-coon-family-v2-car-sunshade,Maine Coon Family v2 Car Sunshade,https://img.btdmp.com/10116/10116967/products/160882280016aa88ef11.png
https://www.familygater.com/products/boston-terrier-family-car-sunshade,Boston Terrier Family Car Sunshade,https://img.btdmp.com/10116/10116967/products/1608822799439dfb5f5a.png
https://www.familygater.com/products/grizzly-bears-car-sunshade,Grizzly Bears Car Sunshade,https://img.btdmp.com/10116/10116967/products/160882279810a7a7df04.png
https://www.familygater.com/products/corgi-couple-car-sunshade,Corgi Couple Car Sunshade,https://img.btdmp.com/10116/10116967/products/16088227986895c107f2.png
https://www.familygater.com/products/lion-couple-car-sunshade,Lion Couple Car Sunshade,https://img.btdmp.com/10116/10116967/products/16088227950ecc42ea85.png
https://www.familygater.com/products/pug-family-car-sunshade,Pug Family Car Sunshade,https://img.btdmp.com/10116/10116967/products/1608822796697d11c0cb.png
https://www.familygater.com/products/french-bulldog-driving-car-sunshade,French Bulldog Driving Car Sunshade,https://img.btdmp.com/10116/10116967/products/160882279555a5b3acbd.png
https://www.familygater.com/products/golden-car-sunshade,Golden Car Sunshade,https://img.btdmp.com/10116/10116967/products/1608822795fc5eadbff9.png
https://www.familygater.com/products/bee-driving-car-sunshade,Bee Driving Car Sunshade,https://img.btdmp.com/10116/10116967/products/16088227967ce4f88420.png
https://www.familygater.com/products/basset-hound-family-car-sunshade,Basset Hound Family Car Sunshade,https://img.btdmp.com/10116/10116967/products/1608822796bf62f7a0c2.png
https://www.familygater.com/products/hippie-girl-car-sunshade,Hippie Girl Car Sunshade,https://img.btdmp.com/10116/10116967/products/16088227944d0b9c8d75.png
https://www.familygater.com/products/cute-penguin-family-car-sunshade,Cute Penguin Family Car Sunshade,https://img.btdmp.com/10116/10116967/products/160882279431b8483450.png
https://www.familygater.com/products/ragdoll-car-sunshade,Ragdoll Car Sunshade,https://img.btdmp.com/10116/10116967/products/16088227948d3475ee8f.png
https://www.familygater.com/products/gypsy-horse-family-car-sunshade,Gypsy Horse Family Car Sunshade,https://img.btdmp.com/10116/10116967/products/1608822794c96dab16f0.png
https://www.familygater.com/products/koala-car-sunshade,Koala Car Sunshade,https://img.btdmp.com/10116/10116967/products/16088227935dd953216c.png
https://www.familygater.com/products/basset-hound-family-v2-car-sunshade,Basset Hound Family v2 Car Sunshade,https://img.btdmp.com/10116/10116967/products/1608822792a645e979b0.png
https://www.familygater.com/products/greyhound-family-car-sunshade,Greyhound Family Car Sunshade,https://img.btdmp.com/10116/10116967/products/1608822793fbfaa5bdcc.png
https://www.familygater.com/products/bristish-shorthair-family-car-sunshade,Bristish Shorthair Cat Family Car Sunshade,https://img.btdmp.com/10116/10116967/products/1608822792f7568f8d05.png
https://www.familygater.com/products/fox-couple-car-sunshade,Fox Couple Car Sunshade,https://img.btdmp.com/10116/10116967/products/160882279261f9477b1e.png
https://www.familygater.com/products/velociraptor-car-sunshade,Velociraptor Car Sunshade,https://img.btdmp.com/10116/10116967/products/1608822791ad25be7669.png
https://www.familygater.com/products/us-doberman-couple-car-sunshade,US Doberman Couple Car Sunshade,https://img.btdmp.com/10116/10116967/products/1608822791b69ba5bab7.png
https://www.familygater.com/products/newfoundland-family-v2-car-sunshade,Newfoundland Family v2 Car Sunshade,https://img.btdmp.com/10116/10116967/products/1608822791d7f3d4b745.png
https://www.familygater.com/products/bengal-cat-family-car-sunshade,Bengal Cat Family Car Sunshade,https://img.btdmp.com/10116/10116967/products/16088227905c745227f2.png
https://www.familygater.com/products/cattle-couple-car-sunshade-2,Cattle Couple Car Sunshade,https://img.btdmp.com/10116/10116967/products/1608822790880a929775.jpeg
https://www.familygater.com/products/cow-car-wiper-sunshade,Cow Wipe Car Sunshade,https://img.btdmp.com/10116/10116967/products/1608822790e2b12e3233.png
https://www.familygater.com/products/dalmatian-car-sunshade,Dalmatian Car Sunshade,https://img.btdmp.com/10116/10116967/products/160882279058232545e1.png
https://www.familygater.com/products/cow-big-face-car-sunshade,Cow Big Face Car Sunshade,https://img.btdmp.com/10116/10116967/products/160882278978dddab469.png
https://www.familygater.com/products/english-bulldog-family-car-sunshade,English Bulldog Family Car Sunshade,https://img.btdmp.com/10116/10116967/products/160882278918d0a7c262.png
https://www.familygater.com/products/bull-terrier-family-driving-car-sunshade,Bull Terrier Family Driving Car Sunshade,https://img.btdmp.com/10116/10116967/products/16088227885e19586518.png
https://www.familygater.com/products/corgi-car-sunshade,Corgi Car Sunshade,https://img.btdmp.com/10116/10116967/products/160882278751bd8d3f37.png
https://www.familygater.com/products/customize-car-sunshade-with-your-pet-photo,Customize With Your Pet Photo Car Sunshade,https://img.btdmp.com/10116/10116967/products/16088227867b10b173f3.jpeg
https://www.familygater.com/products/alpaca-family-car-sunshade,Alpaca Family Car Sunshade,https://img.btdmp.com/10116/10116967/products/16088227864794a31c08.png
https://www.familygater.com/products/pig-couple-car-sunshade,Pig Couple Car Sunshade,https://img.btdmp.com/10116/10116967/products/1608822786e471735af7.png
https://www.familygater.com/products/two-dachshund-car-sunshade,Two Dachshund Car Sunshade,https://img.btdmp.com/10116/10116967/products/16088227854744b44f8f.jpeg
https://www.familygater.com/products/bichon-frise-family-v2-car-sunshade,Bichon Frise Family v2 Car Sunshade,https://img.btdmp.com/10116/10116967/products/16088227868bcb6d27c1.png
https://www.familygater.com/products/bald-eagle-car-auto-sunshade,Bald Eagle Car Auto Sunshade,https://img.btdmp.com/10116/10116967/products/1608822784d72bd9d3f6.png
https://www.familygater.com/products/llama-and-alpaca-car-auto-sunshade,Llama And Alpaca Car Sunshade,https://img.btdmp.com/10116/10116967/products/160882278419d9b63660.png
https://www.familygater.com/products/boston-terrier-filled-car-sunshade,Boston Terrier Filled Car Sunshade,https://img.btdmp.com/10116/10116967/products/1608822784744c39603c.png
https://www.familygater.com/products/panda-family-car-sunshade,Panda Family Car Sunshade,https://img.btdmp.com/10116/10116967/products/16088227845b9f677cbd.png
https://www.familygater.com/products/bengal-cat-car-sunshade,Bengal Cat Car Sunshade,https://img.btdmp.com/10116/10116967/products/160882278270ae150cbf.png
https://www.familygater.com/products/sloth-family-car-sunshade,Sloth Family Car Sunshade,https://img.btdmp.com/10116/10116967/products/1608822782ee3ac2a5a2.png
https://www.familygater.com/products/dachshund-family-v3-car-sunshade,Dachshund Family v3 Car Sunshade,https://img.btdmp.com/10116/10116967/products/1608822783e94ff50c17.png
https://www.familygater.com/products/adorable-couple-corgi-dogs-car-sunshade,Adorable Couple Corgi Dogs Car Sunshade,https://img.btdmp.com/10116/10116967/products/160882278113b16e9cd8.png
https://www.familygater.com/products/detective-doberman-pinscher-auto-sunshade,Detective Doberman Pinscher Car Sunshade,https://img.btdmp.com/10116/10116967/products/1608822782ce3fc61d07.png
https://www.familygater.com/products/chicken-car-sunshade,Chicken Car Sunshade,https://img.btdmp.com/10116/10116967/products/1608822780f55f12e456.png
https://www.familygater.com/products/cheetah-leopard-car-sunshade,Cheetah And Leopard Car Sunshade,https://img.btdmp.com/10116/10116967/products/1608822779fefeb18824.png
https://www.familygater.com/products/dachshund-car-sunshade,Dachshund Car Sunshade,https://img.btdmp.com/10116/10116967/products/1608822779e014df9c3f.png
https://www.familygater.com/products/horse-car-sunshade,Horse Car sunshade,https://img.btdmp.com/10116/10116967/products/1608822779733e630feb.png
https://www.familygater.com/products/crazy-cat-car-sunshade,Crazy Cat Car Sunshade,https://img.btdmp.com/10116/10116967/products/160882277900545f1509.png
https://www.familygater.com/products/cool-boston-terrier-car-sunshade,Cool Boston Terrier Car Sunshade,https://img.btdmp.com/10116/10116967/products/1608822779d746848598.png
https://www.familygater.com/products/black-cat-driving-car-sunshade,Black Cat Driving Car Sunshade,https://img.btdmp.com/10116/10116967/products/1608822779afe688da90.png
https://www.familygater.com/products/yorkie-car-sunshade,Yorkie Car Sunshade,https://img.btdmp.com/10116/10116967/products/1608822778efe314e348.png
https://www.familygater.com/products/cool-horse-couple-car-sunshade,Cool Horse Couple Car Sunshade,https://img.btdmp.com/10116/10116967/products/16088227779f3b954753.png
https://www.familygater.com/products/basset-hound-couple-car-sunshade,Basset Hound Couple Car Sunshade,https://img.btdmp.com/10116/10116967/products/16088227779ae51cb997.png
https://www.familygater.com/products/poodle-couple-car-sunshade,Poodle Couple Car Sunshade,https://img.btdmp.com/10116/10116967/products/1608822777206d1418a6.png
https://www.familygater.com/products/heifer-car-sunshade,Heifer Car Sunshade,https://img.btdmp.com/10116/10116967/products/160882277740bcdc1bfc.png
https://www.familygater.com/products/yorkshire-car-sunshade,Yorkshire Car Sunshade,https://img.btdmp.com/10116/10116967/products/16088227776ee25feac9.png
https://www.familygater.com/products/elephant-couple-car-sunshade,Elephant Couple Car Sunshade,https://img.btdmp.com/10116/10116967/products/1608822776ec6796fd02.png
https://www.familygater.com/products/great-dane-dog-car-sunshade,Great Dane Dog Car Sunshade,https://img.btdmp.com/10116/10116967/products/1608822775a99dbf447a.png
https://www.familygater.com/products/greyhound-couple-car-sunshade,Greyhound Couple Car Sunshade,https://img.btdmp.com/10116/10116967/products/16088227750c4fcd6cc0.png
https://www.familygater.com/products/dachshund-car-wiper-sunshade,Dachshund Wiper Car Sunshade,https://img.btdmp.com/10116/10116967/products/16088227759140dcf78f.png
https://www.familygater.com/products/chihuahua-filled-car-sunshade,Chihuahua Filled Car Sunshade,https://img.btdmp.com/10116/10116967/products/16088227745291da40ca.png
https://www.familygater.com/products/cute-turtles-car-sunshade,Cute Turtles Car Sunshade,https://img.btdmp.com/10116/10116967/products/160882277383f2b03c94.png
https://www.familygater.com/products/lovely-pitbull-couple-car-sunshade,Lovely Pitbull Couple Car Sunshade,https://img.btdmp.com/10116/10116967/products/1608822772c7b9e42352.png
https://www.familygater.com/products/penguin-family-car-sunshade,Penguin Family Car Sunshade,https://img.btdmp.com/10116/10116967/products/1608822773e63795cb0a.png
https://www.familygater.com/products/moose-couple-car-sunshade,Moose Couple Car Sunshade,https://img.btdmp.com/10116/10116967/products/1608822772a0958bf4c0.png
https://www.familygater.com/products/pit-bull-car-sunshade,Pit Bull Car Sunshade,https://img.btdmp.com/10116/10116967/products/1608822771aa70b0b74a.png
https://www.familygater.com/products/3d-golden-retrievers-family-dog-custom-car-auto-sunshade,3D Golden Retrievers Family Dog Custom Car Sunshade,https://img.btdmp.com/10116/10116967/products/160882277053b7742951.png
https://www.familygater.com/products/labrador-family-car-sunshade,Labrador Family Car Sunshade,https://img.btdmp.com/10116/10116967/products/16088227709df03958b2.jpeg
https://www.familygater.com/products/beagle-family-v2-car-sunshade,Beagle Family v2 Car Sunshade,https://img.btdmp.com/10116/10116967/products/1608822769f54b7af2bd.png
https://www.familygater.com/products/great-dane-couple-car-sunshade,Great Dane Couple Car Sunshade,https://img.btdmp.com/10116/10116967/products/1608822768c3b2a3fcec.png
https://www.familygater.com/products/cat-impression-car-sunshade,Cat Impression Car Sunshade,https://img.btdmp.com/10116/10116967/products/1608822768e67ddf6b6b.png
https://www.familygater.com/products/dogue-de-bordeaux-family-car-sunshade,Dogue De Bordeaux Family Car Sunshade,https://img.btdmp.com/10116/10116967/products/160882276848e2170d10.png
https://www.familygater.com/products/bullmastiff-family-car-sunshade,Bullmastiff Family Car Sunshade,https://img.btdmp.com/10116/10116967/products/16088227679236c6b4b4.png
https://www.familygater.com/products/american-shorthair-family-car-sunshade,American Shorthair Cat Family Car Sunshade,https://img.btdmp.com/10116/10116967/products/1608822767dc0150177e.png
https://www.familygater.com/products/3-boxers-car-sunshade,3-Boxers Car Sunshade,https://img.btdmp.com/10116/10116967/products/160882275631a168a911.png
https://www.familygater.com/products/cavalier-king-charles-spaniel-car-sunshade,Cavalier King Charles Spaniel Car Sunshade,https://img.btdmp.com/10116/10116967/products/16088227567c85b434e2.png
https://www.familygater.com/products/holstein-friesian-family-car-sunshade,Holstein Friesian Family Car Sunshade,https://img.btdmp.com/10116/10116967/products/16088227541539c27ef4.png
https://www.familygater.com/products/samoyed-couple-car-sunshade,Samoyed Couple Car Sunshade,https://img.btdmp.com/10116/10116967/products/1608822754163847937b.png
https://www.familygater.com/products/bull-terrier-family-car-sunshade,Bull Terrier Family Car Sunshade,https://img.btdmp.com/10116/10116967/products/1608822754daad55c309.png
https://www.familygater.com/products/elk-couple-car-sunshade,Elk Couple Car Sunshade,https://img.btdmp.com/10116/10116967/products/16088227535771764f9f.png
https://www.familygater.com/products/jersey-cattle-family-car-sunshade,Jersey Cattle Family Car Sunshade,https://img.btdmp.com/10116/10116967/products/160882275341b2d38b93.png
https://www.familygater.com/products/pug-dog-family-car-sunshade,Pug Dog Family Car Sunshade,https://img.btdmp.com/10116/10116967/products/16088227525ff3dafbc7.png
https://www.familygater.com/products/corgi-family-v2-car-sunshade,Corgi Family v2 Car Sunshade,https://img.btdmp.com/10116/10116967/products/1608822753851522b141.png
https://www.familygater.com/products/english-springer-spaniel-dog-family-car-sunshade,English Springer Spaniel Dog Family Car Sunshade,https://img.btdmp.com/10116/10116967/products/16088227527ff8284514.png
https://www.familygater.com/products/t-rex-car-sunshade,T-Rex Car Sunshade,https://img.btdmp.com/10116/10116967/products/16088227521527daf971.png
https://www.familygater.com/products/proud-to-be-a-native-american-car-sunshade,Proud To Be A Native American Car Sunshade,https://img.btdmp.com/10116/10116967/products/160882275143155960ef.png
https://www.familygater.com/products/chihuahua-family-v2-car-sunshade,Chihuahua Family v2 Car Sunshade,https://img.btdmp.com/10116/10116967/products/1608822751111a2e9ce5.png
https://www.familygater.com/products/bull-terrier-couple-car-sunshade,Bull Terrier Couple Car Sunshade,https://img.btdmp.com/10116/10116967/products/16088227517519ac9d77.jpeg
https://www.familygater.com/products/jack-russell-couple-car-sunshade,Jack Russell Couple Car Sunshade,https://img.btdmp.com/10116/10116967/products/160882275238a5b09175.png
https://www.familygater.com/products/bichon-frise-family-car-sunshade,Bichon Frise Family Car Sunshade,https://img.btdmp.com/10116/10116967/products/1608822751bd1b2b7da2.png
https://www.familygater.com/products/basset-hound-family-v3-car-sunshade,Basset Hound Family v3 Car Sunshade,https://img.btdmp.com/10116/10116967/products/16088227498f2c20fc23.png
https://www.familygater.com/products/german-shepherd-car-sunshade,German Shepherd Car Sunshade,https://img.btdmp.com/10116/10116967/products/16088227482d195551e4.png
https://www.familygater.com/products/exotic-shorthair-family-car-sunshade,Exotic Shorthair Family Car Sunshade,https://img.btdmp.com/10116/10116967/products/16088227489171caff56.png
https://www.familygater.com/products/maine-coon-car-sunshade,Maine Coon Car Sunshade,https://img.btdmp.com/10116/10116967/products/1608822749aeacad188f.png
https://www.familygater.com/products/bernese-mountain-family-v2-car-sunshade,Bernese Mountain Family v2 Car Sunshade,https://img.btdmp.com/10116/10116967/products/160882274852e1a03a20.png
https://www.familygater.com/products/yellow-labrador-retriever-astronaut-car-sunshade,Yellow Labrador Retriever Astronaut Car Sunshade,https://img.btdmp.com/10116/10116967/products/1608822748820eb90f96.png
https://www.familygater.com/products/golden-retriever-family-v2-car-sunshade,Golden Retriever Family v2 Car Sunshade,https://img.btdmp.com/10116/10116967/products/1608822746adda1eee46.png
https://www.familygater.com/products/cattle-family-car-sunshade,Cattle Family Car Sunshade,https://img.btdmp.com/10116/10116967/products/16088227444ca2bb9878.png
https://www.familygater.com/products/pit-bull-couple-car-sunshade,Pit Bull Couple Car Sunshade,https://img.btdmp.com/10116/10116967/products/1608822743b920f0c30f.png
https://www.familygater.com/products/prisoner-and-police-french-bulldog-custom-car-auto-sunshade,Prisoner And Police French Bulldog Custom Car Sunshade,https://img.btdmp.com/10116/10116967/products/16088227432bc2f7b02d.png
https://www.familygater.com/products/cattle-couple-car-sunshade,Cattle Couple Car Sunshade,https://img.btdmp.com/10116/10116967/products/1608822743c9d05c19b8.png
https://www.familygater.com/products/beagle-family-v4-car-sunshade,Beagle Family v4 Car Sunshade,https://img.btdmp.com/10116/10116967/products/160882274344dc10fba1.png
https://www.familygater.com/products/native-pattern-hpv01-car-sunshade,Native Pattern HPV01 Car Sunshade,https://img.btdmp.com/10116/10116967/products/1608822742ac4fd4f5f9.png
https://www.familygater.com/products/alaska-malamute-family-car-sunshade,Alaska Malamute Family Car Sunshade,https://img.btdmp.com/10116/10116967/products/16088227427565719d9e.png
https://www.familygater.com/products/german-shorthaired-pointer-car-sunshade,German Shorthaired Pointer Car Sunshade,https://img.btdmp.com/10116/10116967/products/16088227423a8f326e95.png
https://www.familygater.com/products/beagle-couple-car-sunshade,Beagle Couple Car Sunshade,https://img.btdmp.com/10116/10116967/products/1608822740dee49100e9.png
https://www.familygater.com/products/german-shepherd-couple-car-sunshade,German Shepherd Couple Car Sunshade,https://img.btdmp.com/10116/10116967/products/1608822740ef86521c12.png
https://www.familygater.com/products/miniature-pinscher-family-car-sunshade,Miniature Pinscher Family Car Sunshade,https://img.btdmp.com/10116/10116967/products/16088227394b94636e2c.png
https://www.familygater.com/products/heeler-couple-car-sunshade,Heeler Couple Car Sunshade,https://img.btdmp.com/10116/10116967/products/16088227398d5a4ff2b9.png
https://www.familygater.com/products/dragon-family-car-sunshade,Dragon Family Car Sunshade,https://img.btdmp.com/10116/10116967/products/16088227396780234cb6.png
https://www.familygater.com/products/bulldog-family-car-sunshade,Bulldog Family Car Sunshade,https://img.btdmp.com/10116/10116967/products/1608822738dd23634eea.png
https://www.familygater.com/products/american-cocker-spaniel-couple-car-sunshade,American Cocker Spaniel Couple Car Sunshade,https://img.btdmp.com/10116/10116967/products/160882273805252c7440.jpeg
https://www.familygater.com/products/orangutan-family-car-sunshade,Orangutan Family Car Sunshade,https://img.btdmp.com/10116/10116967/products/1608822738391e05598f.png
https://www.familygater.com/products/donkey-car-sunshade,Donkey Car Sunshade,https://img.btdmp.com/10116/10116967/products/1608822738180f417cea.png
https://www.familygater.com/products/lovely-bulldog-couple-car-sunshade,Lovely Bulldog Couple Car Sunshade,https://img.btdmp.com/10116/10116967/products/1608822737ac500d4916.png
https://www.familygater.com/products/papillon-family-car-sunshade,Papillon Family Car Sunshade,https://img.btdmp.com/10116/10116967/products/1608822736324d72281a.png
https://www.familygater.com/products/lion-tiger-car-sunshade,Lion & Tiger Car Sunshade,https://img.btdmp.com/10116/10116967/products/16088227375823b84d01.png
https://www.familygater.com/products/yellow-labrador-couple-car-sunshade,Yellow Labrador Couple Car Sunshade,https://img.btdmp.com/10116/10116967/products/160882273754e676b677.png
https://www.familygater.com/products/hereford-family-car-sunshade,Hereford Family Car Sunshade,https://img.btdmp.com/10116/10116967/products/16088227369ad16519ce.png
https://www.familygater.com/products/golden-retriever-picnic-time-car-sunshade,Golden Retriever Picnic Time Car Sunshade,https://img.btdmp.com/10116/10116967/products/160882273587c18dc206.png
https://www.familygater.com/products/border-collie-family-car-sunshade,Border Collie Family Car Sunshade,https://img.btdmp.com/10116/10116967/products/160882273671e70fbc05.png
https://www.familygater.com/products/hummingbird-car-sunshade,Hummingbird Car Sunshade,https://img.btdmp.com/10116/10116967/products/1608822735199570ba0c.png
https://www.familygater.com/products/brangus-family-car-sunshade,Brangus Family Car Sunshade,https://img.btdmp.com/10116/10116967/products/16088227340fb044fe49.png
https://www.familygater.com/products/farmer-horse-car-sunshade,Farmer Horse Car Sunshade,https://img.btdmp.com/10116/10116967/products/16088227358f8e344e6f.png
https://www.familygater.com/products/french-bulldog-family-hpv03-car-sunshade,French Bulldog Family HPV03 Car Sunshade,https://img.btdmp.com/10116/10116967/products/1608822735b3fda3e3af.png
https://www.familygater.com/products/beefmaster-family-car-sunshade,Beefmaster Family Car Sunshade,https://img.btdmp.com/10116/10116967/products/16088227331db4797c8d.png
https://www.familygater.com/products/ferret-family-car-sunshade,Ferret Family Car Sunshade,https://img.btdmp.com/10116/10116967/products/1608822733bcdfd1eacd.png
https://www.familygater.com/products/chow-chow-family-car-sunshade,Chow Chow Family Car Sunshade,https://img.btdmp.com/10116/10116967/products/16088227338181f6e36e.png
https://www.familygater.com/products/pitbull-dog-family-car-sunshade,Pitbull Dog Family Car Sunshade,https://img.btdmp.com/10116/10116967/products/1608822733a2ea0200e9.png
https://www.familygater.com/products/farmer-style-car-sunshade,Farmer Style Car Sunshade,https://img.btdmp.com/10116/10116967/products/1608822732977690402a.png
https://www.familygater.com/products/soulmate-friend-pugs-dog-couple-car-sunshade,Soulmate Friend Pugs Dog Couple Car Sunshade,https://img.btdmp.com/10116/10116967/products/16088227314473693871.png
https://www.familygater.com/products/german-wirehaired-pointer-couple-car-sunshade,German Wirehaired Pointer Couple Car Sunshade,https://img.btdmp.com/10116/10116967/products/1608822730d36d05d1cb.png
https://www.familygater.com/products/pug-family-v2-car-sunshade,Pug Family v2 Car Sunshade,https://img.btdmp.com/10116/10116967/products/16088227294bbd2f1ba0.png
https://www.familygater.com/products/alaska-car-sunshade,Alaska Car Sunshade,https://img.btdmp.com/10116/10116967/products/160882272979f8a1c0c4.png
https://www.familygater.com/products/t-rex-family-car-sunshade,T-Rex Family Car Sunshade,https://img.btdmp.com/10116/10116967/products/1608822729f8bb472d8a.png
https://www.familygater.com/products/andalusian-horse-family-car-sunshade,Andalusian Horse Family Car Sunshade,https://img.btdmp.com/10116/10116967/products/16088227279c3077d414.png
https://www.familygater.com/products/doberman-couple-car-sunshade,Doberman Couple Car Sunshade,https://img.btdmp.com/10116/10116967/products/16088227287cc9f6e99e.png
https://www.familygater.com/products/giraffe-car-sunshade,Giraffe Car Sunshade,https://img.btdmp.com/10116/10116967/products/160882272859511adbb4.png
https://www.familygater.com/products/bulldog-couple-car-sunshade,Bulldog Couple Car Sunshade,https://img.btdmp.com/10116/10116967/products/1608822726862ff2f9d6.png
https://www.familygater.com/products/love-pitbull-car-sunshade,Love Pitbull Car Sunshade,https://img.btdmp.com/10116/10116967/products/1608822727ecf56fe1b9.png
https://www.familygater.com/products/ostrich-car-sunshade,Ostrich Car Sunshade,https://img.btdmp.com/10116/10116967/products/1608822726c9c44278de.png
https://www.familygater.com/products/red-angus-family-car-sunshade,Red Angus Family Car Sunshade,https://img.btdmp.com/10116/10116967/products/1608822724dee747a2d1.png
https://www.familygater.com/products/bulldog-dog-family-car-sunshade,Bulldog Dog Family Car Sunshade,https://img.btdmp.com/10116/10116967/products/160882272587731bbe3c.png
https://www.familygater.com/products/koala-family-v2-car-sunshade,Koala Family v2 Car Sunshade,https://img.btdmp.com/10116/10116967/products/1608822724eeb24c70ee.png
https://www.familygater.com/products/beagle-family-v3-car-sunshade,Beagle Family v3 Car Sunshade,https://img.btdmp.com/10116/10116967/products/160882272387cd128798.png
https://www.familygater.com/products/brown-swiss-family-car-sunshade,Brown Swiss Family Car Sunshade,https://img.btdmp.com/10116/10116967/products/160882272484f806f128.png
https://www.familygater.com/products/border-collie-family-v2-car-sunshade,Border Collie Family v2 Car Sunshade,https://img.btdmp.com/10116/10116967/products/1608822722f6eb06ca5a.png
https://www.familygater.com/products/dachshund-family-v2-car-sunshade,Dachshund Family v2 Car Sunshade,https://img.btdmp.com/10116/10116967/products/16088227212d06421e0f.png
https://www.familygater.com/products/black-pug-couple-car-sunshade,Black Pug Couple Car Sunshade,https://img.btdmp.com/10116/10116967/products/1608822722b31b89205d.png
https://www.familygater.com/products/frenchie-big-family-car-sunshade,Frenchie Big Family Car Sunshade,https://img.btdmp.com/10116/10116967/products/1608822721ac5c51f755.png
https://www.familygater.com/products/icelandic-horse-family-car-sunshade,Icelandic Horse Family Car Sunshade,https://img.btdmp.com/10116/10116967/products/1608822721aa6eedca15.png
https://www.familygater.com/products/pug-gang-selfie-car-sunshade,Pug Gang Selfie Car Sunshade,https://img.btdmp.com/10116/10116967/products/1608822721179164d221.png
https://www.familygater.com/products/flamingo-family-car-sunshade,Flamingo Family Car Sunshade,https://img.btdmp.com/10116/10116967/products/1608822720cdf4f3fdf9.png
https://www.familygater.com/products/horse-filled-car-sunshade,Horse Filled Car Sunshade,https://img.btdmp.com/10116/10116967/products/160882272195f4869edd.png
https://www.familygater.com/products/pembroke-welsh-corgi-dogs-car-sunshade,Pembroke Welsh Corgi Dogs Car Sunshade,https://img.btdmp.com/10116/10116967/products/16088227200ee91bd1c2.png
https://www.familygater.com/products/golden-retriever-v3-car-sunshade,Golden Retriever v3 Car Sunshade,https://img.btdmp.com/10116/10116967/products/1608822720f1551c1084.png
https://www.familygater.com/products/pitbull-driving-car-sunshade,Pitbull Driving Car Sunshade,https://img.btdmp.com/10116/10116967/products/160882271955d4fec3dd.png
https://www.familygater.com/products/dachshund-filled-car-sunshade,Dachshund Filled Car Sunshade,https://img.btdmp.com/10116/10116967/products/1608822718ceda4d7c44.png
https://www.familygater.com/products/german-shepherd-dog-family-car-sunshade,German Shepherd Dog Family Car Sunshade,https://img.btdmp.com/10116/10116967/products/160882271850e770f34c.png
https://www.familygater.com/products/border-collie-dog-car-sunshade,Border Collie Dog Car Sunshade,https://img.btdmp.com/10116/10116967/products/1608822719267f1fdcd9.png
https://www.familygater.com/products/pitbull-filled-car-sunshade,Pitbull Filled Car Sunshade,https://img.btdmp.com/10116/10116967/products/160882271801c2a04fa3.png
https://www.familygater.com/products/yorkie-couple-car-sunshade,Yorkie Couple Car Sunshade,https://img.btdmp.com/10116/10116967/products/160882271746b6f20bdb.png
https://www.familygater.com/products/two-bulldog-in-car-sunshade,Two Bulldog In Car Sunshade,https://img.btdmp.com/10116/10116967/products/1608822718e66332c2a0.png
https://www.familygater.com/products/owl-family-car-sunshade,Owl Family Car Sunshade,https://img.btdmp.com/10116/10116967/products/16088227186006180868.png
https://www.familygater.com/products/labrador-retriever-car-sunshade,Labrador Retriever Car Sunshade,https://img.btdmp.com/10116/10116967/products/1608822718ee4fac2219.png
https://www.familygater.com/products/yorkshire-terrier-car-sunshade,Yorkshire Terrier Car Sunshade,https://img.btdmp.com/10116/10116967/products/16088227174b0310a5ec.png
https://www.familygater.com/products/pitbull-dog-car-sunshade,Pitbull Dog Car Sunshade,https://img.btdmp.com/10116/10116967/products/1608822716453ceb1b8e.png
https://www.familygater.com/products/poodle-family-car-sunshade,Poodle Family Car Sunshade,https://img.btdmp.com/10116/10116967/products/16088227170cd3ea8a8d.png
https://www.familygater.com/products/belgian-malinois-car-sunshade,Belgian Malinois Car Sunshade,https://img.btdmp.com/10116/10116967/products/1608822715390308c887.png
https://www.familygater.com/products/haflinger-family-car-sunshade,Haflinger Family Car Sunshade,https://img.btdmp.com/10116/10116967/products/1608822715547c6f413e.png
https://www.familygater.com/products/best-frenchie-car-sunshade,Best Frenchie Car Sunshade,https://img.btdmp.com/10116/10116967/products/1608822716a74ef8628d.png
https://www.familygater.com/products/great-dane-car-sunshade,Great Dane Car Sunshade,https://img.btdmp.com/10116/10116967/products/1608822716f73da413a3.png
https://www.familygater.com/products/french-bulldog-hpv01-car-sunshade,French Bulldog HPV01 Car Sunshade,https://img.btdmp.com/10116/10116967/products/1608822714e5022c97c5.png
https://www.familygater.com/products/black-labrador-retriever-car-sunshade,Black Labrador Retriever Car Sunshade,https://img.btdmp.com/10116/10116967/products/16088227130eb07d9b74.png
https://www.familygater.com/products/big-foot-family-car-sunshade,Big Foot Family Car Sunshade,https://img.btdmp.com/10116/10116967/products/16088227137066f8f05e.png
https://www.familygater.com/products/bulldog-car-sunshade,Bulldog Car Sunshade,https://img.btdmp.com/10116/10116967/products/16088227133567c171c9.png
https://www.familygater.com/products/arabian-horse-family-car-sunshade,Arabian Horse Family Car Sunshade,https://img.btdmp.com/10116/10116967/products/1608822711ce3d09f4e8.png
https://www.familygater.com/products/fancy-frogs-car-sunshade,Fancy Frogs Car Sunshade,https://img.btdmp.com/10116/10116967/products/16088227107db2ab5075.png
https://www.familygater.com/products/chimpanzee-family-car-sunshade,Chimpanzee Family Car Sunshade,https://img.btdmp.com/10116/10116967/products/1608822709a350338eda.png
https://www.familygater.com/products/us-cow-car-sunshade,US Cow Car Sunshade,https://img.btdmp.com/10116/10116967/products/16088227102cd30a905c.png
https://www.familygater.com/products/gray-wolves-car-auto-sunshade,Gray Wolves Car Sunshade,https://img.btdmp.com/10116/10116967/products/16088227096f1bc261b8.png
https://www.familygater.com/products/wedding-golden-retriever-dogs-car-sunshade,Wedding Golden Retriever Dogs Car Sunshade,https://img.btdmp.com/10116/10116967/products/160882271002a879f90d.png
https://www.familygater.com/products/dachshund-family-car-sunshade,Dachshund Family Car Sunshade,https://img.btdmp.com/10116/10116967/products/1608822706888b439d62.png
https://www.familygater.com/products/pug-couple-car-sunshade,Pug Couple Car Sunshade,https://img.btdmp.com/10116/10116967/products/16088227061f27f9d8eb.png
https://www.familygater.com/products/chihuahua-family-car-sunshade,Chihuahua Family Car Sunshade,https://img.btdmp.com/10116/10116967/products/16088227061ea7a18cd7.png
https://www.familygater.com/products/rabbit-v3-car-sunshade,Rabbit v3 Car Sunshade,https://img.btdmp.com/10116/10116967/products/1608822706733f62473d.png
https://www.familygater.com/products/raccoon-big-family-car-sunshade,Raccoon Big Family Car Sunshade,https://img.btdmp.com/10116/10116967/products/1608822704cd6990199b.png
https://www.familygater.com/products/polar-bear-couple-car-sunshade,Polar Bear Couple Car Sunshade,https://img.btdmp.com/10116/10116967/products/1608822705c0f37783dd.png
https://www.familygater.com/products/dachshund-eyes-auto-sunshade,Dachshund Eyes Car Sunshade,https://img.btdmp.com/10116/10116967/products/1608822705d55fda573a.png
https://www.familygater.com/products/appaloosa-horse-family-car-sunshade,Appaloosa Horse Family Car Sunshade,https://img.btdmp.com/10116/10116967/products/16088227054cbc489c04.png
https://www.familygater.com/products/rabbit-family-v2-car-sunshade,Rabbit Family v2 Car Sunshade,https://img.btdmp.com/10116/10116967/products/1608822704da619f9e53.png
https://www.familygater.com/products/becgie-family-car-sunshade,Becgie Family Car Sunshade,https://img.btdmp.com/10116/10116967/products/1608822703c34a6beeb0.png
https://www.familygater.com/products/hippie-golden-retriever-car-sunshade,Hippie Golden Retriever Car Sunshade,https://img.btdmp.com/10116/10116967/products/1608822704f26c7d73f0.png
https://www.familygater.com/products/brahman-cattle-family-car-sunshade,Brahman cattle Family Car Sunshade,https://img.btdmp.com/10116/10116967/products/16088227039a5460eae6.png
https://www.familygater.com/products/frenchie-couple-car-sunshade,Frenchie Couple Car Sunshade,https://img.btdmp.com/10116/10116967/products/1608822704e5ed603c8a.png
https://www.familygater.com/products/rabbit-family-car-sunshade,Rabbit Family Car Sunshade,https://img.btdmp.com/10116/10116967/products/1608822702f75d4ad2a5.jpeg
