https://www.bigfamilygift.com/campaigns/product/mug/tags/Father's%20Day/lk-qt2104005-thanks-for-putting-up-to-bonus-dad-f?retailProductCode=39C8C0CFF6E5F2-8C94E1AE17CD-MSV3-TC1004-BLK,Thanks For Putting Up With My Mom To Bonus Dad,https://cdn.32pt.com/public/sl-prod-od-0/images/retail-products/39C8C0CFF6E5F2/39C8C0CFF6E5F2-8C94E1AE17CD-MSV3-TC1004-BLK/front/regular.jpg,https://cdn.32pt.com/public/sl-prod-od-0/images/retail-products/39C8C0CFF6E5F2/39C8C0CFF6E5F2-8C94E1AE17CD-MSV3-TC1004-BLK/ceramic-color-changing-mug-lifestyle-01/regular.jpg,https://cdn.32pt.com/public/sl-prod-od-0/images/retail-products/39C8C0CFF6E5F2/39C8C0CFF6E5F2-8C94E1AE17CD-MSV3-TC1004-BLK/ceramic-color-changing-mug-lifestyle-45/regular.jpg,https://cdn.32pt.com/public/sl-prod-od-0/images/retail-products/39C8C0CFF6E5F2/39C8C0CFF6E5F2-8C94E1AE17CD-MSV3-TC1004-BLK/ceramic-color-changing-mug-lifestyle-19/regular.jpg
https://www.bigfamilygift.com/campaigns/product/mug/tags/Father's%20Day/lk-qt2104005-thanks-for-putting-up-to-bonus-dad-f?retailProductCode=39C8C0CFF6E5F2-8C94E1AE17CD-MSV3-TC1003-BLK,Thanks For Putting Up With My Mom To Bonus Dad,https://cdn.32pt.com/public/sl-prod-od-0/images/retail-products/39C8C0CFF6E5F2/39C8C0CFF6E5F2-8C94E1AE17CD-MSV3-TC1003-BLK/front/regular.jpg,https://cdn.32pt.com/public/sl-prod-od-0/images/retail-products/39C8C0CFF6E5F2/39C8C0CFF6E5F2-8C94E1AE17CD-MSV3-TC1003-BLK/ceramic-mug-lifestyle-01/regular.jpg,https://cdn.32pt.com/public/sl-prod-od-0/images/retail-products/39C8C0CFF6E5F2/39C8C0CFF6E5F2-8C94E1AE17CD-MSV3-TC1003-BLK/ceramic-mug-lifestyle-46/regular.jpg,https://cdn.32pt.com/public/sl-prod-od-0/images/retail-products/39C8C0CFF6E5F2/39C8C0CFF6E5F2-8C94E1AE17CD-MSV3-TC1003-BLK/ceramic-mug-lifestyle-06/regular.jpg
https://www.bigfamilygift.com/campaigns/product/mug/tags/Father's%20Day/lk-qt2104022-im-not-the-step-dad-im-just-the-dad?retailProductCode=39C8C0CFF6E5F2-E12C40FF03C9-MSV2-TC1004-BLK,I'm Not The Step Dad I'm Just The Dad To Dad,https://cdn.32pt.com/public/sl-prod-od-0/images/retail-products/39C8C0CFF6E5F2/39C8C0CFF6E5F2-E12C40FF03C9-MSV2-TC1004-BLK/front/regular.jpg,https://cdn.32pt.com/public/sl-prod-od-0/images/retail-products/39C8C0CFF6E5F2/39C8C0CFF6E5F2-E12C40FF03C9-MSV2-TC1004-BLK/ceramic-color-changing-mug-lifestyle-01/regular.jpg,https://cdn.32pt.com/public/sl-prod-od-0/images/retail-products/39C8C0CFF6E5F2/39C8C0CFF6E5F2-E12C40FF03C9-MSV2-TC1004-BLK/ceramic-color-changing-mug-lifestyle-45/regular.jpg,https://cdn.32pt.com/public/sl-prod-od-0/images/retail-products/39C8C0CFF6E5F2/39C8C0CFF6E5F2-E12C40FF03C9-MSV2-TC1004-BLK/ceramic-color-changing-mug-lifestyle-57/regular.jpg
https://www.bigfamilygift.com/campaigns/product/mug/tags/Father's%20Day/lk-qt2104022-im-not-the-step-dad-im-just-the-dad?retailProductCode=39C8C0CFF6E5F2-E12C40FF03C9-MSV2-TC1003-BLK,I'm Not The Step Dad I'm Just The Dad To Dad,https://cdn.32pt.com/public/sl-prod-od-0/images/retail-products/39C8C0CFF6E5F2/39C8C0CFF6E5F2-E12C40FF03C9-MSV2-TC1003-BLK/front/regular.jpg,https://cdn.32pt.com/public/sl-prod-od-0/images/retail-products/39C8C0CFF6E5F2/39C8C0CFF6E5F2-E12C40FF03C9-MSV2-TC1003-BLK/ceramic-mug-lifestyle-62/regular.jpg,https://cdn.32pt.com/public/sl-prod-od-0/images/retail-products/39C8C0CFF6E5F2/39C8C0CFF6E5F2-E12C40FF03C9-MSV2-TC1003-BLK/ceramic-mug-lifestyle-41/regular.jpg,https://cdn.32pt.com/public/sl-prod-od-0/images/retail-products/39C8C0CFF6E5F2/39C8C0CFF6E5F2-E12C40FF03C9-MSV2-TC1003-BLK/ceramic-mug-lifestyle-47/regular.jpg
https://www.bigfamilygift.com/campaigns/product/mug/tags/Father's%20Day/hh-vvl2104037-being-a-father-is-an-honor?retailProductCode=39C8C0CFF6E5F2-82E695BF1398-MSV0-TC1003-BLK,Being A Father Is An Honor Daughter To Stepdad,https://cdn.32pt.com/public/sl-prod-od-0/images/retail-products/39C8C0CFF6E5F2/39C8C0CFF6E5F2-82E695BF1398-MSV0-TC1003-BLK/front/regular.jpg
https://www.bigfamilygift.com/campaigns/product/mug/tags/Father's%20Day/lk-nmd2104034-call-of-daddy-daughter-to-dad1?retailProductCode=39C8C0CFF6E5F2-A4F240BA17CC-MSV0-TC1004-BLK,Call Of Daddy Fatherhood Ops Daughter To Dad,https://cdn.32pt.com/public/sl-prod-od-0/images/retail-products/39C8C0CFF6E5F2/39C8C0CFF6E5F2-A4F240BA17CC-MSV0-TC1004-BLK/front/regular.jpg,https://cdn.32pt.com/public/sl-prod-od-0/images/retail-products/39C8C0CFF6E5F2/39C8C0CFF6E5F2-A4F240BA17CC-MSV0-TC1004-BLK/ceramic-color-changing-mug-lifestyle-01/regular.jpg,https://cdn.32pt.com/public/sl-prod-od-0/images/retail-products/39C8C0CFF6E5F2/39C8C0CFF6E5F2-A4F240BA17CC-MSV0-TC1004-BLK/ceramic-color-changing-mug-lifestyle-45/regular.jpg,https://cdn.32pt.com/public/sl-prod-od-0/images/retail-products/39C8C0CFF6E5F2/39C8C0CFF6E5F2-A4F240BA17CC-MSV0-TC1004-BLK/ceramic-color-changing-mug-lifestyle-19/regular.jpg
https://www.bigfamilygift.com/campaigns/product/mug/tags/Father's%20Day/lk-nmd2104034-call-of-daddy-daughter-to-dad1?retailProductCode=39C8C0CFF6E5F2-A4F240BA17CC-MSV0-TC1003-BLK,Call Of Daddy Fatherhood Ops Daughter To Dad,https://cdn.32pt.com/public/sl-prod-od-0/images/retail-products/39C8C0CFF6E5F2/39C8C0CFF6E5F2-A4F240BA17CC-MSV0-TC1003-BLK/front/regular.jpg,https://cdn.32pt.com/public/sl-prod-od-0/images/retail-products/39C8C0CFF6E5F2/39C8C0CFF6E5F2-A4F240BA17CC-MSV0-TC1003-BLK/ceramic-mug-lifestyle-01/regular.jpg,https://cdn.32pt.com/public/sl-prod-od-0/images/retail-products/39C8C0CFF6E5F2/39C8C0CFF6E5F2-A4F240BA17CC-MSV0-TC1003-BLK/ceramic-mug-lifestyle-46/regular.jpg,https://cdn.32pt.com/public/sl-prod-od-0/images/retail-products/39C8C0CFF6E5F2/39C8C0CFF6E5F2-A4F240BA17CC-MSV0-TC1003-BLK/ceramic-mug-lifestyle-06/regular.jpg
https://www.bigfamilygift.com/campaigns/product/mug/tags/Father's%20Day/hh-lch2104033-best-effin-stepdad-ever?retailProductCode=39C8C0CFF6E5F2-5EA7D1AB42DC-MSV0-TC1003-BLK,Best Effin' Stepdad Ever Daughter To Stepdad,https://cdn.32pt.com/public/sl-prod-od-0/images/retail-products/39C8C0CFF6E5F2/39C8C0CFF6E5F2-5EA7D1AB42DC-MSV0-TC1003-BLK/front/regular.jpg
https://www.bigfamilygift.com/campaigns/product/mug/tags/Father's%20Day/lk-qt2104014-u-may-not-given-life-dau-to-bonus-dad?retailProductCode=39C8C0CFF6E5F2-CFF345BF078D-MSV0-TC1003-BLK,U May Not Have Given Me Life Daughter To Bonus Dad,https://cdn.32pt.com/public/sl-prod-od-0/images/retail-products/39C8C0CFF6E5F2/39C8C0CFF6E5F2-CFF345BF078D-MSV0-TC1003-BLK/front/regular.jpg,https://cdn.32pt.com/public/sl-prod-od-0/images/retail-products/39C8C0CFF6E5F2/39C8C0CFF6E5F2-CFF345BF078D-MSV0-TC1003-BLK/ceramic-mug-lifestyle-01/regular.jpg,https://cdn.32pt.com/public/sl-prod-od-0/images/retail-products/39C8C0CFF6E5F2/39C8C0CFF6E5F2-CFF345BF078D-MSV0-TC1003-BLK/ceramic-mug-lifestyle-46/regular.jpg,https://cdn.32pt.com/public/sl-prod-od-0/images/retail-products/39C8C0CFF6E5F2/39C8C0CFF6E5F2-CFF345BF078D-MSV0-TC1003-BLK/ceramic-mug-lifestyle-06/regular.jpg
https://www.bigfamilygift.com/campaigns/product/mug/tags/Father's%20Day/lk-qt2104014-u-may-not-given-life-dau-to-bonus-dad?retailProductCode=39C8C0CFF6E5F2-CFF345BF078D-MSV0-TC1004-BLK,U May Not Have Given Me Life Daughter To Bonus Dad,https://cdn.32pt.com/public/sl-prod-od-0/images/retail-products/39C8C0CFF6E5F2/39C8C0CFF6E5F2-CFF345BF078D-MSV0-TC1004-BLK/front/regular.jpg,https://cdn.32pt.com/public/sl-prod-od-0/images/retail-products/39C8C0CFF6E5F2/39C8C0CFF6E5F2-CFF345BF078D-MSV0-TC1004-BLK/ceramic-color-changing-mug-lifestyle-01/regular.jpg,https://cdn.32pt.com/public/sl-prod-od-0/images/retail-products/39C8C0CFF6E5F2/39C8C0CFF6E5F2-CFF345BF078D-MSV0-TC1004-BLK/ceramic-color-changing-mug-lifestyle-45/regular.jpg,https://cdn.32pt.com/public/sl-prod-od-0/images/retail-products/39C8C0CFF6E5F2/39C8C0CFF6E5F2-CFF345BF078D-MSV0-TC1004-BLK/ceramic-color-changing-mug-lifestyle-19/regular.jpg
https://www.bigfamilygift.com/campaigns/product/mug/tags/Father's%20Day/lk-qt2104008-lucky-dad-awesome-dau-daughter-to-dad?retailProductCode=39C8C0CFF6E5F2-10BDB5AA16D9-MSV1-TC1004-BLK,Lucky Dad Have An Awesome Daughter Daughter To Dad,https://cdn.32pt.com/public/sl-prod-od-0/images/retail-products/39C8C0CFF6E5F2/39C8C0CFF6E5F2-10BDB5AA16D9-MSV1-TC1004-BLK/front/regular.jpg,https://cdn.32pt.com/public/sl-prod-od-0/images/retail-products/39C8C0CFF6E5F2/39C8C0CFF6E5F2-10BDB5AA16D9-MSV1-TC1004-BLK/ceramic-color-changing-mug-lifestyle-01/regular.jpg,https://cdn.32pt.com/public/sl-prod-od-0/images/retail-products/39C8C0CFF6E5F2/39C8C0CFF6E5F2-10BDB5AA16D9-MSV1-TC1004-BLK/ceramic-color-changing-mug-lifestyle-45/regular.jpg,https://cdn.32pt.com/public/sl-prod-od-0/images/retail-products/39C8C0CFF6E5F2/39C8C0CFF6E5F2-10BDB5AA16D9-MSV1-TC1004-BLK/ceramic-color-changing-mug-lifestyle-19/regular.jpg
https://www.bigfamilygift.com/campaigns/product/mug/tags/Father's%20Day/lk-qt2104008-lucky-dad-awesome-dau-daughter-to-dad?retailProductCode=39C8C0CFF6E5F2-10BDB5AA16D9-MSV1-TC1003-BLK,Lucky Dad Have An Awesome Daughter Daughter To Dad,https://cdn.32pt.com/public/sl-prod-od-0/images/retail-products/39C8C0CFF6E5F2/39C8C0CFF6E5F2-10BDB5AA16D9-MSV1-TC1003-BLK/front/regular.jpg,https://cdn.32pt.com/public/sl-prod-od-0/images/retail-products/39C8C0CFF6E5F2/39C8C0CFF6E5F2-10BDB5AA16D9-MSV1-TC1003-BLK/ceramic-mug-lifestyle-01/regular.jpg,https://cdn.32pt.com/public/sl-prod-od-0/images/retail-products/39C8C0CFF6E5F2/39C8C0CFF6E5F2-10BDB5AA16D9-MSV1-TC1003-BLK/ceramic-mug-lifestyle-46/regular.jpg,https://cdn.32pt.com/public/sl-prod-od-0/images/retail-products/39C8C0CFF6E5F2/39C8C0CFF6E5F2-10BDB5AA16D9-MSV1-TC1003-BLK/ceramic-mug-lifestyle-06/regular.jpg
