https://doringraphics.com/products/machanic-usa-flag-shoes-crocs-fathers-day-2021-gifts-for-dad-dad-life-can-fix-everything-croc-shoes,Mechanic USA Flag Shoes Crocs Fathers Day 2021 Gifts For Dad - Dad Life Can Fix Everything Croc Shoes,https://cdn.shopify.com/s/files/1/0295/8560/4668/products/c358_f79cbbed-2626-418c-9a78-fddd51d968fc.jpg?v=1615995463
https://doringraphics.com/products/mexico-america-flag-shoes-crocs-shoes-gifts-for-women-men-mexican-us,Mexico America Flag Shoes Crocs Shoes Gifts For Women Men Mexican US,https://cdn.shopify.com/s/files/1/0295/8560/4668/products/WYA3wzuauZWJUskyECNc8MxqoztTWl3XClVBUd5S_RUoIZlcQUfGX6N6o4AFpApJKQo1ZMXzAH5kL-qq9nIzprD6jnr0F1csYHq4UAh38gCE8Tn72N0jW_chJ0CJH342GUzZ3_BVpSwLCxBxgOFl6mygLAV0OtymVCqxoWl2a42PfqUUy4RFDBs.jpg?v=1611989210
https://doringraphics.com/products/us-army-veteran-croc-shoes-eagle-america-flag-crocbland-clog-gifts-for-man,US Army Veteran Croc Shoes Fathers Day Gifts Grandpa Husband - Eagle America Flag Crocbland Clog Gifts for Man Woman,https://cdn.shopify.com/s/files/1/0295/8560/4668/products/22_d649bd14-ddba-4093-aa47-0874d6ca57e7.jpg?v=1621802747
https://doringraphics.com/products/texas-state-flag-united-states-america-independence-day-flag-4th-of-july,Texas State Flag United States - America Independence Day Flag 4th Of July,https://cdn.shopify.com/s/files/1/0295/8560/4668/products/5.31.43.1.jpg?v=1622543444
https://doringraphics.com/products/bigfoot-holding-flag-shoes-4th-of-july-america-flag-crocs-clog-birthday-gift-for-men-women,Bigfoot Holding Flag Shoes - 4th of July America Flag Crocs Clog Birthday Gift For Men Women,https://cdn.shopify.com/s/files/1/0295/8560/4668/products/15.6.jpg?v=1618906562
https://doringraphics.com/products/eagle-usa-shoes-4th-july-independence-day-crocs-clog-birthday-gift-for-men-women,Eagle USA Shoes -  4th July Independence Day Crocs Clog Birthday Gift For Men Women,https://cdn.shopify.com/s/files/1/0295/8560/4668/products/8.2_483cd5f6-e76b-432c-9650-81b260491009.jpg?v=1618907336
https://doringraphics.com/products/mexico,My Blood Mexico My Home USA Flag Clog Crocs Shoes Gift For Man Woman,https://cdn.shopify.com/s/files/1/0295/8560/4668/products/q9.2_9a54b87b-caad-437f-b698-1f0728325377.jpg?v=1617768894
https://doringraphics.com/products/mow-shoes-crocs-garden-funny-im-sexy-and-i-mow-it-funny-croc-shoes-gifts-men-women,Mow Shoes Crocs Garden Funny - Im Sexy And I Mow It Funny Croc Shoes Gifts Men Women,https://cdn.shopify.com/s/files/1/0295/8560/4668/products/c360_fe42abf8-9421-436b-b3a7-10c795794a2a.jpg?v=1615996899
https://doringraphics.com/products/michigan-state-flag-united-states-america-independence-day-flag-4th-of-july,Michigan State Flag United States - America Independence Day Flag 4th Of July,https://cdn.shopify.com/s/files/1/0295/8560/4668/products/5.31.22.1.jpg?v=1622540649
https://doringraphics.com/products/hunting-usa-flag,Deer Hunting USA Flag - Deer Hunter America Flag 4th Of July Home Decor,https://cdn.shopify.com/s/files/1/0295/8560/4668/products/regular_e607e29a-9f59-4a2d-9dc2-c04d13f5b97a.jpg?v=1621502015
https://doringraphics.com/products/4th-july-independence-day-shoes-liberty-usa-crocs-clog-birthday-gift-for-men-women,4th July Independence Day Shoes - Liberty USA Crocs Clog Birthday Gift For Men Women,https://cdn.shopify.com/s/files/1/0295/8560/4668/products/11.2_bed26205-2ee6-4592-8dd1-cbab63ee4bed.jpg?v=1619519366
https://doringraphics.com/products/the-university-of-chicago-flag-united-states-america-independence-day-flag-4th-of-july,The University Of Chicago Flag United States - America Independence Day Flag 4th Of July,https://cdn.shopify.com/s/files/1/0295/8560/4668/products/5.31.56.1.jpg?v=1622544291
https://doringraphics.com/products/california-institute-of-technology-flag-united-states-america-independence-day-flag-4th-of-july,California Institute of Technology Flag United States - America Independence Day Flag 4th Of July,https://cdn.shopify.com/s/files/1/0295/8560/4668/products/5.31.55.1.jpg?v=1622544244
https://doringraphics.com/products/massachusetts-institute-of-technology-flag-united-states-america-independence-day-flag-4th-of-july,Massachusetts Institute of Technology Flag United States - America Independence Day Flag 4th Of July,https://cdn.shopify.com/s/files/1/0295/8560/4668/products/5.31.54.1.jpg?v=1622544171
https://doringraphics.com/products/harvard-university-flag-united-states-america-independence-day-flag-4th-of-july,Harvard University Flag United States - America Independence Day Flag 4th Of July,https://cdn.shopify.com/s/files/1/0295/8560/4668/products/5.31.53.1.jpg?v=1622544104
https://doringraphics.com/products/princeton-university-flag-united-states-america-independence-day-flag-4th-of-july,Princeton University Flag United States - America Independence Day Flag 4th Of July,https://cdn.shopify.com/s/files/1/0295/8560/4668/products/5.31.52.1.jpg?v=1622544067
https://doringraphics.com/products/wyoming-state-flag-united-states-america-independence-day-flag-4th-of-july,Wyoming State Flag United States - America Independence Day Flag 4th Of July,https://cdn.shopify.com/s/files/1/0295/8560/4668/products/5.31.51.1.jpg?v=1622543998
https://doringraphics.com/products/wisconsin-state-flag-united-states-america-independence-day-flag-4th-of-july,Wisconsin State Flag United States - America Independence Day Flag 4th Of July,https://cdn.shopify.com/s/files/1/0295/8560/4668/products/5.31.50.1.jpg?v=1622543933
https://doringraphics.com/products/west-virginia-state-flag-united-states-america-independence-day-flag-4th-of-july,West Virginia State Flag United States - America Independence Day Flag 4th Of July,https://cdn.shopify.com/s/files/1/0295/8560/4668/products/5.31.49.1.jpg?v=1622543886
https://doringraphics.com/products/washington-state-flag-united-states-america-independence-day-flag-4th-of-july,Washington State Flag United States - America Independence Day Flag 4th Of July,https://cdn.shopify.com/s/files/1/0295/8560/4668/products/5.31.48.1.jpg?v=1622543833
https://doringraphics.com/products/washington-d-c-state-flag-united-states-america-independence-day-flag-4th-of-july,Washington D.C State Flag United States - America Independence Day Flag 4th Of July,https://cdn.shopify.com/s/files/1/0295/8560/4668/products/5.31.47.1.jpg?v=1622543686
https://doringraphics.com/products/virginia-state-flag-united-states-america-independence-day-flag-4th-of-july,Virginia State Flag United States - America Independence Day Flag 4th Of July,https://cdn.shopify.com/s/files/1/0295/8560/4668/products/5.31.46.1.jpg?v=1622543640
https://doringraphics.com/products/vermont-state-flag-united-states-america-independence-day-flag-4th-of-july,Vermont State Flag United States - America Independence Day Flag 4th Of July,https://cdn.shopify.com/s/files/1/0295/8560/4668/products/5.31.45.1.jpg?v=1622543575
https://doringraphics.com/products/utah-state-flag-united-states-america-independence-day-flag-4th-of-july,Utah State Flag United States - America Independence Day Flag 4th Of July,https://cdn.shopify.com/s/files/1/0295/8560/4668/products/5.31.44.1.jpg?v=1622543508
https://doringraphics.com/products/tennessee-state-flag-united-states-america-independence-day-flag-4th-of-july,Tennessee State Flag United States - America Independence Day Flag 4th Of July,https://cdn.shopify.com/s/files/1/0295/8560/4668/products/5.31.42.1.jpg?v=1622543371
https://doringraphics.com/products/south-dakota-state-flag-united-states-america-independence-day-flag-4th-of-july,South Dakota State Flag United States - America Independence Day Flag 4th Of July,https://cdn.shopify.com/s/files/1/0295/8560/4668/products/5.31.41.1.jpg?v=1622543277
https://doringraphics.com/products/south-carolina-state-flag-united-states-america-independence-day-flag-4th-of-july,South Carolina State Flag United States - America Independence Day Flag 4th Of July,https://cdn.shopify.com/s/files/1/0295/8560/4668/products/5.31.40.1.jpg?v=1622543195
https://doringraphics.com/products/rhode-island-state-flag-united-states-america-independence-day-flag-4th-of-july,Rhode Island State Flag United States - America Independence Day Flag 4th Of July,https://cdn.shopify.com/s/files/1/0295/8560/4668/products/5.31.39.1.jpg?v=1622543138
https://doringraphics.com/products/pennsylvania-state-flag-united-states-america-independence-day-flag-4th-of-july,Pennsylvania State Flag United States - America Independence Day Flag 4th Of July,https://cdn.shopify.com/s/files/1/0295/8560/4668/products/5.31.38.1.jpg?v=1622543037
https://doringraphics.com/products/oregon-state-flag-united-states-america-independence-day-flag-4th-of-july,Oregon State Flag United States - America Independence Day Flag 4th Of July,https://cdn.shopify.com/s/files/1/0295/8560/4668/products/5.31.37.1.jpg?v=1622542645
https://doringraphics.com/products/oklahoma-state-flag-united-states-america-independence-day-flag-4th-of-july,Oklahoma State Flag United States - America Independence Day Flag 4th Of July,https://cdn.shopify.com/s/files/1/0295/8560/4668/products/5.31.36.1.jpg?v=1622542539
https://doringraphics.com/products/ohio-state-flag-united-states-america-independence-day-flag-4th-of-july,Ohio State Flag United States - America Independence Day Flag 4th Of July,https://cdn.shopify.com/s/files/1/0295/8560/4668/products/5.31.35.1.jpg?v=1622542475
https://doringraphics.com/products/north-dakota-flag-united-states-america-independence-day-flag-4th-of-july,North Dakota Flag United States - America Independence Day Flag 4th Of July,https://cdn.shopify.com/s/files/1/0295/8560/4668/products/5.31.34.1.jpg?v=1622542253
https://doringraphics.com/products/north-carolina-flag-united-states-america-independence-day-flag-4th-of-july,North Carolina Flag United States - America Independence Day Flag 4th Of July,https://cdn.shopify.com/s/files/1/0295/8560/4668/products/5.31.33.1.jpg?v=1622542159
https://doringraphics.com/products/new-york-flag-united-states-america-independence-day-flag-4th-of-july,New York Flag United States - America Independence Day Flag 4th Of July,https://cdn.shopify.com/s/files/1/0295/8560/4668/products/5.31.32.1.jpg?v=1622542051
https://doringraphics.com/products/new-mexico-flag-united-states-america-independence-day-flag-4th-of-july,New Mexico Flag United States - America Independence Day Flag 4th Of July,https://cdn.shopify.com/s/files/1/0295/8560/4668/products/5.31.31.1.jpg?v=1622541833
https://doringraphics.com/products/new-jersey-state-flag-united-states-america-independence-day-flag-4th-of-july,New Jersey State Flag United States - America Independence Day Flag 4th Of July,https://cdn.shopify.com/s/files/1/0295/8560/4668/products/5.31.30.1.jpg?v=1622541778
https://doringraphics.com/products/new-hampshire-state-flag-united-states-america-independence-day-flag-4th-of-july,New Hampshire State Flag United States - America Independence Day Flag 4th Of July,https://cdn.shopify.com/s/files/1/0295/8560/4668/products/5.31.29.1.jpg?v=1622541563
https://doringraphics.com/products/nevada-state-flag-united-states-america-independence-day-flag-4th-of-july,Nevada State Flag United States - America Independence Day Flag 4th Of July,https://cdn.shopify.com/s/files/1/0295/8560/4668/products/5.31.28.1.jpg?v=1622541370
https://doringraphics.com/products/nebraska-state-flag-united-states-america-independence-day-flag-4th-of-july,Nebraska State Flag United States - America Independence Day Flag 4th Of July,https://cdn.shopify.com/s/files/1/0295/8560/4668/products/5.31.27.1.jpg?v=1622541315
https://doringraphics.com/products/montana-state-flag-united-states-america-independence-day-flag-4th-of-july,Montana State Flag United States - America Independence Day Flag 4th Of July,https://cdn.shopify.com/s/files/1/0295/8560/4668/products/5.31.26.1.jpg?v=1622541060
https://doringraphics.com/products/missouri-state-flag-united-states-america-independence-day-flag-4th-of-july,Missouri State Flag United States - America Independence Day Flag 4th Of July,https://cdn.shopify.com/s/files/1/0295/8560/4668/products/5.31.25.1.jpg?v=1622540979
https://doringraphics.com/products/mississippi-state-flag-united-states-america-independence-day-flag-4th-of-july,Mississippi State Flag United States - America Independence Day Flag 4th Of July,https://cdn.shopify.com/s/files/1/0295/8560/4668/products/5.31.24.1.jpg?v=1622540840
https://doringraphics.com/products/minnesota-state-flag-united-states-america-independence-day-flag-4th-of-july,Minnesota State Flag United States - America Independence Day Flag 4th Of July,https://cdn.shopify.com/s/files/1/0295/8560/4668/products/5.31.23.1.jpg?v=1622540721
https://doringraphics.com/products/massachusetts-state-flag-united-states-america-independence-day-flag-4th-of-july,Massachusetts State Flag United States - America Independence Day Flag 4th Of July,https://cdn.shopify.com/s/files/1/0295/8560/4668/products/5.31.21.1.jpg?v=1622540539
https://doringraphics.com/products/maryland-state-flag-united-states-america-independence-day-flag-4th-of-july,Maryland State Flag United States - America Independence Day Flag 4th Of July,https://cdn.shopify.com/s/files/1/0295/8560/4668/products/5.31.20.1.jpg?v=1622540339
https://doringraphics.com/products/maine-state-flag-united-states-america-independence-day-flag-4th-of-july,Maine State Flag United States - America Independence Day Flag 4th Of July,https://cdn.shopify.com/s/files/1/0295/8560/4668/products/5.31.19.1.jpg?v=1622540187
https://doringraphics.com/products/louisiana-state-flag-united-states-america-independence-day-flag-4th-of-july,Louisiana State Flag United States - America Independence Day Flag 4th Of July,https://cdn.shopify.com/s/files/1/0295/8560/4668/products/5.31.18.1.jpg?v=1622540121
https://doringraphics.com/products/kentucky-state-flag-united-states-america-independence-day-flag-4th-of-july,Kentucky State Flag United States - America Independence Day Flag 4th Of July,https://cdn.shopify.com/s/files/1/0295/8560/4668/products/5.31.17.1.jpg?v=1622539958
https://doringraphics.com/products/kansas-state-flag-united-states-america-independence-day-flag-4th-of-july,Kansas State Flag United States - America Independence Day Flag 4th Of July,https://cdn.shopify.com/s/files/1/0295/8560/4668/products/5.31.16.1.jpg?v=1622539339
https://doringraphics.com/products/iowa-state-flag-united-states-america-independence-day-flag-4th-of-july,Iowa State Flag United States - America Independence Day Flag 4th Of July,https://cdn.shopify.com/s/files/1/0295/8560/4668/products/5.31.15.1.jpg?v=1622539299
https://doringraphics.com/products/indiana-state-flag-united-states-america-independence-day-flag-4th-of-july,Indiana State Flag United States - America Independence Day Flag 4th Of July,https://cdn.shopify.com/s/files/1/0295/8560/4668/products/5.31.14.1.jpg?v=1622539044
https://doringraphics.com/products/illinois-state-flag-united-states-america-independence-day-flag-4th-of-july,Illinois State Flag United States - America Independence Day Flag 4th Of July,https://cdn.shopify.com/s/files/1/0295/8560/4668/products/5.31.13.1.jpg?v=1622538887
https://doringraphics.com/products/idaho-state-flag-united-states-america-independence-day-flag-4th-of-july,Idaho State Flag United States - America Independence Day Flag 4th Of July,https://cdn.shopify.com/s/files/1/0295/8560/4668/products/5.31.12.1.jpg?v=1622538755
https://doringraphics.com/products/hawaii-state-flag-united-states-america-independence-day-flag-4th-of-july,Hawaii State Flag United States - America Independence Day Flag 4th Of July,https://cdn.shopify.com/s/files/1/0295/8560/4668/products/5.31.11.1.jpg?v=1622538638
https://doringraphics.com/products/georgia-state-flag-united-states-america-independence-day-flag-4th-of-july,Georgia State Flag United States - America Independence Day Flag 4th Of July,https://cdn.shopify.com/s/files/1/0295/8560/4668/products/5.31.10.1.jpg?v=1622538515
https://doringraphics.com/products/florida-state-flag-united-states-america-independence-day-flag-4th-of-july,Florida State Flag United States - America Independence Day Flag 4th Of July,https://cdn.shopify.com/s/files/1/0295/8560/4668/products/5.31.9.1.jpg?v=1622538312
https://doringraphics.com/products/delaware-state-december-7-1787-flag-united-states-america-independence-day-flag-4th-of-july,"Delaware State December 7, 1787 Flag United States - America Independence Day Flag 4th Of July",https://cdn.shopify.com/s/files/1/0295/8560/4668/products/5.31.8.1.jpg?v=1622538191
https://doringraphics.com/products/connecticut-state-flag-united-states-america-independence-day-flag-4th-of-july,Connecticut State Flag United States - America Independence Day Flag 4th Of July,https://cdn.shopify.com/s/files/1/0295/8560/4668/products/5.31.7.1.jpg?v=1622538002
https://doringraphics.com/products/colorado-state-flag-united-states-america-independence-day-flag-4th-of-july,Colorado State Flag United States - America Independence Day Flag 4th Of July,https://cdn.shopify.com/s/files/1/0295/8560/4668/products/5.31.6.1.jpg?v=1622537486
https://doringraphics.com/products/california-republic-flag-united-states-america-independence-day-flag-4th-of-july,California Republic Flag United States - America Independence Day Flag 4th Of July,https://cdn.shopify.com/s/files/1/0295/8560/4668/products/5.31.5.1.jpg?v=1622537341
https://doringraphics.com/products/arkansas-flag-united-states-america-independence-day-flag-4th-of-july,Arkansas Flag United States - America Independence Day Flag 4th Of July,https://cdn.shopify.com/s/files/1/0295/8560/4668/products/5.31.4.1.jpg?v=1622537160
https://doringraphics.com/products/arizona-flag-united-states-america-independence-day-flag-4th-of-july,Arizona Flag United States - America Independence Day Flag 4th Of July,https://cdn.shopify.com/s/files/1/0295/8560/4668/products/5.31.3.1.jpg?v=1622536953
https://doringraphics.com/products/alaska-state-flag-united-states-america-independence-day-flag-4th-of-july,Alaska State Flag United States - America Independence Day Flag 4th Of July,https://cdn.shopify.com/s/files/1/0295/8560/4668/products/5.31.2.1.jpg?v=1622536773
https://doringraphics.com/products/alabama-flag-united-states-america-independence-day-flag-4th-of-july,Alabama Flag United States - America Independence Day Flag 4th Of July,https://cdn.shopify.com/s/files/1/0295/8560/4668/products/5.31.1.1.jpg?v=1622536587
https://doringraphics.com/products/components-amendments-of-the-georgia-constitution-flag-america-independence-day-flag-4th-of-july,Components & Amendments of the Georgia Constitution Flag - America Independence Day Flag 4th Of July,https://cdn.shopify.com/s/files/1/0295/8560/4668/products/5.11.10.3.jpg?v=1622536402
https://doringraphics.com/products/sheep-in-flowers-flag-decorate-america-independence-day-flag-4th-of-july,Sheep In Flowers Flag Decorate - America Independence Day Flag 4th Of July,https://cdn.shopify.com/s/files/1/0295/8560/4668/products/5.28.26.1.jpg?v=1622536037
https://doringraphics.com/products/some-rabbit-love-you-flag-cutie-rabbit-in-japanese-flower-decorate-america-independence-day-flag-4th-of-july,Some Rabbit Love You Flag Cutie Rabbit In Japanese Flower Decorate - America Independence Day Flag 4th Of July,https://cdn.shopify.com/s/files/1/0295/8560/4668/products/5.28.25.1.jpg?v=1622535734
https://doringraphics.com/products/rabbits-family-with-sunflower-flag-couple-rabbit-decorate-america-independence-day-flag-4th-of-july,Rabbit's Family With Sunflower Flag Couple Rabbit Decorate - America Independence Day Flag 4th Of July,https://cdn.shopify.com/s/files/1/0295/8560/4668/products/5.28.23.1.jpg?v=1622535577
https://doringraphics.com/products/deers-house-in-the-field-flag-animal-decorate-america-independence-day-flag-4th-of-july,Deer's House In The Field Flag Animal Decorate - America Independence Day Flag 4th Of July,https://cdn.shopify.com/s/files/1/0295/8560/4668/products/5.28.22.1.jpg?v=1622535409
https://doringraphics.com/products/welcome-to-our-deer-family-in-valley-farm-flag-animal-decorate-america-independence-day-flag-4th-of-july,Welcome To Our Deer Family In Valley Farm Flag Animal Decorate - America Independence Day Flag 4th Of July,https://cdn.shopify.com/s/files/1/0295/8560/4668/products/5.28.21.1.jpg?v=1622535250
https://doringraphics.com/products/love-you-deerly-flag-animal-decorate-america-independence-day-flag-4th-of-july,Love You Deerly Flag Animal Decorate - America Independence Day Flag 4th Of July,https://cdn.shopify.com/s/files/1/0295/8560/4668/products/5.28.11.1_eb8f9284-0ce4-4a19-8998-fc948fb720d3.jpg?v=1622534746
https://doringraphics.com/products/oh-deer-in-japanese-flowers-flag-animal-farm-decorate-america-independence-day-flag-4th-of-july,Oh Deer In Japanese Flowers Flag Animal Farm Decorate - America Independence Day Flag 4th Of July,https://cdn.shopify.com/s/files/1/0295/8560/4668/products/5.28.13.1.jpg?v=1622531609
https://doringraphics.com/products/welcome-to-our-deers-family-flag-animal-farm-decorate-america-independence-day-flag-4th-of-july,Welcome To Our Deer's Family Flag Animal Farm Decorate - America Independence Day Flag 4th Of July,https://cdn.shopify.com/s/files/1/0295/8560/4668/products/5.28.12.1.jpg?v=1622531500
https://doringraphics.com/products/my-deer-usa-flag-animal-farm-decorate-america-independence-day-flag-4th-of-july,My Deer USA Flag Animal Farm Decorate - America Independence Day Flag 4th Of July,https://cdn.shopify.com/s/files/1/0295/8560/4668/products/5.28.10.1.jpg?v=1622531260
https://doringraphics.com/products/life-is-better-with-a-horse-flag-animal-farm-decorate-america-independence-day-flag-4th-of-july,Life Is Better With A Horse Flag Animal Farm Decorate - America Independence Day Flag 4th Of July,https://cdn.shopify.com/s/files/1/0295/8560/4668/products/5.28.8.1.jpg?v=1622531038
https://doringraphics.com/products/horses-family-in-the-field-flag-animal-farm-decorate-america-independence-day-flag-4th-of-july,Horse's Family In The Field Flag Animal Farm Decorate - America Independence Day Flag 4th Of July,https://cdn.shopify.com/s/files/1/0295/8560/4668/products/5.28.6.1.jpg?v=1622530778
https://doringraphics.com/products/cool-horse-flag-animal-farm-decorate-america-independence-day-flag-4th-of-july,Cool Horse Flag Animal Farm Decorate - America Independence Day Flag 4th Of July,https://cdn.shopify.com/s/files/1/0295/8560/4668/products/5.28.5.1.jpg?v=1622530550
https://doringraphics.com/products/do-not-panic-and-eat-organic-flag-pig-farm-decorate-america-independence-day-flag-4th-of-july,Do Not Panic And Eat Organic Flag Pig Farm Decorate - America Independence Day Flag 4th Of July,https://cdn.shopify.com/s/files/1/0295/8560/4668/products/5.28.4.1.jpg?v=1622530242
https://doringraphics.com/products/funny-pig-oioioiink-flag-animal-farm-decorate-america-independence-day-flag-4th-of-july,Funny Pig Oioioiink Flag Animal Farm Decorate - America Independence Day Flag 4th Of July,https://cdn.shopify.com/s/files/1/0295/8560/4668/products/5.28.3.1.jpg?v=1622530153
https://doringraphics.com/products/the-world-with-pig-flag-animal-farm-decorate-america-independence-day-flag-4th-of-july,The World With Pig Flag Animal Farm Decorate - America Independence Day Flag 4th Of July,https://cdn.shopify.com/s/files/1/0295/8560/4668/products/5.28.2.1.jpg?v=1622529996
https://doringraphics.com/products/welcome-to-our-pigs-family-flag-animal-farm-decorate-america-independence-day-flag-4th-of-july,Welcome To Our Pig's Family Flag Animal Farm Decorate - America Independence Day Flag 4th Of July,https://cdn.shopify.com/s/files/1/0295/8560/4668/products/5.28.1.1.jpg?v=1622529752
https://doringraphics.com/products/cute-pig-sunflower-flag-farm-decorate-america-independence-day-flag-4th-of-july,Cute Pig Sunflower Flag Farm Decorate - America Independence Day Flag 4th Of July,https://cdn.shopify.com/s/files/1/0295/8560/4668/products/ABSRlIooIwcWUkEikMOYjOg12r3aYwKddJh3GpMnSmCMTZBKkWMU3BB3jq3ohDgm-D2Pkl9ppnWRB_DaaJV-8f5yVuooPK8Ym34jL5ASJ9s-RhtGmanwIOYDt7IlnDyRX5qiu-TXUWSNSoeTo5yoIfC1jV2NSsAXR7RHJO_jXMEzsobSZj13Zqv.jpg?v=1622529084
https://doringraphics.com/products/windmill-farm-flag-farm-house-decorate-america-independence-day-flag-4th-of-july,Windmill Farm Flag Farm House Decorate - America Independence Day Flag 4th Of July,https://cdn.shopify.com/s/files/1/0295/8560/4668/products/ABSRlIpZWEjR50WxvmLSW1a8nCWtJB1Bn_yBW042m05R4d4NgUnYyWGot8bcxtag647h2GTcRggxmbVNExUXN5s8zcLFPqzOdsc_wIFlJQ97XZ9k0WukaFGMzG59Q4g_znynwWpL95ikkNnMU7YUxB-nHqA1yETdFoTPAUguDMpQVXcfBvqJ6yh.jpg?v=1622529137
https://doringraphics.com/products/welcome-to-our-farm-flag-valley-farm-decorate-america-independence-day-flag-4th-of-july,Welcome To Our Farm Flag Valley Farm Decorate - America Independence Day Flag 4th Of July,https://cdn.shopify.com/s/files/1/0295/8560/4668/products/ABSRlIpyxOZWkS-UHvVNtN42padpXOo453KF4KGkISkdU-nu6TaDXDr-08zOYhYUjTTHmOJYcjq6QmuMIECmAAd-m6oYQ6jeY06bFQ_raGKwRNrh-zrHe8OPyKzdAdePS3-94DRQWIPYVAtdM_4JBvWcr27hMdnT95i-W8JJzXyFBJpK_KEszxK.jpg?v=1622521558
https://doringraphics.com/products/welcome-to-our-farm-with-goat-and-chicken-flag-decorate-america-independence-day-flag-4th-of-july,Welcome To Our Farm With Goat And Chicken Flag Decorate - America Independence Day Flag 4th Of July,https://cdn.shopify.com/s/files/1/0295/8560/4668/products/ABSRlIqb6ZEzv1qrQb9rMz183tUqinOE0OsIjBuTs5P34aLCxk3nx_WpHWDpRaK2lAAKM88C1U8R5o9FLxoulCmr80u2Bd2C6-4xRHN9FQkR87ZjVEdOaXh5tpWL8gGaLTS4hiAit50y6ptgWF_n0cLBxWPw4iK5qaiZtGvgGeVBWyLDRnNQXOU.jpg?v=1622521396
https://doringraphics.com/products/cow-in-field-flag-my-farm-decorate-america-independence-day-flag-4th-of-july,Cow In Field Flag My Farm Decorate - America Independence Day Flag 4th Of July,https://cdn.shopify.com/s/files/1/0295/8560/4668/products/ABSRlIrSnnI_27J7dawNZmyKV6508X2OU2pVjwe0Mj9i3oCvLTrU0BmxvoVqREmH89iXZXRFyKd2CmKZsy6qKMMb43QYmyahUwFfQt9aodOBP64leeMJf_-QQwqn8speAJ0_bzVHmbQZ4o8w0vtqa-UKNyaSdaNOzvow4oMHojkaCH-3X7d5XJ6.jpg?v=1622528716
https://doringraphics.com/products/cow-and-sunflower-painting-flag-decorate-america-independence-day-flag-4th-of-july,Cow And Sunflower Painting Flag Decorate - America Independence Day Flag 4th Of July,https://cdn.shopify.com/s/files/1/0295/8560/4668/products/ABSRlIpPa18gtIzupQUtcV91lWhw7FZkA9cB-ex-XZU6vDyinWY8ktVyCRpSdY3bVwL86GpSVUUcFBxoRsOZdPEXuzfvp8Gr2emQRhZ9ECJM189hWLzcYFHkiyZs6hrngIt71jKx6eR9huRfUnbkElL-kITIbCrejuN23B7dEZVdHQEz0-QbidQ.jpg?v=1622520935
https://doringraphics.com/products/cute-cow-sunflower-black-and-white-flag-decorate-america-independence-day-flag-4th-of-july,Cute Cow Sunflower Black And White Flag Decorate - America Independence Day Flag 4th Of July,https://cdn.shopify.com/s/files/1/0295/8560/4668/products/ABSRlIp2wifC1hM_xsWsMw-fiDCeaSTvLr5-Vm20tVRBwwgglnGJKINRBnoEgXN9nGosLxUQDByxkfvUaBr5Qw_VZ0LUsk88LDNL2NDuxMi1K8Dt1Q2C0B0zcu20602GFp_fa_JJaNKvcrStDN29peji4fEkPPFfZ6aN9wHYRJJpxWjqny2bHpe.jpg?v=1622529262
https://doringraphics.com/products/i-did-not-choose-farm-life-flag-farm-life-chose-me-decorate-america-independence-day-flag-4th-of-july,I Did Not Choose Farm Life Flag Farm Life Chose Me Decorate - America Independence Day Flag 4th Of July,https://cdn.shopify.com/s/files/1/0295/8560/4668/products/ABSRlIoNQySBA9JJiHOCJpTmZ4M6F_coPw9QxMYwnCzHKkwn9kFwRXF_a3ILouhMc3sYwySWFLNOj-ywGpIJ2yIYJonLd9-WVXNag5vCqsrXNiIKMlvbuGjc_C5ha8Hiu7Xey5cDQR4rL8u4I7_-lOD_RTxAlIP0aOmVj_1kBFmqFaPI8mf7OMP.jpg?v=1622520218
https://doringraphics.com/products/lovely-pig-loves-sunflower-flag-farm-decorate-america-independence-day-flag-4th-of-july,Lovely Pig Loves Sunflower Flag Farm Decorate - America Independence Day Flag 4th Of July,https://cdn.shopify.com/s/files/1/0295/8560/4668/products/ABSRlIqon-uxQr9zuPTRvPEfaR3rTJy0Sf09iUY8cudTnBz3BMCnxafm3nVLePoAQ70YE_53r2wPaMJuNt39OXsJcy6NoCiNLQ3Fu6dLzJiyp8QPKVSbvOiRcFRHe4FJvY_WoV7TVAp4kHurUXOwKYtIInnjNrrrSarATGLYlzsRQD50KTopsKK.jpg?v=1622520128
https://doringraphics.com/products/cute-cow-loves-flower-flag-decorate-america-independence-day-flag-4th-of-july,Cute Cow Loves Flower Flag Decorate - America Independence Day Flag 4th Of July,https://cdn.shopify.com/s/files/1/0295/8560/4668/products/ABSRlIr0bnY8kdLNCslOWlfF-tvzGLTS7QV8UdYoMFhJHaHI5QkQXTo0LmpW-LWs2ey8Yg57mTENxy33S8Uu6ADSVlpACg2ZKgU0qoD7w8AcBi9oMGXZaqnPAKU3DLvvra-XdcOnV7xGNfghz5PfGzpZ3u23qVDIFDqzYwKkyoNTWrHY-GETq3w.jpg?v=1622519985
https://doringraphics.com/products/life-is-better-on-the-farm-flag-sheep-and-chicken-decorate-america-independence-day-flag-4th-of-july,Life Is Better On The Farm Flag Sheep And Chicken Decorate - America Independence Day Flag 4th Of July,https://cdn.shopify.com/s/files/1/0295/8560/4668/products/ABSRlIqqsIk04NAnWHUHlsdQS1yc52hEtaHY8i8M7Ri-8KvyWjq0h5zDinEPB-Qqv1y6RgZN1VwN1WltdBvckCHl8kPPw8iNvp9ETocmat8RvGnxUv5HPL_5kDPBAof7D_DV-OQ7Afg0KMIIPP3chJghK8TJy2uDYUpZ1oTLO04AJ5B5qMc_WF8.jpg?v=1622519917
https://doringraphics.com/products/chef-pig-flag-decorate-america-independence-day-flag-4th-of-july,Chef Pig Flag Decorate - America Independence Day Flag 4th Of July,https://cdn.shopify.com/s/files/1/0295/8560/4668/products/ABSRlIrgXw76YRdHGlAgTEiwRGQPH9x8lX674-EgtQMNXRsdp2bblq26jSbA3j2WjntbQuoO-3s-bzNxO8lPLmpsqu6mVRMg-P9DXTBhhVoLVkA5GIY47uJKP3wJG-IK0vcarqWdzFOrNh9tCLS81Ro9A9_-2uFtXeCdzUimJ-zemNJLilQlDdT.jpg?v=1622519753
https://doringraphics.com/products/cows-funy-cool-glasses-sunflowers-flag-decorate-america-independence-day-flag-4th-of-july,Cows Funy Cool Glasses Sunflowers Flag Decorate - America Independence Day Flag 4th Of July,https://cdn.shopify.com/s/files/1/0295/8560/4668/products/ABSRlIrL1ySyPvJgkJU-ZwBs0xjfvoqN09N3VAgFHQJZqhD_N6yyuDTwTXsJjqAX0yt-j-awFDW-QKHFypjc3m7FKqLVIYxreFmGlfBhP3ZgA6S2U4RhMQtdJlg5yTK1RAasDHEbyesDSIPN1sXaCOagC6WWNLK3u7Hh6_I5bGpAD8YRHU_swQ6.jpg?v=1622519516
https://doringraphics.com/products/my-farm-in-the-morning-flag-decorate-america-independence-day-flag-4th-of-july,My Farm In The Morning Flag Decorate - America Independence Day Flag 4th Of July,https://cdn.shopify.com/s/files/1/0295/8560/4668/products/ABSRlIpRqCoWd1bbDUCdwEzmT74XCb7emk12b-gh4B7QyZKSeKo2_cmXJOqfWWZbXCZT4IG0Sh-HTS47f1ZCwIya0MyggdjzNhXFJmTZck8RReoydBiuRvaQaeSuVe78KsXhmIiavRQV09Jw7PqROZzU19WnNzhJeHEl6LPAcA34RY1pdy17udq.jpg?v=1622519411
https://doringraphics.com/products/happy-farm-life-flag-decorate-america-independence-day-flag-4th-of-july,Happy Farm Life Flag Decorate - America Independence Day Flag 4th Of July,https://cdn.shopify.com/s/files/1/0295/8560/4668/products/ABSRlIrDPv6YdQ32koPqWmQdzPfZBQP6L47l54mrObHAS4TVnjsgahORmaRM2SUhwJfCenKCKEqIf8_wqm1aZ-i_Uwy9yfnVvQKT--A_bt_OSe2X3hywOGaV53YaUM_8j1j16IEO0tfdatlFDOiz37PCYRXoF2ZzT8NFIlN3Knm7s5H1tpuguRH.jpg?v=1622519195
https://doringraphics.com/products/chicken-family-flag-farm-art-decorate-america-independence-day-flag-4th-of-july,Chicken Family Flag Farm Art Decorate - America Independence Day Flag 4th Of July,https://cdn.shopify.com/s/files/1/0295/8560/4668/products/ABSRlIr7lBlZ-V-ZZHR1XtJMNX-dN5xKiNH4HV5Wz9Dk_vdj2HhRpimVJhZ0C3x-5e8UD9_-Lerike89HnWM0HxY9yZ34U8_8-E49WhFTcSYNU04UoUktTRl5RhyeJZaXl5Bexp5a4k1HLBZaCJAO755FgwbBan9liF-GB8ChAfTNSifOIarqxR.jpg?v=1622518809
https://doringraphics.com/products/cows-family-flag-funny-cow-sunflower-decorate-america-independence-day-flag-4th-of-july,Cows Family Flag Funny Cow Sunflower Decorate - America Independence Day Flag 4th Of July,https://cdn.shopify.com/s/files/1/0295/8560/4668/products/ABSRlIrZhUHyHasvS9r0iR6xFsBGtG58b3BzU4qqhwbLUgbLka8NWcTQzyo6G7ydzWp6oFZynI2ogpSlgs2lR28SNvsE7piq9ceXsCLIStJbFtkdsfpGmggSN2GpnV-vhguPWBdJbmfvKjZX42McwUrmq0aiMkqU6e-i1TTGLqWpZcBC7t_2gXv.jpg?v=1622518718
https://doringraphics.com/products/welcome-to-our-farmhouse-flag-goat-decorate-america-independence-day-flag-4th-of-july,Welcome To Our Farmhouse Flag Goat Decorate - America Independence Day Flag 4th Of July,https://cdn.shopify.com/s/files/1/0295/8560/4668/products/ABSRlIr0xomnHgrNoIt09OowyFMRTShjHuYcIY6AuKeARxZtHQ2P5aPqv981rRa8-R3LbKu_DAFDOKtwVeOFtUIKidrXqq_ezQVI2oyhE_GV2GEXOT_epftObkKMj_REJp4m8SOx8ixug9UQTTBQBnCjJ3RX4UnvDqTh2YFAxeZ8cGTs8G4N6yn.jpg?v=1622518636
https://doringraphics.com/products/cute-pig-flag-america-independence-day-flag-4th-of-july,Cute Pig Flag - America Independence Day Flag 4th Of July,https://cdn.shopify.com/s/files/1/0295/8560/4668/products/ABSRlIrNRwdMdypN2su9QLrQX_O1dZtnRIjM9JSapCMsnOeGDCXZcElf9h-O_DSscdPUx4--w4bQmtU9OoMgjy4jbe2nq7csURe6HEO8006TiwVagdk9QDlBYTE58JO6O_epeqyNP-WTdoQEzs5hmVrUpWC8kyor1cmSYWYujS2S5bWKIuVt2_G.jpg?v=1622518377
https://doringraphics.com/products/farming-is-not-just-a-job-it-is-a-way-of-life-flag-america-independence-day-flag-4th-of-july,Farming Is Not Just A Job It Is A Way Of Life Flag - America Independence Day Flag 4th Of July,https://cdn.shopify.com/s/files/1/0295/8560/4668/products/ABSRlIrdViamQTvCZEqqUN_VPmSmNIsD_K92rGOTaJmLA3UuRIrbFIz7MCOxSEJk8I69rtzHWorxbWd1ZWChkTA-wHun7OD7ePNVLvF7rqsWChmAqChTxigQhTGZbD3fZj0I6PLf4AtL6XIm12_A4FJ6OONzD6Q05fgW9jfplQQkMb4Qb8V2FkE.jpg?v=1622518194
https://doringraphics.com/products/daisy-cow-with-messy-cơ-hair-flag-america-independence-day-flag-4th-of-july,Daisy Cow With Messy Cow Hair Flag - America Independence Day Flag 4th Of July,https://cdn.shopify.com/s/files/1/0295/8560/4668/products/ABSRlIrjowU_OZgO8fXUAZcpbKS6AReepcnQMGgHV085jxonmLSBiWoytkU9Yp_fNqG9z63suebNhSGdFP8_66iHznGdd2g1_HtL6BXOcTxERcGxnz4q9jF05l9HsG5oRFKSUHulzzCWqS-V33aDCBAOMSVXxTKUO7tvtjH_wS2wUNP6HWelwhV.jpg?v=1622518064
https://doringraphics.com/products/beautiful-butterfly-flag-hippy-decorate-america-independence-day-flag-4th-of-july,Beautiful Butterfly Flag Hippy Decorate - America Independence Day Flag 4th Of July,https://cdn.shopify.com/s/files/1/0295/8560/4668/products/ABSRlIqAc-luxLCK0rEeEUv9yTRi1sHq-tFiDdBCqvFYNlXhBAGf_RawZaG8Amgax6eyTrFyjBVt9pTIiXZWaCO9enFBPZC9rQWYYo4SG7aJ5v18eT89bLdZq-2SraRNLe0tAG4Jrd3gurn_FJxoOwFhUFVFXrNcNX8voSYTHw8ENT4MSIeO_ZJ.jpg?v=1622190699
https://doringraphics.com/products/bus-hippie-with-butterfly-in-the-stars-flag-hippy-decorate-america-independence-day-flag-4th-of-july,Bus Hippie Butterfly Peace Flag Hippy Decorate - America Independence Day Flag 4th Of July,https://cdn.shopify.com/s/files/1/0295/8560/4668/products/ABSRlIo4pjrpQ7hDFStscynR-Mu8FI8YjaI-4VR0t2cy4AFo2zsaGm2W1zcImYm1PJrbFFgkkqTSyAqTKuzi9VVR8LtdJNUaPsCsISJyAGI5Wd9IC8zffDc5TnaYhTZqFyEFlQWOC1UtoK_T6_gM2p-iBgP2fBrPc2pJq8fRkZbc4u23aoY63op.jpg?v=1622189302
https://doringraphics.com/products/lovely-hippie-girl-flag-hippy-gifts-grandma-hippie-mom-america-independence-day-flag-4th-of-july,Lovely Hippie Girl Flag Hippy Gifts Grandma Hippie Mom - America Independence Day Flag 4th Of July,https://cdn.shopify.com/s/files/1/0295/8560/4668/products/ABSRlIoUSjQ187un0SuS913PjEiplZRonZM2rNbuOuwMDEfDSJNcmBpoHcfI8Pcs4DBhel-oliN4L1omWI3bvB_SbIkzKSBwU32shKC4KZ4TmpXuAjRAP9z27RgnwhdlyKmuIkmgSnXxxrScr1DXLvJF6QKO-ivmSTfR-g6Yio3x1SIvrox_Hit.jpg?v=1622188787
https://doringraphics.com/products/hippie-skull-flower-flag-hippy-tattoo-decorate-america-independence-day-flag-4th-of-july,Hippie Skull Flower Flag Hippy Tattoo Decorate - America Independence Day Flag 4th Of July,https://cdn.shopify.com/s/files/1/0295/8560/4668/products/ABSRlIq4mYvVjPNgChD7hNSPJMCytOL9YAhtrtS3bh4u3ggI80srUZdWqlT01tdPfKvt2MS3LwOA6Rl5RAjtO6giwzcC_Nv3O2r287djnz0q2rWaK8PcHrl1VCDDTWUIcax1N0TXU7zPuTBpPt5HUhFAs6-wnIoNk3T4lRlCFXdshvRTDnF5KsT.jpg?v=1622188543
https://doringraphics.com/products/hippie-girl-on-a-flowering-field-flag-hippy-decorate-america-independence-day-flag-4th-of-july,Hippie Peace Girl Flower Field Flag Hippy Decorate - America Independence Day Flag 4th Of July,https://cdn.shopify.com/s/files/1/0295/8560/4668/products/ABSRlIoTtBOhSaTZbiYpdnTLhU6YWeTRb2m7RYEcVHyG2s8zQYOhGKam0gTQd3bQcqtXoIoAxsnHK51-M3LtOyMgUfS5hrz8f1d_38NVUxfQmm6GwyzgzcPWEiDTdBNMWAP1OSXDGSvuM_MVAjpLUA4KhlaUxGgbQcETeVGnEkK9Foxp-wUJd-f.jpg?v=1622188302
https://doringraphics.com/products/peace-sign-from-leaf-flag-hippy-decorate-america-independence-day-flag-4th-of-july,Peace Sign From Leaf Flag Hippy Decorate - America Independence Day Flag 4th Of July,https://cdn.shopify.com/s/files/1/0295/8560/4668/products/ABSRlIoKuYyy05m2yVL8-TftYTDeMqenLXlJZtZg62fddcvlf4_kIKU-Tk0Z4WvTmRgtCDuR7z4OmI3tyAk5qGsYBrcIxeHD_bRgWQ3zrvnoMRuCQxK-GpQQ22Zi5-QF4igFSiVsa1YJGJfxdHh-kv3yF7yiTIUqe9rZxgCaUxe6R1RB_v1pfaF.jpg?v=1622187946
https://doringraphics.com/products/leaf-usa-flag-funny-weed-hippie-decorate-america-independence-day-flag-4th-of-july,Leaf USA Flag Funny Weed Hippie Decorate - America Independence Day Flag 4th Of July,https://cdn.shopify.com/s/files/1/0295/8560/4668/products/ABSRlIrIUjZ3QlI2VE3q11sj1B6WLPJ8n4BPD_iMppnkRlazne_PEg5aJ1zinUCwNXKsgzEOXX9iGZvg5ZG087qjR4K69TBI-K3USuUt0UHpE7nPcZk-tPjU7Qa23TVPt_e4XMCd48TZ7WWljrX1ug4B53aik3PgI-tzkIC7NF6AIfGf0e87IOc.jpg?v=1622187538
https://doringraphics.com/products/monkey-funny-weed-hippie-flag-america-independence-day-flag-4th-of-july,Monkey Funny Weed Hippie Flag - America Independence Day Flag 4th Of July,https://cdn.shopify.com/s/files/1/0295/8560/4668/products/ABSRlIoJKMA1L9ks3gr8WQsZ9rOwOYM-w6coJYDUiY05HrvCuFrJutHqwdk-G3bZGUrbeObzQmU07x8JcfoHY03XzvEbbi6K9Q9CCOr0uxJ5u2V5VguqHsL5kmJMtWKQEPOXtWX3XIh2blqz9eIXx9aglmd_zudVOBi_NVPPWFI_3NWWJlWzH-3.jpg?v=1622185458
https://doringraphics.com/products/cow-sunflower-usa-america-flag-farmer-america-independence-day-flag-4th-of-july,Cow Sunflower USA America Flag Farmer - America Independence Day Flag 4th Of July,https://cdn.shopify.com/s/files/1/0295/8560/4668/products/ABSRlIoqE9sr5eVXuCTTHwOd30dhqXkO33YCwPRFEsc-IXL3l9WIbESwByIaeXDxt5fDoK1FPA9Mre46t_PcgubUlqITDSgNpx-IZyz2ygdHDU2BTHMgjsfy8VpwQZ8tlz_VSNO2bH2QW6vlSBuQF2uoV5mEH2HtBrZn4jnxYpalOPhiLY9oLjE.jpg?v=1622185241
https://doringraphics.com/products/cute-cow-loves-roses-flag-america-independence-day-flag-4th-of-july,Cute Cow Loves Roses Flag - America Independence Day Flag 4th Of July,https://cdn.shopify.com/s/files/1/0295/8560/4668/products/ABSRlIqDaIEN9c7oY7reZUe2C07QBsTlHBl6VOYv_27nZBIF9oRyFVEpRP1Lhkc-NBEEhFu0cokx0nI4Ug9PFruyVf8dsR0bv57Cz0TSa4njUoDrTtFekk34rDyoMus6H-I0gTK08iwypzH2kqJaqTlR77DzGMjYy_A9Dm0_huK82E1DPEgpdNn.jpg?v=1622185019
https://doringraphics.com/products/cool-giraffe-hippie-with-weed-flag-america-independence-day-flag-4th-of-july,Cool Giraffe Hippie With Weed Flag - America Independence Day Flag 4th Of July,https://cdn.shopify.com/s/files/1/0295/8560/4668/products/ABSRlIqgFJyfmAR62QMKIucQa6_B4fWHOdSaY0maqmpCkMs5FLMVc_xlCEfTLyj16fCpJoCFhYlOJVQRClXGGk8NdqDyPeDiYAvp04eCVSjQr8qIrVzxlqKhAZvJhm7B6c8njZ1cqCjjB4EA2k9A_43_Svli2pL_tn670brCThbZXxV4l6wmz7G.jpg?v=1622184904
https://doringraphics.com/products/daisy-cow-with-flower-flag-america-independence-day-flag-4th-of-july,Daisy Cow With Flower Flag Gifts For Country Girl - America Independence Day Flag 4th Of July,https://cdn.shopify.com/s/files/1/0295/8560/4668/products/ABSRlIrZpXbhyGUxSheqL8A_AcjckeP-HWo4DntU8AIlHPshYZiiKvk7NPM55D5T4CC5WtGC8Sg8jKxqUsPbIKxk8vPJbKi7M7de0MJbwWPyIspVt-g_r6rZotgTdeM_LWR4MtObDVhbO-mRtlEDwYQt6LIqQ-2mpvo8b3oeW8Wp6nscyyATdev.jpg?v=1622184708
https://doringraphics.com/products/funny-animal-farm-flag-america-independence-day-flag-4th-of-july,Funny Animal Farm Flag USA - America Independence Day Flag 4th Of July,https://cdn.shopify.com/s/files/1/0295/8560/4668/products/ABSRlIohXtvzoJq2flTxvI-mY-1dx0f3XVPUIKjVE6I77lOQdYib6LU2q5ib-rxW1x76Y9VQNIjmaqawnyWGf6vP03j4obQydie8qYUmeQunBGtWNaLG6kiu8b-7_rVU6qEOwPenMrYMKaDae5CsbuYdawsjTJm1EIV3cnvdIfrzbzChLsynZj5.jpg?v=1622184559
https://doringraphics.com/products/cool-chicken-and-sunflower-flag-america-independence-day-flag-4th-of-july,Cool Chicken And Sunflower Flag - America Independence Day Flag 4th Of July,https://cdn.shopify.com/s/files/1/0295/8560/4668/products/ABSRlIoV0uBefeD0ZUGn0d3GkhqBvZajCmxOY3nxqdvDePMeDAF6Y4kC1VBfNzK3iB2SbD5FfH-NfW1cvxB_ZDprFCwe1H6lhYuRq8nY7N4dck_43CRBYlYUXe3UY_i3BwaPRFqeizBsth950jVTZNCzb0Z0GT5ne76RtUrwRjp2omXLF9Bx8j9.jpg?v=1622184450
https://doringraphics.com/products/sunflower-skull-girl-tattoo-hippie-flag-america-independence-day-flag-4th-of-july,Sunflower Skull Girl Tattoo Hippie Flag - America Independence Day Flag 4th Of July,https://cdn.shopify.com/s/files/1/0295/8560/4668/products/ABSRlIr3OxyDfxDKFpPskAtawwcoL9Sx77tFr3N7SDsGODpJitumdu_HiO5jtuJcStvW0Eb3MECacBitswFDyUxpmarEYa4wNzPSa9HBuyMmCY5TYPpzF6rCsDvyuXlp24LwhdyPaoVUwDtDw_g45mdy62Rg-5FJpCJItztbP2nTQ-GgH9HtEzl.jpg?v=1622184255
https://doringraphics.com/products/lion-hippie-weed-funny-flag-usa-america-independence-day-flag-4th-of-july,Lion Hippie Weed Funny Flag USA - America Independence Day Flag 4th Of July,https://cdn.shopify.com/s/files/1/0295/8560/4668/products/ABSRlIomCwte1D4K3uhviaXmGsgG36QoJsLwxlZJ-yme0X0T1-TbZTtT8yt0Oemwp6P7W8Lm59cJ-DfCUXecbpSx0AGHr_efxe1zBDjVrcsdQBZJ0QG8JFGxFlThjsXNi2mu3CMzMPkOrBWUJ8nuoxugxkDBhKwdCGmmxHvRwGlVDwDTnvxeTr7.jpg?v=1622184194
https://doringraphics.com/products/chemistry-dinosaur-t-rex-weed-hippie-flag-america-independence-day-flag-4th-of-july,Chemistry Dinosaur T-rex Weed Hippie Flag - America Independence Day Flag 4th Of July,https://cdn.shopify.com/s/files/1/0295/8560/4668/products/ABSRlIqjviuTfd8E3uIDTwJ3CJ4tftwSOlZkjac4meXGu9eNsWeAE_zpoZ-wC8jGe2RqoK7yHYCSkSWKN9n_SAeFCOgfYOU3VVa7bkMRfJ4XKlvWvgoqp7SxeN2_jqvnQ-j37HaQ62H2feeKvv7T78MbMEOJOPilCwmrocjeTufzES2VPyGvh2N.jpg?v=1622184045
https://doringraphics.com/products/sunflower-cow-farm-girl-country-flag-usa-america-independence-day-flag-4th-of-july,Sunflower Cow Farm Girl Country Flag USA - America Independence Day Flag 4th Of July,https://cdn.shopify.com/s/files/1/0295/8560/4668/products/ABSRlIpV3E4cz3wxq7Kkba97RtFg63MbXOgafjgy77gEb_ICVJmst4SYZbOwS7XxW-z4yRxPoH4zA-KQzZELeCuEy2Y9hn6KLChq4hTY4h7gOBWj14IX92iWhLprHp2N5XjMg9cIBeOW5WPcWS_nNpEbPZ92OeXVeDPw0vIpUcQYk32HTjoG3jI.jpg?v=1622183733
https://doringraphics.com/products/native-america-girl-art-loves-rose-flag-america-independence-day-flag-4th-of-july,Native America Girl Art Loves Rose Flag - America Independence Day Flag 4th Of July,https://cdn.shopify.com/s/files/1/0295/8560/4668/products/ABSRlIq1i2zsMJy2-oQ8hFwIV3VJ-kYEYgkQRpA9fccrgvVR15FFrNOnm6sdm8BskoIx3Dbsl6F5t6kRLuo-DEe7CjJkL_OQyrZmNJZgao5K1BBoEXNxs0FVu-YIsqRXcfYjN5EIJqMNgaeo0bMrWI8me6_G6uzb4JaNp7bAZBp7P4ZPfH4ml4A.jpg?v=1622183528
https://doringraphics.com/products/owl-cute-colorful-cool-rainbow-geometric-hippie-flag-america-independence-day-flag-4th-of-july,Owl Cute Colorful Cool Rainbow Geometric Hippie Flag - America Independence Day Flag 4th Of July,https://cdn.shopify.com/s/files/1/0295/8560/4668/products/ABSRlIogdO_zNFzXbXXKWEHTcAeL8xPSM2q6lKVKOOElre8XN5IPjhQMt0rMTqzwqiu2obEl-bsORbf1lamq3dQR4QOcnb1H6Xr0Cp7gpmr8EKEe_v8Tcd1IXbG5Z4_dPldWIyVM3JIfAmJWFl-XKK3odDk7L8fYPf8tzL1_yAqbrcm5O92qFHK.jpg?v=1622183088
https://doringraphics.com/products/colorful-owl-hippie-flag-usa-america-independence-day-flag-4th-of-july,Colorful Owl Hippie Flag USA - America Independence Day Flag 4th Of July,https://cdn.shopify.com/s/files/1/0295/8560/4668/products/ABSRlIqyW_alD0vAjfPm6S5DPtBchtrUUwr_jAP5WDgJlf1LQe0ICD7vhdyeOJ5EjQCkCiaX8nwuEPnLE5FfroRPrAQkbVOMU2vPeUB06LKNOsaSTCB2iEB0L2Gkxg57nRl3qk9AZ3XwgUEzPukL8W8gjXDcjJ5HN81LPfFBzex2r_X7TR6TQiN.jpg?v=1622182861
https://doringraphics.com/products/old-man-hippie-skull-tattoo-usa-flag-america-independence-day-flag-4th-of-july,Old Man Hippie Skull Tattoo USA Flag - America Independence Day Flag 4th Of July,https://cdn.shopify.com/s/files/1/0295/8560/4668/products/ABSRlIpivQE_l7mQUV7lmX0a85X7DSyCWFeLKG9rZ3IUH8UwAIeFOVItzNENZbsoU7I4yepONoWb_A5JWJxBBoXK4TQH-yo6yza39Qyh-S49KYErIE3-K9HxFGg4at1KHtX9UpckmSAQgkwKnqWUHkd4Ps3mZ6D8HcH0xO6RTZRGLUaJ-rnBpRj.jpg?v=1622182688
https://doringraphics.com/products/pineapple-smoking-hippie-flag-fun-vegetables-america-independence-day-flag-4th-of-july,Pineapple Smoking Hippie Flag - Fun Vegetables America Independence Day Flag 4th Of July,https://cdn.shopify.com/s/files/1/0295/8560/4668/products/ABSRlIr3e4lCTBtqL_p-uWR_5cJqYQ1skaQDTQFWLvf6S3RBVWGyV09YPhGKf7R_LVUy2LZqdgJXs9KC6wJatPXYqpz4cGZnccuyRtaaN9uMQcFUHNi4i5lZ6FmmjvvaCAooP2GSgIaHDs92A57Z-DtKlapz8I5sUBq-k63tUv8MKce6L2g2GLK.jpg?v=1622182611
https://doringraphics.com/products/jeep-funny-hippie-flag-usa-driver-america-independence-day-flag-4th-of-july,Jeep Funny Hippie Flag USA Driver - America Independence Day Flag 4th Of July,https://cdn.shopify.com/s/files/1/0295/8560/4668/products/ABSRlIo4aiKoDBHxPIJAewd0D2AMNHbtfIpn4GHZqnc970V2sfZjKGKlIFuOGW-LGsXlOVyRg1bP3lBjtYxddFZ6BbjTzOq8uPMAdDtfSGSHQd1hNIidsU4m8HnPBNtu4eXbkgzZdS-hl9cF8KA2R7wVtGQZz7K441cGtb_b5oYsfuyE7Lu1MsR.jpg?v=1622176432
https://doringraphics.com/products/sunflower-faith-in-god-flag-america-independence-day-flag-4th-of-july,Sunflower Faith In God Flag - America Independence Day Flag 4th Of July,https://cdn.shopify.com/s/files/1/0295/8560/4668/products/ABSRlIpR-EmBLDjypiv6V5M2W4SJqWmJTDwql1OpdOD3_Tio7OmeMOP4I5uI36CDNaR5KLrbIW1Xw1AJxcA0AlOqVSNS5HHcFfJm4-WTARvYxzWZY_5uWPzwcIZf3sBa5CHdDnnX_pqgJ7okj1LJFtAYVRN1pBBXoAIoP2hQ1C7hxw692WTSyVh.jpg?v=1622175728
https://doringraphics.com/products/funny-old-man-hippie-colorful-love-alphabet-hippie-flag-america-independence-day-flag-4th-of-july,Funny Old Man HIppie Colorful Love Alphabet Hippie Flag - America Independence Day Flag 4th Of July,https://cdn.shopify.com/s/files/1/0295/8560/4668/products/ABSRlIrzmnqfRrB4tT8ur_ezV_CXQ2hvZDSaSef0-CTyV1HU2CrRSEumhaXyqG0Y4sWamIaWnowt9IELA-NufTyvpmqtNlNwogATpB3nOk_IVX35-jSBrGtPQTXYaRapy5eK1rPacQkTBxN4bDVPPlC7GjrO2gFw9PB5YSc1t_7nMJwJiZDVUuS.jpg?v=1622174618
https://doringraphics.com/products/chill-and-relax-funny-dog-hippie-flag-america-independence-day-flag-4th-of-july,Chill And Relax Funny Dog Hippie Flag - America Independence Day Flag 4th Of July,https://cdn.shopify.com/s/files/1/0295/8560/4668/products/ABSRlIo4E50DK7MVxisnCZF4Emmp_5kyKqVCUAxNob103u2VxycxN7ZCFdOJSXQmImeZr6RuCuI59eNIdYGmp-gnUJSsr3sz78cb6TW72wXuKHq6euia46sEynWe-GgK-iC0odqNd9ThbqF0Z-LaiNJ6ID3vBUjWoEpUsNkty0nv4083X1BjVZQ.jpg?v=1622173901
https://doringraphics.com/products/old-man-hippie-with-guitar-flag-usa-gifts-for-grandpa-america-independence-day-flag-4th-of-july,Old Man Hippie With Guitar Flag USA Gifts For Grandpa - America Independence Day Flag 4th Of July,https://cdn.shopify.com/s/files/1/0295/8560/4668/products/ABSRlIoeXDvIHoTQMkmelZBOCnCa06mqND0jJVAQy7_Kf9D7hHBuvaT4uYR_xHAWFO6u4XFmo55lMT0b9eCfumFcr8g-VGk3ACbtOTkiSAQnFrGd0sE1r0g-P4GkIGTf3Ke8PFTrQS9h69CRjVmVpsPB1DkZVvSEcL2HrNeOaKRFetXvGQzFFGk.jpg?v=1622173403
https://doringraphics.com/products/chill-turtle-loves-weed-hippie-ocean-girl-flag-america-independence-day-flag-4th-of-july,Chill Turtle Loves Weed Hippie Ocean Girl Flag - America Independence Day Flag 4th Of July,https://cdn.shopify.com/s/files/1/0295/8560/4668/products/ABSRlIq-70R2qr7m8_G6yOy-0-kq-0L5ucU6P2iYfFHQEbNEJU1qTzKjiCzLUSoZ_1cdTnasQQEwVT19Ipa96p1D06nMalw-5F0bVwP4kzf3Jf3w7oq5_mI0Xyz2qDaUl_9tVeKQeC7iUeaLDtFjhhmleNomlFtJjwRGXpX0U1-yjjlZ8p-m8c.jpg?v=1622173115
https://doringraphics.com/products/trippy-hippie-bus-sunrise-beach-chill-peace-flag-america-independence-day-flag-4th-of-july,Trippy Hippie Bus Sunrise Beach Chill Peace Flag - America Independence Day Flag 4th Of July,https://cdn.shopify.com/s/files/1/0295/8560/4668/products/ABSRlIpnz--rRzSBci6outTFMid9V4JX5fgj2gfNOFE6LUC9WzqdWoDHulbOfGjQ9ZYlrDYRe37Q4LSfgF31KKdTtCZ4it10-8PuVb7dbyJaG0Ffq8aFunUntvCZPUvr2-ffZvMkZiljVkF4KKEZS2L-Mjfb7lQ9KAsSLlfEsjlfheXg888NaSp.jpg?v=1622172974
https://doringraphics.com/products/black-cats-sitting-in-the-hippie-peace-bus-flag-america-independence-day-flag-4th-of-july,Black Cats Sitting In The Hippie Peace Bus  Flag - America Independence Day Flag 4th Of July,https://cdn.shopify.com/s/files/1/0295/8560/4668/products/ABSRlIoqXc8LEyo5XrYaTee8V7UW_TNAmP_UaWu9cuHZt52ihvHl56F5rPmCd3Raw4KvqtFDD4V1if-l3HabSF255dWuZ5u-bGlbvJbKCJcR-FhCadDnTEu0s7ADcTjdtrIr9Xy-V1Z2Yh03f0mELPD4WL_Vc23JjjK-O2G4-VuECRUwqIAeHu4.jpg?v=1622172672
https://doringraphics.com/products/old-men-hippie-weed-funny-peace-sign-flag-america-independence-day-flag-4th-of-july,Old Men Hippie Weed Funny Peace Sign Flag - America Independence Day Flag 4th Of July,https://cdn.shopify.com/s/files/1/0295/8560/4668/products/ABSRlIrfAuBjGECsYF0aNU4_eDFkxZ6Q0Qiu81hNVKlOn7gxOIx8vfUmPKNSgx0RtF9xF0CgK58ST-b2sqyPp0hd6-H0Bark0AcQS0YKcNzt5wwhjCDDPxP3Ip88dMB7H4nTYnF6HUS4uCuoB4IGQNB_MDdsU-QvhHXPr9LZhNeaGmrtsDKdtaj.jpg?v=1622172470
https://doringraphics.com/products/the-hippie-monkeys-flag-america-independence-day-flag-4th-of-july,The Hippie Monkeys Flag - America Independence Day Flag 4th Of July,https://cdn.shopify.com/s/files/1/0295/8560/4668/products/ABSRlIr-uH8hu_xw9Dp1-j7EZ6OCLHOzptbsuEH1sl1ZNDnBDRxaOd8c2XflIw-2z696GkF9T216egIEBruJKhdJ_Z-53EzN7PqUCEPnKb8cRfRAz_KIqKQZObCeluqI3N_IHJdydFpkTwXTTUQhqlckOQ60t58eiJgiEsZvE8yS99XyBQnIPvQ.jpg?v=1622172289
https://doringraphics.com/products/gnomies-hippie-funny-peace-flag-america-independence-day-flag-4th-of-july,Gnomies Hippie Funny Peace Flag - America Independence Day Flag 4th Of July,https://cdn.shopify.com/s/files/1/0295/8560/4668/products/ABSRlIpW40fz3FWK4ARAzc9zTMktDvifyLnwxdB9IHEWkrZHoy3E-w5MXzIcJVYnYjVem8knIXhcm-67vzm4btBsusEbMadlLLznjuKULaHxu1BVpyGSgZBbTAFQR05jacxObxPrgMX-leMggJUZzdN3c37KZMzMinCVoJsq3w1cdIjebZ3A2TF.jpg?v=1622172155
https://doringraphics.com/products/frog-hippie-flag-america-independence-day-flag-4th-of-july,Frog Hippie Flag - America Independence Day Flag 4th Of July,https://cdn.shopify.com/s/files/1/0295/8560/4668/products/ABSRlIrHLjJ5htVdOTMbkRI3YfQpFCfElk3kQyiLxLbmMaEI_VBqvYTlP7oqNaLf7_uMjKfZEOtSMTrsns0P8pBxPlNH8kxJJRxplEdtBD3OPxtMSCxTbDj2AZd6sG_Yuh5ulClD7B31NP3pYQWDzi_2-tuUGvJRhc9mnDBfKe1lHi_5f1-iXSw.jpg?v=1622172042
https://doringraphics.com/products/cutie-cat-hippie-in-glasses-flag-america-independence-day-flag-4th-of-july,Cutie Cat Hippie In Glasses Flag - America Independence Day Flag 4th Of July,https://cdn.shopify.com/s/files/1/0295/8560/4668/products/ABSRlIoCpvOu8czffqOjJmD1idenmOUTAzfVny8LbxXntkbU8DzELZX2VjgsrbeoSfuxh9bAW7H6nPdX8b27HtCtSWIhLF280J6GQeiiNTzhnknRIwTuYcQq0hq2TStxn64RBFHXUFYihs4Jxq1ZF6EyYB3OgFafCVkmtAHOa2cZt25tKtE3zsa.jpg?v=1622171897
https://doringraphics.com/products/colorful-truck-hippie-flag-america-independence-day-flag-4th-of-july,Colorful Truck Hippie Flag - America Independence Day Flag 4th Of July,https://cdn.shopify.com/s/files/1/0295/8560/4668/products/ABSRlIocYAtjiNX35cGi_I-5B0Rfj9xGUqERRJ0D8vbUSTk7z9OvUkb4fysFQUTdzu-szBoRSpXrSrusNH6oUzf1e1It92b3Gp-zeY29ZmJb_WKkrdKgWopZ2zP_YlyzSWVJHARXq4QeWxYJdJ5rnTz6VJo9ZsF19r3nKhzvVA4CXXiblsByj4t.jpg?v=1622171833
https://doringraphics.com/products/funny-hippie-monkey-music-lover-flag-america-independence-day-flag-4th-of-july,Funny Hippie Monkey Music Lover Flag - America Independence Day Flag 4th Of July,https://cdn.shopify.com/s/files/1/0295/8560/4668/products/ABSRlIp5Dco17dsrYYm534770QuzklgFK8YFV2YShW8fygdyHta3KG0fWQERiOhTzFSbpSaq-0CqFxX_XsnotophDba3MBau8hFPF37h1zBS81hmDdHtf_svdcKubS5fAgPt0HW_G1GELfQ37_E4DT_hv_qgg2_CNCy_gcbiv9xWe5wkHY2Rvee.jpg?v=1622171693
https://doringraphics.com/products/hippie-weed-funny-old-men-flag-gifts-for-parents-america-independence-day-flag-4th-of-july,Hippie Weed Funny Old Men Flag Gifts For Parents - America Independence Day Flag 4th Of July,https://cdn.shopify.com/s/files/1/0295/8560/4668/products/ABSRlIrBqQTYYGsoA6OQP4SPNioq2qlgcp4dQZIWXUWKskBwWyMYxYiVVsQNCUIAaPpej5yuWftU9KuI0q2BjyWG2JWFa1kDym5TYv1uZg_eDewY-n04KyzTpcsX5JNgeCNKbXKhCJCTSc7zuxDmx7V84v40Daq9i-7bO93tl2lpenAginvRGBh.jpg?v=1622111844
https://doringraphics.com/products/peace-sunflower-hippie-colorful-flag-america-independence-day-flag-4th-of-july,Peace Sunflower Hippie Colorful Flag - America Independence Day Flag 4th Of July,https://cdn.shopify.com/s/files/1/0295/8560/4668/products/ABSRlIrotkJfsPKQx5LbmZ0YZiMbavMU9wAMpC2AJGiJNoUKMaTAO-2VlW2_5Mddfbo1vlnZp03b-_yxUuixAkKKhhQH0Xu_8aoiRjo_4Z2KbfdlVTXR5JM-WR5VGK2hzAmZGh7fJCdObJKksdALQ27BSweQaHMnyxqCdEh2zKZ5Ue6nO3rjQzk.jpg?v=1622111082
https://doringraphics.com/products/retro-classic-car-driver-hippie-flag-america-independence-day-flag-4th-of-july,Retro Classic Car Driver Hippie Flag - America Independence Day Flag 4th Of July,https://cdn.shopify.com/s/files/1/0295/8560/4668/products/ABSRlIp_wBgK6dy4jVHaievZVrggron8kmHynFQ8wwimSiDmitTTjSpm3_-NhHwwEHSyJ532mxxtLgRJ_zb96ZOTCqrNqEJ4N8rCiKHQ9-k5-3wBO3pUpS7pLR8l4wJBccc1SDm9Ar0rdA5LNjpXGmjVRGAmOTYX7mAolrJn3aD1EBNPj0v9ND6.jpg?v=1622111023
https://doringraphics.com/products/sloth-loves-weed-hippie-style-flag-america-independence-day-flag-4th-of-july,Sloth Loves Weed Hippie Style Flag - America Independence Day Flag 4th Of July,https://cdn.shopify.com/s/files/1/0295/8560/4668/products/ABSRlIpETL9vqCDAPRkhvSrDgWmFN9kcE6f5gSDA81XDmiIT0hkrT9i63_VrQ94CYIbQMJyrVqKgntOICy0tcG9UkYdfYmQXSq5rPH4Pi5WZ-fd-jsteRdqS8z0GSIYtoQ6Os3YudyIoGa7BzrmQor7_atpDaz7DcH6Mzr-ahu6Bl9ioaX8Fii1.jpg?v=1622110888
https://doringraphics.com/products/cool-lion-hippie-art-flag-america-independence-day-flag-4th-of-july,Cool Lion Hippie Art Flag - America Independence Day Flag 4th Of July,https://cdn.shopify.com/s/files/1/0295/8560/4668/products/ABSRlIobEsqtrJWB5Ga6nNkixpqc6fPHnJqcxCWRVxEFxKn5vwjEPNnjI36oenwvv4C-EshThI7zhudBuvgNN0mcwgaDUgVD5rS8LBHJr-m-6zKMZjfWjbycfrZRPGVNHimzj_IVpjdpAxYRQLJ1J5A5kSJKqQNovy6tMZNeOQ3yUnGZM4Eufw5.jpg?v=1622110759
https://doringraphics.com/products/hippie-pug-art-cute-dog-flag-america-independence-day-flag-4th-of-july,Hippie Pug Art Cute Dog Flag - America Independence Day Flag 4th Of July,https://cdn.shopify.com/s/files/1/0295/8560/4668/products/ABSRlIohGcrpdCpDBL07KYTOnNX6ucAxs7_1CtzbGgftchuTGH_MvDPFtQvMHvcdBkbG13xa--WFUD4sTyvdv2yM-lCTXrKBJm1zRyF_z_4Zd3DiXmjgNcvoQg2nItCZyCiJgJz4aYpa0hRBlK7PxXAZch3VNlTHDJi-NeGhcxu0xmxiLQ6s92L.jpg?v=1622110683
https://doringraphics.com/products/funny-goat-peace-sign-hippie-flag-america-independence-day-flag-4th-of-july,Funny Goat Peace Sign Hippie Flag - America Independence Day Flag 4th Of July,https://cdn.shopify.com/s/files/1/0295/8560/4668/products/ABSRlIplTal98kAWGi-P2l0sxlgcrmF5KtUpLBSSTGClNJ3fcCOyOIus_F6qMWZ_rA-G_Zgb13JIc_sgAdqzPxIBEOrjG6meQD97kl-ZUn6axug9gCjeJY_4IbKLDaYaqh3whT3LnAVIDmO-NxYJUymzLKWaPOOzLRvUvC3W0_2_SAtZcLeujPX.jpg?v=1622110558
https://doringraphics.com/products/sunflower-hippie-loves-weed-flag-america-independence-day-flag-4th-of-july,Sunflower Hippie Loves Weed Flag - America Independence Day Flag 4th Of July,https://cdn.shopify.com/s/files/1/0295/8560/4668/products/ABSRlIrjDGvmUpHlEMyjzFKNIbsWDb0zyF7VWEyJiG4yDcvegxPZwijX2pPztSvFJv-Qtdaauk2H-dRhpV11_jf_W0QvLY9Qq03-CSPhQl96dzxE5BP-XsJJTMD0YArjsqe1sP_-VW5js4Eflh6HK7o-Gz7VvRcRtqJ0mCy9gk72Tals7Hn3iYJ.jpg?v=1622110387
https://doringraphics.com/products/cool-hippie-wolf-family-flag-america-independence-day-flag-4th-of-july,Cool Hippie Wolf Family Flag - America Independence Day Flag 4th Of July,https://cdn.shopify.com/s/files/1/0295/8560/4668/products/ABSRlIoLAtqj54UJJDTd-nPGYnCayFOfhHXb6_RaB6zv0pZ6ekP_E7tbosJbfQephlLnCMLonIvcfZSrll4JW8Glxbz-KFnZy5Gh0pSowFH2GCPC4Cq8m-Iux6dvJNclMrbLHJRxjvOGZoSSiIeAGa2ouvl1KMr3vUiHg3Dn57iOX2oQH_P0NmI.jpg?v=1622110283
https://doringraphics.com/products/lion-god-blessed-the-broken-road-that-led-me-straight-to-you-flag-america-independence-day-flag-4th-of-july,Lion God Blessed The Broken Road That Led Me Straight To You Flag - America Independence Day Flag 4th Of July,https://cdn.shopify.com/s/files/1/0295/8560/4668/products/ABSRlIrzGLHIu05r4pYIed42AaCrtp7c1ftuRCRaiI0TM_EhufEaLDfg1LwLCJ7L6iCJVysVa3-B0J2UkZ2oYrUMozUhRcTyBswZDMD09jXGIbTrk42s3UB08pG6biiLcLub4CFv5xh4B8mWrHKfKvLhcVWie_wPYISw2ibla-AqYSkeb3df1Wq.jpg?v=1621934588
https://doringraphics.com/products/rainbow-colored-sunflower-hippie-style-flag-america-independence-day-flag-4th-of-july,Rainbow Colored Sunflower Hippie Style  Flag - America Independence Day Flag 4th Of July,https://cdn.shopify.com/s/files/1/0295/8560/4668/products/ABSRlIp19WbZdZ8MtZUAw30cz2Rl6M4A5m9F6NSTVGzNCaG74FMYbMvpwK2_ktL4xVjRcQ086Q94mUDp-Xy6-9R9I1RSnmR4QTayKgjCz48DRtTf8DuAret7ZyMBmzsJLVgi-3tKQfnLv9f51S4nq-hCHL-Zj65Pm0QO7XoX7UG-SWDNdn5tzM0.jpg?v=1621934391
https://doringraphics.com/products/hippie-girl-psychedelic-glasses-ethnic-flag-america-independence-day-flag-4th-of-july,Hippie Girl Psychedelic Glasses Ethnic Flag - America Independence Day Flag 4th Of July,https://cdn.shopify.com/s/files/1/0295/8560/4668/products/ABSRlIqgh7UyP1CO2dnUFlrw8mpHKctoEe9G3dYyoNTuKMiaCs2BtGmZKI4PNbL8z4kOULgKkOZbI85LKQvntmfNX5PBJDm-fYKhVvK72dr6FEIv6LaYYkpJSEgL4zHDGaSbCnO_dJ5z2EPsuGB-aEcgVcG9e-Y0mUQOKLWrd9yy9s7618moot3.jpg?v=1621933992
https://doringraphics.com/products/funny-sloth-hippie-flag-america-independence-day-flag-4th-of-july,Funny Sloth Hippie Flag - America Independence Day Flag 4th Of July,https://cdn.shopify.com/s/files/1/0295/8560/4668/products/ABSRlIqWIQOpNo8ZOzXWEnP7dnxPXu_0uUGmwnS2TQZvBUyN906wfnjFmLe--AFPjhe8V3QwC3J1Vja4Z-_yFiff-CpB9RtCm2hhFbFEoliaAR0NnLogv_zxhcVPCExx9YLr5dQYbMxL2YbBiZ_WvknGxlM_2GTW1H77sHdmuvPEavMAdO8begH.jpg?v=1621933731
https://doringraphics.com/products/peace-love-baby-girl-hippie-flag-america-independence-day-flag-4th-of-july,Peace Love Baby Girl Hippie Flag - America Independence Day Flag 4th Of July,https://cdn.shopify.com/s/files/1/0295/8560/4668/products/ABSRlIr7nU8_Kxgye9orCTrO_neOHNBCZ8UPQrXuFvFazdYWfyBKK4niC6EFTVPTsyIR_IkUkdTwS8MIfNT4xaJaW5pvdp_0erq_LbK1ZqhDfh7iO8hHXZhHlBZkfHMH1ZKCJJ-oMf9juNscVXJaLwSxybHkjrIp-YcXCWC1CvzMIKaifcf_y4h.jpg?v=1621933609
https://doringraphics.com/products/lord-save-both-lion-and-lamb-from-the-ocean-flag-america-independence-day-flag-4th-of-july,Lord Save Both Lion And Lamb From The Ocean Flag - America Independence Day Flag 4th Of July,https://cdn.shopify.com/s/files/1/0295/8560/4668/products/ABSRlIolcIKiYnEjEs4WHlscm2kTdNe34ZULOVKA_Lwn1xjp9feyeg1CKLSlBngG-s-O1Mlcj5u4ZJRCziRSyXgrUBjn-ul39zjvaifhMxLsBrcQ939aXLzhzYMWCekpoDBG7ARNw57Gn2eHUIudAFh-XBPC9ZIK5CmJMvI4CiHd4no-5e2dbrm.jpg?v=1621932767
https://doringraphics.com/products/tie-dye-peace-sign-butterfly-flag-america-independence-day-flag-4th-of-july,Tie Dye Peace Sign Butterfly Flag - America Independence Day Flag 4th Of July,https://cdn.shopify.com/s/files/1/0295/8560/4668/products/ABSRlIpyGpvYasukNwgRTzMZkwhtTAWi4ikvrUZXjUFBjNsoKNobNRVxHQfBc2yPHfKEpeV9JQu_qvXfjEM2t5qzem84vKZrQYekyDp5NO5TSnWkSNW6jPP8p-qOjGHEFG9nmshHcq-udFWyXEB_3I21TgXont3CKs_F7-gTrWN-pUrA6IEAyRx.jpg?v=1621932531
https://doringraphics.com/products/peace-sign-and-beautiful-flower-hippie-flag-america-independence-day-flag-4th-of-july,Peace Sign And Beautiful Flower Hippie Flag - America Independence Day Flag 4th Of July,https://cdn.shopify.com/s/files/1/0295/8560/4668/products/ABSRlIoAly_GWqFvHtqGkhQqrWkAg5uoAPJImt2SEcEaUPjj29EkJi9SqzM2xZULGnphzZthmdSF1e5ZKSrbi3BcWC_wa4MQ9Ocf3md9mR23TiWo5iJPRlp5v3ici5n6ametOEgeKe4u1nGGs6RAUCorMGJ5OFBkoifakBqDsgzqePlcwk25FAf.jpg?v=1621932218
https://doringraphics.com/products/the-road-to-the-golgotha-of-jesus-flag-america-independence-day-flag-4th-of-july,The Road To The Golgotha Of Jesus Flag - America Independence Day Flag 4th Of July,https://cdn.shopify.com/s/files/1/0295/8560/4668/products/ABSRlIrqE-qIawwStHMeDkenfnglQmTdLTgfm1VKZB8DtshwRqQriEE7thus1CwrYbDqerSWV4G9GYfB_YsuqCQtj5EAb9FmiyBuNUVGO9vhjqjG-w05kJjNpQ5r58uwHB89MhORRVfrtlVrnBYncY7acaTTm9TLPuFJoAog0PdtG_C1SvcFPPA.jpg?v=1621931969
https://doringraphics.com/products/the-cross-under-a-storm-and-rain-flag-america-independence-day-flag-4th-of-july,The Cross Under A Storm And Rain Flag - America Independence Day Flag 4th Of July,https://cdn.shopify.com/s/files/1/0295/8560/4668/products/ABSRlIqz7blQW4M0Hb7NisEXdlWnbAA4h7lT6JljURL66GlC6KTlJlvkDbY3BnPbWORdiGuNmjCJ1tdRC__FNIx3s_cUpirc9WAPmzTfHbtJXA0ccZk2Ij2RwgIhHynT3KYJDyDhJqvyHbTbErdgTXJYejY2Ohr7mbMTMGhryvjV9LyavXPsOmv.jpg?v=1621931849
https://doringraphics.com/products/the-hippie-man-in-the-colorful-world-of-butterflies-flag-america-independence-day-flag-4th-of-july,The Hippie Man In The Colorful World Of Butterflies Flag - America Independence Day Flag 4th Of July,https://cdn.shopify.com/s/files/1/0295/8560/4668/products/ABSRlIqigwSa7rLtceXXn7bPWiQKTU_0PaoCMQuJfx5NDfGkeSzIgjQFEVWr8HEi3hZ5RHdtaXsKMEx2Ved7s1XP7-rYv0hR2OAQFlNKQ6KtNas0NE0WCEcUHtKyQVlsy71e-6pUVMVGJh-gxApW9-6ys3EWF0m_EFG9zZ9oUuqZV_VWyTNkeCX.jpg?v=1621931614
https://doringraphics.com/products/hippie-girl-in-flower-psychedelic-flag-usa-america-independence-day-flag-4th-of-july,Hippie Girl In Flower Psychedelic Flag USA - America Independence Day Flag 4th Of July,https://cdn.shopify.com/s/files/1/0295/8560/4668/products/ABSRlIoD0KvkMxYu2ArqP8vZwlsCfkFeCxvAIXWBQwyNUc9LJ8EMGDCPgFJ-H2DIZF0BSyl7PHr5QsgmWbN37dzG4W-Z5HTRXECNyAtkhhi9mavCys2dtq331B4YWZJXlSw6yLKqnIdA0F0x5YvrxPEPrDi71CZf42XbymGE04ffa9qBkD7d8Sr.jpg?v=1621931188
https://doringraphics.com/products/jesus-the-lion-art-flag-america-independence-day-flag-4th-of-july,Jesus The Lion Art Flag - America Independence Day Flag 4th Of July,https://cdn.shopify.com/s/files/1/0295/8560/4668/products/ABSRlIq8poajn6LIVdfQ-TJ_rKqG6qBtON9nsLnuN_SoeuqyYo2HgFfv7WZiXki3ph-f8oWAIS2d5Dybe_cIdDz3fjHuIQePqq1cYuCQgLEhgn2wutv0aercL8p6vGyWD7LVbyzh_jFi3Hlnu89aTn_TKD4G1AAvveNxcMvrMtEbZ8yU1SdpypM.jpg?v=1621931021
https://doringraphics.com/products/faith-jesus-and-lion-flag-usa-america-independence-day-flag-4th-of-july,Faith Jesus And Lion Flag USA - America Independence Day Flag 4th Of July,https://cdn.shopify.com/s/files/1/0295/8560/4668/products/ABSRlIrUlmOOns8DcGH3rI5wLpbzDdIs2zhrtozueCF5llPkbUx4zIAjsFl89QrV5QkSRW76OP0b7zfdZeXTybIjMTNWhGSVlAclJZjFuMG2DQRMe3C84SnR31OJho6cijGTDxEFW6QlaaMdLuyEbcgNtfkUdTtb49cHb2r7pA2qVPB-aGsLnI9.jpg?v=1621930494
https://doringraphics.com/products/the-cross-is-bright-beside-both-the-lion-and-the-sheep-flag-america-independence-day-flag-4th-of-july,The Cross Is Bright Beside Both The Lion And The Sheep Flag - America Independence Day Flag 4th Of July,https://cdn.shopify.com/s/files/1/0295/8560/4668/products/ABSRlIpTayBS3vlEsCDognOu0ePxTIiNOT_XFtTyu0lflWL9pUHm9y6YoJQVDDr1uf5T4oj4je6VwRYncjvIq1GR6vsOCk5406_AFFJMrKHb-cCm42-nQnw3oGJHJnMVQgVAbyFgjSD-rphUghtppx6SxBPkDaShHW0gFNvGTMHKinPlWoEGLTh.jpg?v=1622191066
https://doringraphics.com/products/god-is-with-us-not-behind-us-in-suffering-flag-america-independence-day-flag-4th-of-july,God Is With Us Not Behind Us In Suffering Flag - America Independence Day Flag 4th Of July,https://cdn.shopify.com/s/files/1/0295/8560/4668/products/ABSRlIqSFHaiMjCMnYKROZ_xnKa9E0tO-3sUi2DuoGKOLl2qXJGOglNNdnS8d7bMOL5m8F2mNW6fW5-p3lVhHw4vKlERduvvwEkQQuHPeOVoPA5UHsgC3S_7IK5g_D3qh_gLC8vcCrkjP5rvrUtshgZWWwVegpHO9gZ8FrQOyp8m2Pa5_9mecso.jpg?v=1621929962
https://doringraphics.com/products/trippy-bus-hippie-in-the-magical-psychedelic-usa-flag-america-flag-4th-of-july,Trippy Bus Hippie In The Magical Psychedelic USA Flag - America Flag 4th Of July,https://cdn.shopify.com/s/files/1/0295/8560/4668/products/ABSRlIowToej3-sScb4WR87HM5sON2o_LxbN6rSthdmnxmGCTMUKWPz0qVGh_ii_GWNQK35q9_4e1j8kSNVKieDBOiMgdDqBX60vyqMHuMaeSmwHsrlx2HdeOV-TDBV_Jf0N8Ep4fUtsnWRbHyb_2FCv3bAqbAjOJOgKMkFlhZiMRBfOvkVFeod.jpg?v=1621929414
https://doringraphics.com/products/jesus-faith-love-flower-usa-flag-america-flag-4th-of-july,Jesus Faith Love Flower USA Flag - America Flag 4th Of July,https://cdn.shopify.com/s/files/1/0295/8560/4668/products/ABSRlIpjRqzAB0xaQDXatp3qKEXDZH3vIYVv4T8h3CZA8FDDkWa5aGqOO2dlXV-QOrR0U8eYThtBIWSllOEPtQcJ0x_Hz1EHo_NEakw0vAkdRQ9UFJqhqlReqGXkQ1EUy7KDKEkKRtGOt4U8X56sEwwTR4_tDzjOcOL8GvZG2oOQa1CpDIbwgo5.jpg?v=1622188855
https://doringraphics.com/products/psychedelic-weed-hippie-rainbow-usa-flag-america-flag-4th-of-july,Psychedelic Weed Hippie Rainbow USA Flag - America Flag 4th Of July,https://cdn.shopify.com/s/files/1/0295/8560/4668/products/ABSRlIquIEZOusRDGWDptaYOk6luCfg134s7HeeKqkcwWu3UZEWU39cZ5UjYd_lS99ALSk8qdSpk1xHoMdFClsEPalHDK394-Ue5UIjFstNK1LWPYM-qtcxX517tlk4lSKpAXejj4PHWNM9SHOEtraNO6k9VrQoVn7T9feSmpQ-00MzS6hx7f9O.jpg?v=1621928943
https://doringraphics.com/products/lord-save-me-from-chaos-flag-america-flag-4th-of-july,Lord Save Me From Chaos Flag - America Flag 4th Of July,https://cdn.shopify.com/s/files/1/0295/8560/4668/products/ABSRlIqq0iepKAsEaRcxCasaGM7G1mAr44Pdv-YB1saiuMxD3_XVA5vZAqkDqwaSoxO1VBPchH7Jmmqa0LAyM4dS5oDrPZic5nvl6aKMxd2AsgO5y2Cdhy5f-NUvejcZ3a-i-BYq3JwaW5eTAec8C5fRIG7fk2BM6gRLwYHFfrKADIj0BpEE14F.jpg?v=1621928760
https://doringraphics.com/products/lion-jesus-crown-of-thorns-paiting-flag-america-flag-4th-of-july,Lion Jesus Crown Of Thorns Paiting Flag - America Flag 4th Of July,https://cdn.shopify.com/s/files/1/0295/8560/4668/products/ABSRlIoXJUiJje0exocSNDNyuPnK-wWl3P0XI2tjf839FXKBlkk3KabWuKxqpWx831YtKQtunopNAQWOJhdJLp4rxd7x6Iy98apaWLuQCBlHmX0GAIVz1wssvpaC4OOmaB8oHm5owJuEdj09IZQo4JZv2IzbdM55oQ0ULyoiJKhfGb8CZLUzQ6I.jpg?v=1621928200
https://doringraphics.com/products/hippie-sunflower-old-men-funny-weed-usa-flag-america-flag-4th-of-july,Hippie Sunflower Old Men Funny Weed USA Flag - America Flag 4th Of July,https://cdn.shopify.com/s/files/1/0295/8560/4668/products/ABSRlIr-WvKE66KYXG-d0jGQmzdd0BUdR9_8bw-SYai_6Mb02csEEKjR6bFuwurxMcL2_IiakQcWVIn4NV_LuHUq2_AQKuagW8wrOzk7JdHkZVGbKizALPmWNQwMtrTILSfV91ZLVdFGAvBF2phxk7hk3c_7Npu3pFStIwLEgDd_im_sOwuSnST.jpg?v=1621927886
https://doringraphics.com/products/in-you-i-find-my-worth-and-my-identity-flag-america-flag-4th-of-july,In You I Find My Worth And My Identity Jesus Rose Flag - America Flag 4th Of July,https://cdn.shopify.com/s/files/1/0295/8560/4668/products/ABSRlIqBuJrrLWYuOyfOf2OxQpOk-DiNv-eWtxxLCe9u1-jSnYEXZYI-DfHtIlEng633mCj7unoOWnCrL733yw2txXNjLOEV4edWO2uwiJURAP1qjecZ_QwTm-L_cqEa58hfXqh-UKecHlo1ZDzPm4l7r1ftxVgSmWK40k9kFVBNzDjAxUPjkON.jpg?v=1621927245
https://doringraphics.com/products/god-lion-and-love-like-a-lamb-in-jesus-flag-america-flag-4th-of-july,God Lion And Love Like A Lamb In Jesus Flag - America Flag 4th Of July,https://cdn.shopify.com/s/files/1/0295/8560/4668/products/ABSRlIqwVRS-kgL9drlDmSdarmLs9FTRsSm-dHVOEgiFQZjw11IJm9gmD0ruQ098OMlClElmpGtC1i4Xs8SZcLpSBX2IV0sM5WsWpPQwUkzjz8qCqMQT5NroztbYBG8aG8PI6RiqYHqx8lbEb9nNUvuIyzMN56uI853y-toLWNnwZAAx8fh-hhZ.jpg?v=1621927078
https://doringraphics.com/products/jesus-faith-the-lion-and-lamb-nature-usa-flag-america-flag-4th-of-july,Jesus Faith The Lion And Lamb Nature USA Flag - America Flag 4th Of July,https://cdn.shopify.com/s/files/1/0295/8560/4668/products/ABSRlIrjvs2mCjrjvhbfv2izlOGUjeNg-pfaDoeFvPI6QH7cwKbBBDpevYVA5LnReIT_VtuBWehYgZtFUPo3xNRnapAwwFb1_xMUXmKXpoONPL6xUQDacrSqcFFv91FyRkLxPbdkxcmH1WlyTsRl94_wAmkyZwbm7NmQoicGuzjiWGAUXsbzXKm.jpg?v=1622187621
https://doringraphics.com/products/jesus-holding-lamb-in-eye-lion-flag-america-flag-4th-of-july,Jesus Holding Lamb In Eye Lion Flag - America Flag 4th Of July,https://cdn.shopify.com/s/files/1/0295/8560/4668/products/ABSRlIr9iNXbEWZhI7eAECtZ2qoDPM1x-4h8nEfSJmvnmxpLPgri5Kte53zIDmUYUh13K5-1Ph0BSavzODUkPVyFbdMR0V75YyNmo_tHjQj4ZVzNN24xgMb4wKLKD_is5QEoRLp9OHQzG491FAqqP7G9Lbfr9KM1z56NpFTpCOBFupkONc7sYKG.jpg?v=1621926671
https://doringraphics.com/products/sunflower-hippie-psychedelic-usa-flag-gifts-for-women-america-flag-4th-of-july,Sunflower Hippie Psychedelic USA Flag Gifts For Women - America Flag 4th Of July,https://cdn.shopify.com/s/files/1/0295/8560/4668/products/ABSRlIr2tHPQbGh-U49Np7_WLlioJ_CdYs-zLaeiQhAd9m1iSuQpBuDw62aT_cGc-MmxWfDBocWBaOnDAnyJm2SIJZAKp10zjrqPrMg6SK2Pj-FA12wTkkNiIg6d7yXbn2wRU_J2djC1rpN_4Kp89IbotusehZPI9fJUXV3XmVzYfp7d5wN_mfY.jpg?v=1621926510
https://doringraphics.com/products/peace-love-hippie-colorful-bus-flag-america-flag-4th-of-july,Peace Love Hippie Colorful Bus Flag - America Flag 4th Of July,https://cdn.shopify.com/s/files/1/0295/8560/4668/products/ABSRlIrKEGz6MT-NICt9tRTvOzI0Yo4_NKdIBS9o_2Hra6_okjdAR1Dh4GNVCOO6fba-YdreXyr1iqRlxXi9hMIPHUQ9nq5aMTivbkEazc0eDsKG3tCuxQXAxwGia99rnWGKPWLT7F7fcR3VSxoq3M14ATUSKJFH7ikmx7xGYWFpXig6cpPuVcR.jpg?v=1621925960
https://doringraphics.com/products/christian-cross-art-flag-america-flag-4th-of-july,Christian Cross Art Flag - America Flag 4th Of July,https://cdn.shopify.com/s/files/1/0295/8560/4668/products/ABSRlIo7TFGeZ7nkzThGV0CW3cQTrH8Djjm8S9LprZJHAnP2L3ty6uSOcmclufAZ4zJZqCJUW-UNXGAWKY4zbDv7cJBttfELptoVLwuBFzrezbmaTY8SR0tQFj6ReKrxbVhI2h8caA9OtMt9gqZM_mD-LiHgFg-4mrM9p37i-mSBewM5yoEO4hD.jpg?v=1621925902
https://doringraphics.com/products/whisper-words-of-wisdom-hippie-peace-usa-flag-america-flag-4th-of-july,Whisper Words Of Wisdom Hippie Peace USA Flag - America Flag 4th Of July,https://cdn.shopify.com/s/files/1/0295/8560/4668/products/ABSRlIpkF1JMHDMromlTuTNoTflQCocyUglMTTUC8zQmYnE6K-o3tnLv0ci4np2Gp1vNELQ7wSLNHCd05xUOKpEvTuDhEfr1bCrq9giAM-rE87TJ81FeomxfgU1vMngYtHbndhy19alJqUNLtd3Ur_UOAnEc-_dHpjIsaIwU9xVApaLUS9O25Jy.jpg?v=1621925540
https://doringraphics.com/products/crying-lion-and-jesus-faith-usa-flag-america-flag-4th-of-july,Crying Lion And Jesus Faith USA Flag - America Flag 4th Of July,https://cdn.shopify.com/s/files/1/0295/8560/4668/products/ABSRlIqt1hr8JR0pj9qqIZ1MCEEdbrHPEhTWuZXdASl3--JHgULG2FB0854eY8X5-PO-3Lj3Xf8GoLkQmc6ZGWcR-Gokd93eA-lMnsq5MSbcDEOXQMZpt4TBLSpKtBTCOKCF0fu0yZxjD7HCNpXoYr_vrADDB-6tyfTKlUqJhYYLHYQshCQyvMd.jpg?v=1621925400
https://doringraphics.com/products/praying-knight-beside-the-lion-flag-america-flag-4th-of-july,Praying Knight Beside The Lion Flag - America Flag 4th Of July,https://cdn.shopify.com/s/files/1/0295/8560/4668/products/ABSRlIqfSyacK-KQgbFKvn6D1gSA0FHJXIDpmJo6sjwgCuUhT5pSkN4pyl3AuSRk9kBotx4u27cN0PLQzttzJ1tsjjcqTQdZVdkA8bFEo7th-4PBaY4fee3Hb0ouQ2598iNOs48T_axHEhA93N4D5W4b95UbLV1vGh-AFBQui5FQP4a-U7ntpsW.jpg?v=1621925230
https://doringraphics.com/products/lion-with-eye-jesus-cross-usa-flag-faith-god-america-flag-4th-of-july,Lion With Eye Jesus Cross USA Flag - Faith God America Flag 4th Of July,https://cdn.shopify.com/s/files/1/0295/8560/4668/products/ABSRlIpxymDN6F0Ze0WT3MqoxMRy1614_BQCieqpiVS8SZA5wTZ54Esggy6lIUBEVJch-WDF1LKP1dViXy4wqeRx68eHsG7uvmfef-3OtZjljasldubqeZZa0sk1-vOpXF7widNLIKa7EQVURBLhEiAy2soSJ7H2_c_buXebImciCfK5YzVivYC.jpg?v=1621925080
https://doringraphics.com/products/camping-hippie-trippy-bus-psychedelic-usa-flag-camping-america-flag-4th-of-july,Camping Hippie Trippy Bus Psychedelic USA Flag Camping - America Flag 4th Of July,https://cdn.shopify.com/s/files/1/0295/8560/4668/products/ABSRlIoSp6F-NyDfsRcEa8YkuTQU-x_1LA55TzSAcmOb7Vc5jop9-wv_ybdoDTgLTTUjq-eJOlv6jbzluPJuPSnyQfY6jFdj00Bk6y9cFxMp1wlb5IrHxVAJdWRwvByyxdrnWHGrxhKYcr3riSBdpMCuCZtWx5sKHlGS4P3WRRg1jZG50lyWzfn.jpg?v=1621924900
https://doringraphics.com/products/lion-face-god-cross-shape-flag-america-flag-4th-of-july,Lion Face God Cross Shape Flag - America Flag 4th Of July,https://cdn.shopify.com/s/files/1/0295/8560/4668/products/ABSRlIp-6DCQg4F-Y3QXXeK4NdjB_A2H9bUwbcKWh3-VDcyxA-wzqGOIqgB_Pfkg6sxTxqgjMShI-_rOQxIGcv6JjZkHrcNQ9JtfKeDpZ5SiWDF2lYXo1WiGeuuwCswdvd65soAYS3DMZ8rr4i6A3X9o67ghaAXaUnzDNdERU2AGn1Y44sjjhim.jpg?v=1621924652
https://doringraphics.com/products/one-loved-mom-hippie-flag-messy-hair-mama-america-flag-4th-of-july,One Loved Mom Hippie Flag - Messy Hair Mama America Flag 4th Of July,https://cdn.shopify.com/s/files/1/0295/8560/4668/products/ABSRlIr5wnERoHbyuxL3w1bOQHcC_v_Z6SqVPJ5z5AoSSSi2jIfkksUgh1DMc7WHQUAgh9bwu10CoUdAqvUgeoT5PvPVP9yb9xPwIgxlAxS43mh2MbrTL0q2IOp-sujYxFskw0ynnV962umzZdLF1INXLp4eq5t7I3KnxNVhbgL83BCM5fbz3z8.jpg?v=1621924505
https://doringraphics.com/products/god-blessed-the-broken-road-that-led-me-straight-to-you-flag-america-flag-4th-of-july,God Blessed The Broken Road That Led Me Straight To You Flag - America Flag 4th Of July,https://cdn.shopify.com/s/files/1/0295/8560/4668/products/ABSRlIrKo9AnawEyVi3B9RiKA5NJ8fDMT1y-5bfyYT87vtKQ5tmTDFrQFsi7ycwzjo5CdBYHZboDJRGCrXyif3JaC9MFWqQNujJH5Won9rOVR6p9ptKX77lEeBlszPZpWV4qPT7Y6YrBgv5WweFGX1X6k6qj4aOfJTF3mD6RD5LOb8KB1knxrhz.jpg?v=1622186265
https://doringraphics.com/products/love-of-jesus-with-lamb-and-lion-flag-america-flag-4th-of-july,Love Of Jesus With Lamb And Lion Flag - America Flag 4th Of July,https://cdn.shopify.com/s/files/1/0295/8560/4668/products/ABSRlIrP92dm7ySot3-t8NYvxv522pNvtMC0RVJVgMxMyUFGgWd2jugVTxDnpxB_Cy28PZTPhCPWVM0QGkbFuplDWwBTP1_DcZYfbyeaSxbNVp9imwvXaG_GJWF7C3AVZqqw930b82rKMMeUaBDSl4enVWRn3fNSflBC4s9L8hpPFZ46vN0tRHs.jpg?v=1621923731
https://doringraphics.com/products/amerisaurus-t-rex-tank-top-independence-day-shirt-women-july-14th-criss-cross-open-back-camisole-tank,Amerisaurus T-Rex Tank Top Independence Day Shirt Women - July 14th Criss Cross Open Back Camisole Tank,https://cdn.shopify.com/s/files/1/0295/8560/4668/products/ABSRlIqJRTQob6fO6HBdNDocjkOVOjSi_xlMiEX4-J2s6lXSmjcOk26l9uZWdRav1HA0Dwr7RpaJgm5gWfGVLzWtcX8WoSnDZTadmC2oYFIVyZZVceinV5Z3Lq_3mXBy8YPTEFtILfImuDz49cE0Fn_jJKDokMpXWv7BmU-u-6SpusZXcoycXRQ.jpg?v=1621675328
https://doringraphics.com/products/love-america-july-4th-tank-top-mesh-shirt-women-criss-cross-open-back-camisole-tank,Love America July 4th Tank Top Mesh Shirt Women - Criss Cross Open Back Camisole Tank,https://cdn.shopify.com/s/files/1/0295/8560/4668/products/ABSRlIo-UZtIqk52LwSbUVLmpGJJnNWfOIvzGu6LOk7qYB_xS2sEO9Mt1CR2uQcDXm5WLN9gG86ARiu69B_oxZb03clDS5kwtYPd6bZ9oiMRm1B_fv920Np4iNBUckXnm9LxZNCmcXR_2b2NgnMXf9FyXEYxBt-ltCLLJ0kudz_YqKrIvi8PGGQ.jpg?v=1621663745
https://doringraphics.com/products/happy-independence-day-tank-top-mesh-shirt-women-cool-eagle-criss-cross-open-back-camisole-tank,Happy Independence Day Tank Top Mesh Shirt Women - Cool Eagle Criss Cross Open Back Camisole Tank,https://cdn.shopify.com/s/files/1/0295/8560/4668/products/ABSRlIqp4an7Zw8FOTNIMOKHL32SAjx299C_GdWctGT8STiih18uwTeJlW--_rQug0pdDSyrlJGgdnyyO7ICwpP72MhuU8P1AMubxl0R1ZxHIAZ0_avuCvlLBeOnGjLflxYE5JquC-3hB9ZbwjOSI1JSYuC7vzrQHJ2fA_5s240qDNnggqXlRPp.jpg?v=1621656354
https://doringraphics.com/products/just-a-regular-mom-trying-not-to-raise-liberals-crocs-shoes-usa-girls-clog-shoes-4th-of-july-usa-flag,Just A Regular Mom Trying Not To Raise Liberals Crocs Shoes - USA Girls Clog Shoes 4th Of July USA Flag,https://cdn.shopify.com/s/files/1/0295/8560/4668/products/13.6.jpg?v=1621550163
https://doringraphics.com/products/texas-peace-in-god-flag,Texas Peace In God USA Flag - Texas America Flag 4th Of July,https://cdn.shopify.com/s/files/1/0295/8560/4668/products/regular_9a0af22b-3e1d-4380-8a5d-9c8e8177bcb4.jpg?v=1621502016
https://doringraphics.com/products/if-the-flag-offends-you-kiss-my-texas-flag,Bulls Texas Flag - If The Flag Offends You Kiss My Texass Funny Flag 4th Of July,https://cdn.shopify.com/s/files/1/0295/8560/4668/products/regular_45c14e66-3687-4f95-96a8-ca639e16e473.jpg?v=1621502013
https://doringraphics.com/products/firefighter-usa-flag-gift-for-man-father-grandpa,Fishing USA Flag Gift For Man Father Grandpa - Fishing Lovers America Flag Independent Day Decor,https://cdn.shopify.com/s/files/1/0295/8560/4668/products/regular_afdc4abf-b7fb-4ad8-bcf9-cd1ea73b4155.jpg?v=1621502012
https://doringraphics.com/products/fishing-usa-flag-gift-for-man-brother-father-grandpa,Fishing USA Flag Gift For Man Brother Father Grandpa 4th Of July Flag Decor Home,https://cdn.shopify.com/s/files/1/0295/8560/4668/products/regular_d1c052ae-b73f-429f-b990-0fe0eb641ab6.jpg?v=1621502010
https://doringraphics.com/products/usa-strong-freedom-together-flag-america-eagle-flag,USA Strong Freedom Together Flag 4th Of July - America Eagle Flag Outdoor Decor,https://cdn.shopify.com/s/files/1/0295/8560/4668/products/regular_8093ed4e-b622-4725-b491-8733a8acacb6.jpg?v=1621502008
https://doringraphics.com/products/have-a-happy-4th-july-flag-fireworks-for-independence-day,Have A Happy 4th July Flag Out Door - Fireworks Shield Independence Day America Flag Home Decor,https://cdn.shopify.com/s/files/1/0295/8560/4668/products/regular_9e11c5ce-78b3-45d9-96ba-c6a631e64efb.jpg?v=1621502007
https://doringraphics.com/products/us-independence-day-flag-4th-of-july-animals-funny-gift,Eagle US Independence Day Flag - 4th Of July America Flag US Army,https://cdn.shopify.com/s/files/1/0295/8560/4668/products/regular_dddc8fd3-7f3a-4f6c-9858-d8c9fec4f9b7.jpg?v=1621502005
https://doringraphics.com/products/cardinal-flowers-usa-flag-i-love-america-flag-independent-day,Cardinal Flowers USA Flag - I Love America Flag Independent Day,https://cdn.shopify.com/s/files/1/0295/8560/4668/products/regular_d2123528-4dad-4301-b88a-d5ac7ecc9768.jpg?v=1621502004
https://doringraphics.com/products/veteran-ish-flag,Veteran Eagle USA Flag 4th Of July US Army Home Decor Independent Day,https://cdn.shopify.com/s/files/1/0295/8560/4668/products/regular_aed21051-ad67-4a01-a348-b9becd0e6b93.jpg?v=1621502001
https://doringraphics.com/products/amerisaurusrex-america-t-rex-4th-of-july-usa-flag-tank-top-mesh-shirt-criss-cross-open-back-camisole-tank,Amerisaurusrex America T-rex 4th of July USA Flag Tank Top Mesh Shirt - Criss Cross Open Back Camisole Tank,https://cdn.shopify.com/s/files/1/0295/8560/4668/products/ABSRlIohD0olIylmMK8WEbpJTJDW_cBdLs0QqRLKwjoyf4hJLyCrbcTy75tjuDaAjAa3-CxJ0AcBtuMNrhtRTaMPAA-OrPe4YLywus_AfiCQjzWDEpsGbrt3wsJJryjSWfV2G2n3kp3OFPSsop_3LMi7-k-JKHroNI03YlYLyDIiKEJTyAQyGLw.jpg?v=1621507329
https://doringraphics.com/products/dadlife-wearing-usa-hat-shoes-customize-name-dad-usa-america-4th-of-july-crocs-clog-birthday-gifts,Dadlife Wearing USA Hat Shoes Customize Name - Dad USA America 4th of July Crocs Clog Birthday Gifts,https://cdn.shopify.com/s/files/1/0295/8560/4668/products/16.2_74e166a2-7112-4a64-a0f9-74d6b96cc42f.jpg?v=1619518785
https://doringraphics.com/products/american-eagle-skin-shoes-usa-flag-4th-july-crocs-clog-gift-for-man-woman,American Eagle Skin Shoes - USA Flag 4th July Crocs Clog Gift For Man Woman,https://cdn.shopify.com/s/files/1/0295/8560/4668/products/5.4_2_5b56a8e9-7fee-475d-b565-31b1fbe72d93.jpg?v=1619080507
https://doringraphics.com/products/son-of-american-skull-crocs-gift-for-tatoo-man-woman-indian-chapter-clog-birthday-gift-for-son,Son Of American Skull Crocs Gift For Tatoo Man Woman - Indian Chapter Clog Birthday Gift For Son,https://cdn.shopify.com/s/files/1/0295/8560/4668/products/q6.1_0e0a0186-65a9-4be8-a219-1629fd759c67.jpg?v=1617768316
https://doringraphics.com/products/my-blood-germany-my-home-usa-flag-clog-crocs-shoes-gift-for-man-woman,My Blood Germany My Home USA Flag Clog Crocs Shoes Gift For Man Woman,https://cdn.shopify.com/s/files/1/0295/8560/4668/products/q9.1_6b292d54-4b86-4248-aa99-94306c56e7aa.jpg?v=1617768645
https://doringraphics.com/products/wolf-scratch-art-usa-flag-crocs-gift-for-man-woman-wolf-america-flag-4th-of-july-clog-shoes,Wolf Scratch Art USA Flag Crocs Gift For Man Woman - Wolf America Flag 4th Of July Clog Shoes,https://cdn.shopify.com/s/files/1/0295/8560/4668/products/1.2_06d08f95-5fc7-415b-9d93-a47dd2bb65b2.jpg?v=1617777755
https://doringraphics.com/products/unicorn-america-flag-shoes-crocs-4th-of-july-day-gifts-cute-unicorn-croc-shoes-for-boys-girls,Unicorn America Flag Shoes Crocs 4th Of July Day Gifts - Cute Unicorn Croc Shoes For Boys Girls,https://cdn.shopify.com/s/files/1/0295/8560/4668/products/c352_cc725dfe-894e-4dcb-aa1d-3e5d7ad5f813.jpg?v=1615991145
https://doringraphics.com/products/love-america-usa-flag-shoes-crocs-for-4th-of-july-love-peace-shoes-for-men-women,Love America USA Flag Shoes Crocs For 4th Of July - Love Peace Shoes For Men Women,https://cdn.shopify.com/s/files/1/0295/8560/4668/products/c342.jpg?v=1615990247
