https://piggily.com/products/french-bulldog-crack-car-sticker,French Bulldog Crack Car Sticker,https://cdn.shopify.com/s/files/1/0430/5518/6072/products/h8d78io7nbdivdgk5ndzsjzk6ujv_French_Bulldog_Crack_Car_Sticker.png?v=1617701508
https://piggily.com/products/french-bulldog-crack-car-sticker-toilet-sticker-fridge-sticker-30,"French Bulldog Crack Car Sticker, Toilet Sticker, Fridge Sticker (30)",https://cdn.shopify.com/s/files/1/0430/5518/6072/products/5xex6mn7s1srdq43qemtkmte5bgh.jpg?v=1617942493
https://piggily.com/products/french-bulldog-crack-car-sticker-toilet-sticker-fridge-sticker-7,"French Bulldog Crack Car Sticker, Toilet Sticker, Fridge Sticker (7)",https://cdn.shopify.com/s/files/1/0430/5518/6072/products/ndkd5tax2bq9e37qz0pmcstbnfa4.jpg?v=1617942456
https://piggily.com/products/french-bulldog-crack-car-sticker-toilet-sticker-fridge-sticker-19,"French Bulldog Crack Car Sticker, Toilet Sticker, Fridge Sticker (19)",https://cdn.shopify.com/s/files/1/0430/5518/6072/products/2dgnlbuhe0vgljiblf27bzhk0phh.jpg?v=1617942498
https://piggily.com/products/french-bulldog-crack-car-sticker-toilet-sticker-fridge-sticker-8,"French Bulldog Crack Car Sticker, Toilet Sticker, Fridge Sticker (8)",https://cdn.shopify.com/s/files/1/0430/5518/6072/products/kaiwfp6vqqq0g1leee3bjexyiu3u.jpg?v=1617942444
https://piggily.com/products/french-bulldog-crack-car-sticker-toilet-sticker-fridge-sticker-36,"French Bulldog Crack Car Sticker, Toilet Sticker, Fridge Sticker (16)",https://cdn.shopify.com/s/files/1/0430/5518/6072/products/bs3lfihx3vbzov69ey55zw7a8zj8.jpg?v=1617942641
https://piggily.com/products/french-bulldog-crack-car-sticker-toilet-sticker-fridge-sticker-9,"French Bulldog Crack Car Sticker, Toilet Sticker, Fridge Sticker (9)",https://cdn.shopify.com/s/files/1/0430/5518/6072/products/bcjximoievsr6ujrjhaoev4lnfnx.jpg?v=1617942569
https://piggily.com/products/french-bulldog-crack-car-sticker-toilet-sticker-fridge-sticker-12,"French Bulldog Crack Car Sticker, Toilet Sticker, Fridge Sticker (12)",https://cdn.shopify.com/s/files/1/0430/5518/6072/products/tsy0uwuu170ddesmqxq4mb61j24k.jpg?v=1617942437
https://piggily.com/products/french-bulldog-crack-car-sticker-toilet-sticker-fridge-sticker-17,"French Bulldog Crack Car Sticker, Toilet Sticker, Fridge Sticker (17)",https://cdn.shopify.com/s/files/1/0430/5518/6072/products/e57ap2p58fhfmors5qc7en287fe2.jpg?v=1617942559
https://piggily.com/products/funny-french-bulldogs-crack-car-sticker-lover,FUNNY FRENCH BULLDOGS CRACK CAR STICKER LOVER,https://cdn.shopify.com/s/files/1/0430/5518/6072/products/jzhikt80rxx1z8e5gr2e4ebh7n2a.jpg?v=1617701465
https://piggily.com/products/french-bulldog-crack-car-sticker-toilet-sticker-fridge-sticker-26,"French Bulldog Crack Car Sticker, Toilet Sticker, Fridge Sticker (26)",https://cdn.shopify.com/s/files/1/0430/5518/6072/products/2owec58be3eoa06y61lneghcl8gq.jpg?v=1617942574
https://piggily.com/products/french-bulldog-crack-car-sticker-toilet-sticker-fridge-sticker-21,"French Bulldog Crack Car Sticker, Toilet Sticker, Fridge Sticker (21)",https://cdn.shopify.com/s/files/1/0430/5518/6072/products/0mjq8auvjc6j6l70og8zvh2m4ctu.jpg?v=1617942620
https://piggily.com/products/french-bulldog-crack-car-sticker-toilet-sticker-fridge-sticker-25,"French Bulldog Crack Car Sticker, Toilet Sticker, Fridge Sticker (25)",https://cdn.shopify.com/s/files/1/0430/5518/6072/products/2eoaxxnccllvmanweqsjbdlvmylm.jpg?v=1617942523
https://piggily.com/products/french-bulldog-crack-car-sticker-toilet-sticker-fridge-sticker-41,"French Bulldog Crack Car Sticker, Toilet Sticker, Fridge Sticker (37)",https://cdn.shopify.com/s/files/1/0430/5518/6072/products/20jgwqq2frdshu064w637d3nbu48.png?v=1617942999
https://piggily.com/products/french-bulldog-crack-car-sticker-toilet-sticker-fridge-sticker-16,"French Bulldog Crack Car Sticker, Toilet Sticker, Fridge Sticker (14)",https://cdn.shopify.com/s/files/1/0430/5518/6072/products/qnitsgzmghc1d159mphgtsf6cv8q.jpg?v=1617942627
https://piggily.com/products/french-bulldog-crack-car-sticker-toilet-sticker-fridge-sticker-14,"French Bulldog Crack Car Sticker, Toilet Sticker, Fridge Sticker (5)",https://cdn.shopify.com/s/files/1/0430/5518/6072/products/g43p0nh9fb1vfre7ajkma9exwduj.jpg?v=1617942615
https://piggily.com/products/french-bulldog-crack-car-sticker-toilet-sticker-fridge-sticker-11,"French Bulldog Crack Car Sticker, Toilet Sticker, Fridge Sticker (11)",https://cdn.shopify.com/s/files/1/0430/5518/6072/products/9e6nvl2odhu0s5b6gb1tun30e9a3.jpg?v=1617942610
https://piggily.com/products/french-bulldog-crack-car-sticker-toilet-sticker-fridge-sticker-27,"French Bulldog Crack Car Sticker, Toilet Sticker, Fridge Sticker (27)",https://cdn.shopify.com/s/files/1/0430/5518/6072/products/v8xyokgqoftiarf73vxwfb2l14j2.jpg?v=1617942595
https://piggily.com/products/french-bulldog-crack-car-sticker-toilet-sticker-fridge-sticker-34,"French Bulldog Crack Car Sticker, Toilet Sticker, Fridge Sticker (34)",https://cdn.shopify.com/s/files/1/0430/5518/6072/products/70xtniq403kpsuewwh1zdwju9e3x.jpg?v=1617942590
https://piggily.com/products/french-bulldog-crack-car-sticker-toilet-sticker-fridge-sticker-20,"French Bulldog Crack Car Sticker, Toilet Sticker, Fridge Sticker (20)",https://cdn.shopify.com/s/files/1/0430/5518/6072/products/xyyc0j0nufi830el13u80bjm2513.jpg?v=1617942564
https://piggily.com/products/french-bulldog-crack-car-sticker-toilet-sticker-fridge-sticker-31,"French Bulldog Crack Car Sticker, Toilet Sticker, Fridge Sticker (31)",https://cdn.shopify.com/s/files/1/0430/5518/6072/products/s9k7bg55k83tbg6mm62bjm5naqgx.jpg?v=1617942529
https://piggily.com/products/french-bulldog-crack-car-sticker-toilet-sticker-fridge-sticker-24,"French Bulldog Crack Car Sticker, Toilet Sticker, Fridge Sticker (24)",https://cdn.shopify.com/s/files/1/0430/5518/6072/products/73su1i1jotit0eg5276oip5e313f.jpg?v=1617942476
https://piggily.com/products/french-bulldog-crack-car-sticker-toilet-sticker-fridge-sticker-13,"French Bulldog Crack Car Sticker, Toilet Sticker, Fridge Sticker (13)",https://cdn.shopify.com/s/files/1/0430/5518/6072/products/w2x0e5bzqi9ms7z36cfo6049hv9d.jpg?v=1617942431
https://piggily.com/products/french-bulldog-crack-car-sticker-toilet-sticker-fridge-sticker-33,"French Bulldog Crack Car Sticker, Toilet Sticker, Fridge Sticker (33)",https://cdn.shopify.com/s/files/1/0430/5518/6072/products/vka30gg9l7doedtpay8jijq7fwuh.jpg?v=1617942600
https://piggily.com/products/french-bulldog-crack-car-sticker-toilet-sticker-fridge-sticker-5,"French Bulldog Crack Car Sticker, Toilet Sticker, Fridge Sticker (3)",https://cdn.shopify.com/s/files/1/0430/5518/6072/products/espr0f488ndj9gbb1ivdecekk90w.jpg?v=1617942586
https://piggily.com/products/french-bulldog-crack-car-sticker-toilet-sticker-fridge-sticker-4,"French Bulldog Crack Car Sticker, Toilet Sticker, Fridge Sticker (4)",https://cdn.shopify.com/s/files/1/0430/5518/6072/products/ny8a9cutr5wjyydlhpukdxlg8qgd.jpg?v=1617942549
https://piggily.com/products/french-bulldog-crack-car-sticker-toilet-sticker-fridge-sticker-29,"French Bulldog Crack Car Sticker, Toilet Sticker, Fridge Sticker (29)",https://cdn.shopify.com/s/files/1/0430/5518/6072/products/6p5nd7855qfljnzxngjv1ssphuo7.jpg?v=1617942472
https://piggily.com/products/french-bulldog-crack-car-sticker-toilet-sticker-fridge-sticker-23,"French Bulldog Crack Car Sticker, Toilet Sticker, Fridge Sticker (23)",https://cdn.shopify.com/s/files/1/0430/5518/6072/products/e927p6lkore0mr0n63geps4g5a2l.jpg?v=1617942448
https://piggily.com/products/french-bulldog-crack-car-sticker-toilet-sticker-fridge-sticker-22,"French Bulldog Crack Car Sticker, Toilet Sticker, Fridge Sticker (22)",https://cdn.shopify.com/s/files/1/0430/5518/6072/products/ai7js23vhmpkguoms9b9epsbn9pt.jpg?v=1617942415
https://piggily.com/products/french-mastiff-crack-car-sticker-toilet-sticker-fridge-sticker-1,"French Mastiff Crack Car Sticker, Toilet Sticker, Fridge Sticker 1",https://cdn.shopify.com/s/files/1/0430/5518/6072/products/seotesh5f2xn3r046nbt6gdjjuew.jpg?v=1620727866
https://piggily.com/products/french-mastiff-crack-car-sticker-toilet-sticker-fridge-sticker-5,"French Mastiff Crack Car Sticker, Toilet Sticker, Fridge Sticker 5",https://cdn.shopify.com/s/files/1/0430/5518/6072/products/bgpm53la95r2n8dobam3h91jxz7w.jpg?v=1620727863
https://piggily.com/products/french-mastiff-crack-car-sticker-toilet-sticker-fridge-sticker-3,"French Mastiff Crack Car Sticker, Toilet Sticker, Fridge Sticker 3",https://cdn.shopify.com/s/files/1/0430/5518/6072/products/939et5bvi5u52me2p0m8faxyc73h.jpg?v=1620727869
https://piggily.com/products/french-mastiff-crack-car-sticker-toilet-sticker-fridge-sticker-2,"French Mastiff Crack Car Sticker, Toilet Sticker, Fridge Sticker 2",https://cdn.shopify.com/s/files/1/0430/5518/6072/products/sbwu39av1wacd3sq9iuw0986o265.jpg?v=1620727820
https://piggily.com/products/french-mastiff-crack-car-sticker-toilet-sticker-fridge-sticker-8,"French Mastiff Crack Car Sticker, Toilet Sticker, Fridge Sticker 8",https://cdn.shopify.com/s/files/1/0430/5518/6072/products/rgk5h6ifxhzl5yet3c5gh0xwzx49.jpg?v=1620727868
https://piggily.com/products/french-mastiff-crack-car-sticker-toilet-sticker-fridge-sticker-6,"French Mastiff Crack Car Sticker, Toilet Sticker, Fridge Sticker 6",https://cdn.shopify.com/s/files/1/0430/5518/6072/products/35b28pnrflwjp6ls6gwibw350xd5.jpg?v=1620727815
https://piggily.com/products/french-mastiff-crack-car-sticker-toilet-sticker-fridge-sticker-7,"French Mastiff Crack Car Sticker, Toilet Sticker, Fridge Sticker 7",https://cdn.shopify.com/s/files/1/0430/5518/6072/products/q57ucq8kxct0ngqi0z0r43x7lcy2.jpg?v=1620727864
https://piggily.com/products/french-mastiff-crack-car-sticker-toilet-sticker-fridge-sticker-4,"French Mastiff Crack Car Sticker, Toilet Sticker, Fridge Sticker 4",https://cdn.shopify.com/s/files/1/0430/5518/6072/products/oy0mmle4vscu8lpgqa1oi70mu93e.jpg?v=1620727817
https://piggily.com/products/screaming-french-bulldog-dad-farted-sticker,SCREAMING FRENCH BULLDOG DAD FARTED STICKER,https://cdn.shopify.com/s/files/1/0430/5518/6072/products/j1bsqu2oygd86x21qhrnanstnd78.jpg?v=1618646562
https://piggily.com/products/baby-french-bulldog-crack-car-sticker,BABY FRENCH BULLDOG CRACK CAR STICKER,https://cdn.shopify.com/s/files/1/0430/5518/6072/products/ksh8abexa2sus8d6o5yeji823vgu.jpg?v=1618646476
https://piggily.com/products/french-bulldog-crack-car-sticker-toilet-sticker-fridge-sticker,"French Bulldog Crack Car Sticker, Toilet Sticker, Fridge Sticker",https://cdn.shopify.com/s/files/1/0430/5518/6072/products/9ff8k9x6brzyzbgxwzm0a2az2rli.jpg?v=1617957141
https://piggily.com/products/french-bulldog-torn-car-sticker-toilet-sticker-fridge-sticker,"French Bulldog Torn Car Sticker, Toilet Sticker, Fridge Sticker",https://cdn.shopify.com/s/files/1/0430/5518/6072/products/di2pubqzo5vbb29pqb9aotdfwp3j.png?v=1617942666
https://piggily.com/products/french-bulldog-crack-car-sticker-toilet-sticker-fridge-sticker-40,"French Bulldog Crack Car Sticker, Toilet Sticker, Fridge Sticker 36",https://cdn.shopify.com/s/files/1/0430/5518/6072/products/xc3rba31y4vcug9vnfof50onv3ze.png?v=1617942654
https://piggily.com/products/french-bulldog-crack-car-sticker-toilet-sticker-fridge-sticker-39,"French Bulldog Crack Car Sticker, Toilet Sticker, Fridge Sticker (2)",https://cdn.shopify.com/s/files/1/0430/5518/6072/products/jfq88rcd3loxe0bsbg49pwvl8drd.jpg?v=1617942650
https://piggily.com/products/french-bulldog-crack-car-sticker-toilet-sticker-fridge-sticker-35,"French Bulldog Crack Car Sticker, Toilet Sticker, Fridge Sticker 35",https://cdn.shopify.com/s/files/1/0430/5518/6072/products/oimjfm28jn1s8zkzignby1v4osr2.jpg?v=1617942636
https://piggily.com/products/french-bulldog-crack-car-sticker-toilet-sticker-fridge-sticker-3,"French Bulldog Crack Car Sticker, Toilet Sticker, Fridge Sticker (3)",https://cdn.shopify.com/s/files/1/0430/5518/6072/products/c5ta6mod7bbjvv66jfbe73tbkg0n.png?v=1617942544
https://piggily.com/products/french-bulldog-crack-car-sticker-toilet-sticker-fridge-sticker-18,"French Bulldog Crack Car Sticker, Toilet Sticker, Fridge Sticker (18)",https://cdn.shopify.com/s/files/1/0430/5518/6072/products/figoeaumf8qh95xqu3b02xn03s3q.jpg?v=1617942539
https://piggily.com/products/french-bulldog-crack-car-sticker-toilet-sticker-fridge-sticker-6,"French Bulldog Crack Car Sticker, Toilet Sticker, Fridge Sticker (6)",https://cdn.shopify.com/s/files/1/0430/5518/6072/products/7zczrcbbzlazu07cg1w7wsdqd4q9.jpg?v=1617942518
https://piggily.com/products/french-bulldog-crack-car-sticker-toilet-sticker-fridge-sticker-32,"French Bulldog Crack Car Sticker, Toilet Sticker, Fridge Sticker (32)",https://cdn.shopify.com/s/files/1/0430/5518/6072/products/udzwklrt9hbkpuawojutx6w3bwxw.jpg?v=1617942513
https://piggily.com/products/french-bulldog-crack-car-sticker-toilet-sticker-fridge-sticker-10,"French Bulldog Crack Car Sticker, Toilet Sticker, Fridge Sticker (10)",https://cdn.shopify.com/s/files/1/0430/5518/6072/products/c0eilmqir6bk76ja7za2a7iw852l.jpg?v=1617942503
https://piggily.com/products/french-bulldog-crack-car-sticker-toilet-sticker-fridge-sticker-15,"French Bulldog Crack Car Sticker, Toilet Sticker, Fridge Sticker (15)",https://cdn.shopify.com/s/files/1/0430/5518/6072/products/ewm91zav0lq5fpwoiabckaoz1l3g.jpg?v=1617942482
https://piggily.com/products/french-bulldog-crack-car-sticker-toilet-sticker-fridge-sticker-2,"French Bulldog Crack Car Sticker, Toilet Sticker, Fridge Sticker (2)",https://cdn.shopify.com/s/files/1/0430/5518/6072/products/56uyjjekh4mgy6o0j9r8gxgn1jgy.png?v=1617942463
https://piggily.com/products/french-bulldog-crack-car-sticker-toilet-sticker-fridge-sticker-28,"French Bulldog Crack Car Sticker, Toilet Sticker, Fridge Sticker (28)",https://cdn.shopify.com/s/files/1/0430/5518/6072/products/jw6caw1xmtycgmfqgq7d2trxaphv.jpg?v=1617942426
https://piggily.com/products/french-bulldog-crack-car-sticker-toilet-sticker-fridge-sticker-37,"French Bulldog Crack Car Sticker, Toilet Sticker, Fridge Sticker (37)",https://cdn.shopify.com/s/files/1/0430/5518/6072/products/FrenchBulldogCrackCarSticker_ToiletSticker_FridgeSticker_37.png?v=1617944530
https://piggily.com/products/french-bulldog-crack-car-sticker-toilet-sticker-fridge-sticker-38,"French Bulldog Crack Car Sticker, Toilet Sticker, Fridge Sticker (38)",https://cdn.shopify.com/s/files/1/0430/5518/6072/products/bbpy9f9rgfb09npx8heipaaduycs_French_Bulldog_Crack_Car_Sticker_2C_Toilet_Sticker_2C_Fridge_Sticker_2838_29.png?v=1617942385
https://piggily.com/products/french-bulldog-tattoos-i-love-dad-fathers-day-car-sticker,French Bulldog Tattoos I Love Dad Father's Day Car Sticker,https://cdn.shopify.com/s/files/1/0430/5518/6072/products/s3qkzhk8q0x068frktepgqcv8y3i_French_Bulldog_Tattoos_I_Love_Dad_Father_27s_Day_Car_Sticker.jpg?v=1617701475
https://piggily.com/products/french-bulldog-tattoo-dog-i-love-mom-mothers-day-car-sticker,French Bulldog Tattoo Dog I Love Mom Mother's day Car Sticker,https://cdn.shopify.com/s/files/1/0430/5518/6072/products/2w5pa3d0kb1skudeojbm8dvxa343_French_Bulldog_Tattoo_Dog_I_Love_Mom_Mother_27s_day_Car_Sticker.jpg?v=1617701466
https://piggily.com/products/french-bulldog-car-sticker,French Bulldog Car Sticker,https://cdn.shopify.com/s/files/1/0430/5518/6072/products/nhmjuo112hgnruyrfj8uxujfrxkh.jpg?v=1617164849
