https://napsvibes.com/napsvibes/ht17-fi3u23,HUNTING - COOL PINK CAMO - SNEAKER,https://secured-imageserver.com/previews/box/men-sneakers/black.jpg?roli=stack_2_b34e48c657b78fe335eb7675444964b5.jpg&lori=stack_2_33273c19f88c7996a9887e9c49854a19.jpg&
https://napsvibes.com/napsvibes/lt18-0dk2d,COUNTRY - COOL BOOTS V1 - SNEAKER,https://secured-imageserver.com/previews/box/women-sneakers/black.jpg?roli=stack_2_fc483cf0dddca880139e48720aca2cbf.jpg&lori=stack_2_b00dfa0fdcaa9d362fa327c3264b65a5.jpg&
https://napsvibes.com/napsvibes/lt18-3jdi4,COUNTRY - COOL BOOTS V2 - SNEAKER,https://secured-imageserver.com/previews/box/men-sneakers/black.jpg?roli=stack_2_ccdc1949fd95b9164ca55696a5205890.jpg&lori=stack_2_6556bb3bfb0074bffc5c86c592092e98.jpg&
https://napsvibes.com/napsvibes/lt18-ci3ud,COUNTRY - COOL BOOTS V3 - SNEAKER,https://secured-imageserver.com/previews/box/kid-sneakers/black.jpg?roli=stack_2_37297099ebffcb532e46c710fa0084d9.jpg&lori=stack_2_77e73edf40a108b6d015c3eb60fc3f9f.jpg&
https://napsvibes.com/napsvibes/hmb01-fi3gk,HUMMINGBIRD - HUMMINGBIRD ON THE FLOWERS - SNEAKER,https://secured-imageserver.com/previews/box/men-sneakers/white.jpg?roli=stack_2_03925cbab5d2ce14e8cf98560f6d8619.jpg&lori=stack_2_db85c3988b664445674c0768d7e8d694.jpg&
https://napsvibes.com/napsvibes/ht17-plorf,HUNTING - CAMO DEER PURPLE - SNEAKERS,https://secured-imageserver.com/previews/box/women-sneakers/black.jpg?roli=stack_2_99211290dd8e17661774e3f7b8f6ebe4.jpg&lori=stack_2_5f4ef11f96f164065b1df8cbda447fa4.jpg&
https://napsvibes.com/napsvibes/ht17-cmj4f,HUNTING - DEER HUNTER - WHITE SNEAKER,https://secured-imageserver.com/previews/box/men-sneakers/white.jpg?roli=stack_2_69b06e45b4a99a5cf543d90217ba07ea.jpg&lori=stack_2_631d25af9fadd035d61123fb6f5d4ffc.jpg&
https://napsvibes.com/napsvibes/ht17-ro3ug,HUNTING - DEER HUNTER - BLACK SNEAKER,https://secured-imageserver.com/previews/box/men-sneakers/black.jpg?roli=stack_2_abcf2c33be612e6ea035a8a577bac81c.jpg&lori=stack_2_1e69d557639b849620af51c50b3aaf93.jpg&
https://napsvibes.com/napsvibes/ht17-lkdmj,HUNTING - DEER HUNTER PINK - SNEAKER,https://secured-imageserver.com/previews/box/women-sneakers/black.jpg?roli=stack_2_1fb0d564acc4c8e44f96f2ca95836115.jpg&lori=stack_2_55f9b807c6e6677b8a3dccef055e1e0a.jpg&
https://napsvibes.com/napsvibes/nvht17-lmksj,HUNTING - DEER HUNTER BROWN - SNEAKER,https://secured-imageserver.com/previews/box/kid-sneakers/black.jpg?roli=stack_2_8a1e34861ef01016b048c6be83ed86fb.jpg&lori=stack_2_c77ead1c216f912ee615678d8ef7be70.jpg&
https://napsvibes.com/napsvibes/mkht17-mkshw,HUNTING - COOL SNEAKER PINK CAMO - SNEAKER,https://secured-imageserver.com/previews/box/women-sneakers/black.jpg?roli=stack_2_89e78d2ba9f581acb54ebe12fa67e82b.jpg&lori=stack_2_8f35265326fbf3d337fcb852682b9b7c.jpg&
