http://mangoshoppp.com/mangoshoppp/Aquariussneaker,AQUARIUS SNEAKER,http://secured-imageserver.com/previews/box/women-sneakers/black.jpg?roli=stack_2_032b9733cf3301626d46c49a19d14df6.jpg&lori=stack_2_d6cb5fa327b791eba4341fbd491ad23f.jpg&
http://mangoshoppp.com/mangoshoppp/Ariessneaker,ARIES SNEAKER,http://secured-imageserver.com/previews/box/kid-sneakers/black.jpg?roli=stack_2_659080205419ac9d7bce1ef75f096218.jpg&lori=stack_2_b9d947ac4b9794f220e00cf4513082d6.jpg&
http://mangoshoppp.com/mangoshoppp/cancersneaker,CANCER SNEAKER,http://secured-imageserver.com/previews/box/kid-sneakers/black.jpg?roli=stack_2_1b2c22ecc939e4eff65a70a7e24b3fb3.jpg&lori=stack_2_af4abd8e68aca5b5314d7031acc22cfa.jpg&
http://mangoshoppp.com/mangoshoppp/Capricornsneaker,CAPRICORN SNEAKER,http://secured-imageserver.com/previews/box/kid-sneakers/black.jpg?roli=stack_2_3a344239289822d9c8cc715fef1ab0d0.jpg&lori=stack_2_a9e498956b984642108428744161a195.jpg&
http://mangoshoppp.com/mangoshoppp/AQUARIUSSNEAKER,AQUARIUS SNEAKER,http://secured-imageserver.com/previews/box/women-sneakers/black.jpg?roli=stack_2_63c02e855ade742eeea73d599fcf1ce4.jpg&lori=stack_2_ec17ba86cba0646401c90b34df9c02ed.jpg&
http://mangoshoppp.com/mangoshoppp/VIRGOSNEAKER,VIRGO SNEAKER,http://secured-imageserver.com/previews/box/men-sneakers/black.jpg?roli=stack_2_59312e814c89f2b3b869c7fafde6c447.jpg&lori=stack_2_8a9e300150480e593abab355dff6f158.jpg&
http://mangoshoppp.com/mangoshoppp/sneakerAquarius,AQUARIUS SNEAKER,http://secured-imageserver.com/previews/box/kid-sneakers/black.jpg?roli=stack_2_0aa222157ba2a4d2a47ff2e2e221b962.jpg&lori=stack_2_be82f59af9180b2583429bc2f1e1b549.jpg&
http://mangoshoppp.com/mangoshoppp/sneakerAries,ARIES SNEAKER,http://secured-imageserver.com/previews/box/kid-sneakers/black.jpg?roli=stack_2_9bf74d3a5d712d4d292ac90e23d4cb15.jpg&lori=stack_2_b26692f0842b1977dd4f07a49f9c4053.jpg&
http://mangoshoppp.com/mangoshoppp/sneakerCancer,CANCER SNEAKER,http://secured-imageserver.com/previews/box/kid-sneakers/black.jpg?roli=stack_2_30a3ffb58c658f42131c0ba33e0faac4.jpg&lori=stack_2_87b4a42cf4f3ee6a6fe9a5f2db115f29.jpg&
http://mangoshoppp.com/mangoshoppp/sneakerCapricorn,CAPRICORN SNEAKER,http://secured-imageserver.com/previews/box/kid-sneakers/black.jpg?roli=stack_2_23631b18b78aafd00bc5f36b5e507414.jpg&lori=stack_2_5951676ac0f9697073d2c92630aa755c.jpg&
http://mangoshoppp.com/mangoshoppp/sneakerCapricornN,GEMINI SNEAKER,http://secured-imageserver.com/previews/box/kid-sneakers/black.jpg?roli=stack_2_996407fd6f9a16f08fd8270297b0e1e3.jpg&lori=stack_2_1b39cd7e03719319f30ebfc522cfe9d3.jpg&
http://mangoshoppp.com/mangoshoppp/sneakerleo,LEO SNEAKER,http://secured-imageserver.com/previews/box/women-sneakers/black.jpg?roli=stack_2_1cd102022cfb46a4789acf3722b4aa6b.jpg&lori=stack_2_b0c281343cd758e30187421735a5eb69.jpg&
http://mangoshoppp.com/mangoshoppp/sneakerlibra,LIBRA SNEAKER,http://secured-imageserver.com/previews/box/kid-sneakers/black.jpg?roli=stack_2_f35b946bf1c460c9ce699b2c55cb428a.jpg&lori=stack_2_36ca2023502535ca7372ebecb858b0f7.jpg&
http://mangoshoppp.com/mangoshoppp/sneakerPisces,PISCES SNEAKER,http://secured-imageserver.com/previews/box/kid-sneakers/black.jpg?roli=stack_2_83111829878d29c6e5a36c32c0209dac.jpg&lori=stack_2_e16b0df2353aa8e29dd984995610abb6.jpg&
http://mangoshoppp.com/mangoshoppp/sneakerSagittarius,SAGITTARIUS SNEAKER,http://secured-imageserver.com/previews/box/kid-sneakers/black.jpg?roli=stack_2_8a4155e2c105932075330c9ce6149be7.jpg&lori=stack_2_e4569cfd7a378c131a00601b8c920730.jpg&
http://mangoshoppp.com/mangoshoppp/sneakerscorpio,SCORPIO SNEAKER,http://secured-imageserver.com/previews/box/kid-sneakers/black.jpg?roli=stack_2_401237aca5e0712529085580e14cc8d0.jpg&lori=stack_2_6f74880ced7f6354bb710d7fb76c1955.jpg&
http://mangoshoppp.com/mangoshoppp/sneakerTaurus,TAURUS SNEAKER,http://secured-imageserver.com/previews/box/kid-sneakers/black.jpg?roli=stack_2_aa373889c03c79432dc523866c6e07c1.jpg&lori=stack_2_6ac3776609f829a8424742e814dbaaf4.jpg&
http://mangoshoppp.com/mangoshoppp/AQUARIUSCOLORSNEAKER,AQUARIUS COLOR SNEAKER,http://secured-imageserver.com/previews/box/women-sneakers/black.jpg?roli=stack_2_296fb17df013556cf524f4084f0dd2b0.jpg&lori=stack_2_ec5f9688aa98fee5527eb2eb397b3585.jpg&
http://mangoshoppp.com/mangoshoppp/ARIESCOLORSNEAKER,ARIES COLOR SNEAKER,http://secured-imageserver.com/previews/box/kid-sneakers/black.jpg?roli=stack_2_f6df7c58f4a5931dd2eaf66b148c1d4f.jpg&lori=stack_2_72014adf2500753dca9bf57c4dcb3519.jpg&
http://mangoshoppp.com/mangoshoppp/PISCESCOLORSNEAKER,PISCES COLOR SNEAKER,http://secured-imageserver.com/previews/box/kid-sneakers/black.jpg?roli=stack_2_39ac8420d6136ddce13e8573dcb434e8.jpg&lori=stack_2_5351f3804cea2dc5391d2359f1060c77.jpg&
http://mangoshoppp.com/mangoshoppp/balancesneaker001,BALANCE SNEAKER 001,http://secured-imageserver.com/previews/box/kid-sneakers/black.jpg?roli=stack_2_3b320b89184910fc8040339bea1e3a76.jpg&lori=stack_2_6b7191badb2ff170366a3922309fd177.jpg&
http://mangoshoppp.com/mangoshoppp/beliersneaker001,BÉLIER SNEAKER 001,http://secured-imageserver.com/previews/box/men-sneakers/black.jpg?roli=stack_2_fee9fedf807afb0d3a9f7897f914c7be.jpg&lori=stack_2_18cce16d5ed46acf6ff8387a7bb97763.jpg&
http://mangoshoppp.com/mangoshoppp/capricornesneaker001,CAPRICORNE SNEAKER 001,http://secured-imageserver.com/previews/box/kid-sneakers/black.jpg?roli=stack_2_70da060648e8760a9c22ea6ba618bc22.jpg&lori=stack_2_83f5751e823437f4d3b396b9f6aed079.jpg&
http://mangoshoppp.com/mangoshoppp/cancersneaker001,CANCER SNEAKER 001,http://secured-imageserver.com/previews/box/men-sneakers/black.jpg?roli=stack_2_9867247492e79f4660c9cef879575912.jpg&lori=stack_2_b46d54508f6e62d6ab4426e2c97334d6.jpg&
http://mangoshoppp.com/mangoshoppp/gemeauxsneaker001,GÉMEAUX SNEAKER 001,http://secured-imageserver.com/previews/box/women-sneakers/black.jpg?roli=stack_2_563a98c297a73415e49f6a49a6bb888f.jpg&lori=stack_2_0e59328647f04f298b0b6fe75a388a84.jpg&
http://mangoshoppp.com/mangoshoppp/lionsneaker001,LION SNEAKER 001,http://secured-imageserver.com/previews/box/kid-sneakers/black.jpg?roli=stack_2_24b3c871c94c1505ea04ec8f7eda0e6a.jpg&lori=stack_2_05338ea0a4a0bca336786d541ca41fdd.jpg&
http://mangoshoppp.com/mangoshoppp/poissonssneaker001,POISSONS SNEAKER 001,http://secured-imageserver.com/previews/box/kid-sneakers/black.jpg?roli=stack_2_83febbe18e96fd22131368330579f9a0.jpg&lori=stack_2_7e4832bb642c330e98e9bc4df5d09860.jpg&
http://mangoshoppp.com/mangoshoppp/sagittairesneaker001,SAGITTAIRE SNEAKER 001,http://secured-imageserver.com/previews/box/men-sneakers/black.jpg?roli=stack_2_2d105c6c94a8e026f450c8b0d34ec430.jpg&lori=stack_2_1af761e6fdb80cabc235d8aa262c14a5.jpg&
http://mangoshoppp.com/mangoshoppp/scorpionsneaker001,SCORPION SNEAKER 001,http://secured-imageserver.com/previews/box/women-sneakers/black.jpg?roli=stack_2_f3d193b618539be411e5befcee3fa78e.jpg&lori=stack_2_7376f2ae0aee4a011d58600ae2b619bd.jpg&
http://mangoshoppp.com/mangoshoppp/taureausneaker001,TAUREAU SNEAKER 001,http://secured-imageserver.com/previews/box/kid-sneakers/black.jpg?roli=stack_2_d01d0f12229f0d908487c5463815e962.jpg&lori=stack_2_48290fa9cf19d33dcc7522ccf55dc193.jpg&
http://mangoshoppp.com/mangoshoppp/verseausneaker001,VERSEAU SNEAKER 001,http://secured-imageserver.com/previews/box/men-sneakers/black.jpg?roli=stack_2_259f5aa86a6ebc8a5e71aa4c275890a0.jpg&lori=stack_2_08c48806ad6ac6bf2239c80e33f92d7b.jpg&
http://mangoshoppp.com/mangoshoppp/viergesneaker001,VIERGE SNEAKER 001,http://secured-imageserver.com/previews/box/kid-sneakers/black.jpg?roli=stack_2_21cd1fd4607275411c0d5ba6bf62358e.jpg&lori=stack_2_a587d577a53b222aa9e5a501811147bb.jpg&
http://mangoshoppp.com/mangoshoppp/Karatesneaker001,KARATE SNEAKER 001,http://secured-imageserver.com/previews/box/women-sneakers/black.jpg?roli=stack_2_f8aa24952db8bf8656cfe3716c9f363d.jpg&lori=stack_2_d9c2c28592d2f348331891509ff36a0d.jpg&
http://mangoshoppp.com/mangoshoppp/Motocrosssneaker001,MOTOCROSS SNEAKER 001,http://secured-imageserver.com/previews/box/kid-sneakers/black.jpg?roli=stack_2_4dac5a2c88c13d86bac77ed8fcd33511.jpg&lori=stack_2_04bea60692a33c350fbb244e329b8d73.jpg&
http://mangoshoppp.com/mangoshoppp/Runningsneaker001,RUNNING SNEAKER 001,http://secured-imageserver.com/previews/box/kid-sneakers/black.jpg?roli=stack_2_4577394f6e79de3f7325239e1c5abb64.jpg&lori=stack_2_759d02a81b0b829df16cb2019bd2c86c.jpg&
http://mangoshoppp.com/mangoshoppp/Archerysneaker001,ARCHERY SNEAKER 001,http://secured-imageserver.com/previews/box/kid-sneakers/black.jpg?roli=stack_2_7ce1bad6e094e5db2966bce605c602d2.jpg&lori=stack_2_846f606a6f3f9f59a2caa126a8e8a4a6.jpg&
http://mangoshoppp.com/mangoshoppp/Badmintonsneaker001,BADMINTON SNEAKER 001,http://secured-imageserver.com/previews/box/men-sneakers/black.jpg?roli=stack_2_462741d221775e86d771716c83d99191.jpg&lori=stack_2_d140fd82ee1be65e1d0c4ff6318941b3.jpg&
http://mangoshoppp.com/mangoshoppp/Basketballsneaker001,BASKETBALL SNEAKER 001,http://secured-imageserver.com/previews/box/kid-sneakers/black.jpg?roli=stack_2_fb5b086f8243c11869ec917dab6243b6.jpg&lori=stack_2_540c2accb8486c42534da11f185a9e3c.jpg&
http://mangoshoppp.com/mangoshoppp/Golfsneaker001,GOLF SNEAKER 001,http://secured-imageserver.com/previews/box/women-sneakers/black.jpg?roli=stack_2_ab17ab8b02ed682287d835a44ca90cc9.jpg&lori=stack_2_ef28874f2be7df9b1ae3042c116ac3b5.jpg&
http://mangoshoppp.com/mangoshoppp/Judosneaker001,JUDO SNEAKER 001,http://secured-imageserver.com/previews/box/men-sneakers/black.jpg?roli=stack_2_8bab511eca0c68f060683b833a8c11f4.jpg&lori=stack_2_09db2c4dd0a27a03f14f862f30f36c1a.jpg&
http://mangoshoppp.com/mangoshoppp/Volleyballsneaker001,VOLLEYBALL SNEAKER 001,http://secured-imageserver.com/previews/box/kid-sneakers/black.jpg?roli=stack_2_8443d6bb7d0f6c43911b5f6f3a10bbc6.jpg&lori=stack_2_8a6c45fc7f9d314173342f42b86d9bfd.jpg&
http://mangoshoppp.com/mangoshoppp/HangGlidingsneaker001,HANG GLIDING SNEAKER 001,http://secured-imageserver.com/previews/box/women-sneakers/black.jpg?roli=stack_2_b29cf3d1b3b92360d2e63069810001a3.jpg&lori=stack_2_6a6259d563820a11538f8dee949fb2d2.jpg&
http://mangoshoppp.com/mangoshoppp/Pingpongsneaker001,PING PONG SNEAKER 001,http://secured-imageserver.com/previews/box/kid-sneakers/black.jpg?roli=stack_2_950a93fc288a5a83b8be906642744bc8.jpg&lori=stack_2_64a12ae45a176376454737331ac724f0.jpg&
http://mangoshoppp.com/mangoshoppp/Hockeysneaker001,HOCKEY SNEAKER 001,http://secured-imageserver.com/previews/box/men-sneakers/black.jpg?roli=stack_2_0021dc2cc5d7226dd2e061a0de40a1da.jpg&lori=stack_2_a36330a0623944c3ee5973bf8ad4bda5.jpg&
http://mangoshoppp.com/mangoshoppp/RockClimbingsneaker001,ROCK CLIMBING SNEAKER 001,http://secured-imageserver.com/previews/box/women-sneakers/black.jpg?roli=stack_2_c3633399237de264fcdab984853166d0.jpg&lori=stack_2_bd877e8bb990e274318f7cbed6213573.jpg&
http://mangoshoppp.com/mangoshoppp/Skiingsneaker001,SKIING SNEAKER 001,http://secured-imageserver.com/previews/box/women-sneakers/black.jpg?roli=stack_2_99f083bfbea2ef740b4232200c3f3f00.jpg&lori=stack_2_5b3a8139576fbd770ed916767522b54f.jpg&
http://mangoshoppp.com/mangoshoppp/Skydivingsneaker001,SKYDIVING SNEAKER 001,http://secured-imageserver.com/previews/box/women-sneakers/black.jpg?roli=stack_2_4d8d4ab76d219cbdfc19849a92f25d3e.jpg&lori=stack_2_a3e26fa56efe48b38491a1b0a202884d.jpg&
http://mangoshoppp.com/mangoshoppp/Snowboardingsneaker001,SNOW BOARDING SNEAKER 001,http://secured-imageserver.com/previews/box/women-sneakers/black.jpg?roli=stack_2_ffc2b17f77a7e939b4ee8202dc390727.jpg&lori=stack_2_00ec55104bb26aec5927f4096fca26a1.jpg&
http://mangoshoppp.com/mangoshoppp/Tennissneaker001,TENNIS SNEAKER 001,http://secured-imageserver.com/previews/box/women-sneakers/black.jpg?roli=stack_2_8e24bc1aad2e5bcb8e7a5beebdcb39c2.jpg&lori=stack_2_353466d1394036721a777bc5fc2df847.jpg&
http://mangoshoppp.com/mangoshoppp/yogasneaker001,YOGA SNEAKER 001,http://secured-imageserver.com/previews/box/kid-sneakers/black.jpg?roli=stack_2_b44537a95d8aacda4fe1b65c5383f3bd.jpg&lori=stack_2_5b13518e9a914c464a916c20067d0d49.jpg&
