https://www.hapvibes.shop/products/diabetes-awareness-custom-sneaker-6,Diabetes Awareness Custom Sneaker,https://img.btdmp.com/10135/10135410/products/1611982427d7d879b69b.jpeg,https://img.btdmp.com/10135/10135410/products/16119824277f46348423.jpeg,https://img.btdmp.com/10135/10135410/products/16119824279ed41c2ddd.png
https://www.hapvibes.shop/products/autism-awareness-custom-sneaker,Autism Awareness Custom Sneaker,https://img.btdmp.com/10135/10135410/products/1611982423423a371b53.png,https://img.btdmp.com/10135/10135410/products/161198242371c05bc409.png,https://img.btdmp.com/10135/10135410/products/16119824237420fbd781.jpeg
https://www.hapvibes.shop/products/diabetes-awareness-custom-sneaker,Diabetes Awareness Custom Sneaker,https://img.btdmp.com/10135/10135410/products/1611982427a9072a4904.jpeg,https://img.btdmp.com/10135/10135410/products/16119824270eb9e4b16f.jpeg,https://img.btdmp.com/10135/10135410/products/1611982427218e23cfd1.png
https://www.hapvibes.shop/products/diabetes-awareness-custom-sneaker-3,Diabetes Awareness Custom Sneaker,https://img.btdmp.com/10135/10135410/products/1611982427d6e2ce282d.png,https://img.btdmp.com/10135/10135410/products/1611982427ea1cd6c8f2.png,https://img.btdmp.com/10135/10135410/products/161198242750519fcf55.jpeg
https://www.hapvibes.shop/products/diabetes-awareness-custom-sneaker-9,Diabetes Awareness Custom Sneaker,https://img.btdmp.com/10135/10135410/products/161198242795060d6c64.jpeg,https://img.btdmp.com/10135/10135410/products/161198242713e66aba01.jpeg,https://img.btdmp.com/10135/10135410/products/1611982427064427d5f1.png
https://www.hapvibes.shop/products/autism-awareness-jd13-sneaker-2,Autism Awareness JD13 Sneaker,https://img.btdmp.com/10135/10135410/products/161198242306b1db6465.png,https://img.btdmp.com/10135/10135410/products/1611982423b51b70e2e6.png,https://img.btdmp.com/10135/10135410/products/1611982423f766bf1a00.png,https://img.btdmp.com/10135/10135410/products/1611982423fe01b91ab5.png
https://www.hapvibes.shop/products/alzheimers-awareness-jd13-sneaker,Alzheimer’s Awareness JD13 Sneaker,https://img.btdmp.com/10135/10135410/products/1611982423b908b77be0.png,https://img.btdmp.com/10135/10135410/products/1611982423ceb982af0d.png,https://img.btdmp.com/10135/10135410/products/1611982423592328c249.png,https://img.btdmp.com/10135/10135410/products/1611982423ffd7799cac.png
https://www.hapvibes.shop/products/autism-awareness-jd13-sneaker,Autism Awareness JD13 Sneaker,https://img.btdmp.com/10135/10135410/products/1611982423baac0ef454.png,https://img.btdmp.com/10135/10135410/products/16119824238ec9740c4a.png,https://img.btdmp.com/10135/10135410/products/1611982424ea27898b85.png,https://img.btdmp.com/10135/10135410/products/1611982423db627a4351.png
https://www.hapvibes.shop/products/alzheimers-awareness-custom-sneaker,Alzheimer’s Awareness Custom Sneaker,https://img.btdmp.com/10135/10135410/products/1611982423fdeac66ec6.jpeg,https://img.btdmp.com/10135/10135410/products/1611982423333e4ef533.jpeg,https://img.btdmp.com/10135/10135410/products/1611982423e25601ddae.png
https://www.hapvibes.shop/products/autism-awareness-custom-sneaker-2,Autism Awareness Custom Sneaker,https://img.btdmp.com/10135/10135410/products/161198242383cb6cf1cc.jpeg
https://www.hapvibes.shop/products/autism-awareness-custom-sneaker-2,Autism Awareness Custom Sneaker,https://img.btdmp.com/10135/10135410/products/161198242383cb6cf1cc.jpeg
https://www.hapvibes.shop/products/diabetes-awareness-custom-sneaker-5,Diabetes Awareness Custom Sneaker,https://img.btdmp.com/10135/10135410/products/16119824275a4fd0635d.jpeg,https://img.btdmp.com/10135/10135410/products/1611982427d695d1e7fc.jpeg,https://img.btdmp.com/10135/10135410/products/1611982427af554aa347.png
https://www.hapvibes.shop/products/diabetes-awareness-jd13-sneaker,Diabetes Awareness JD13 Sneaker,https://img.btdmp.com/10135/10135410/products/161198242811b4a488a7.png,https://img.btdmp.com/10135/10135410/products/16119824287ae8356517.png,https://img.btdmp.com/10135/10135410/products/1611982428cc681e041e.png,https://img.btdmp.com/10135/10135410/products/1611982428b7cff9afcc.png
https://www.hapvibes.shop/products/diabetes-awareness-custom-sneaker-7,Diabetes Awareness Custom Sneaker,https://img.btdmp.com/10135/10135410/products/16119824270cfc7f9300.jpeg,https://img.btdmp.com/10135/10135410/products/161198242760fcf667d9.jpeg,https://img.btdmp.com/10135/10135410/products/161198242746c1cb38ad.png
https://www.hapvibes.shop/products/diabetes-awareness-custom-sneaker-2,Diabetes Awareness Custom Sneaker,https://img.btdmp.com/10135/10135410/products/1611982428a7d576ede0.jpeg,https://img.btdmp.com/10135/10135410/products/161198242846934b7316.jpeg,https://img.btdmp.com/10135/10135410/products/16119824281347cd05e4.png
https://www.hapvibes.shop/products/diabetes-awareness-custom-sneaker-4,Diabetes Awareness Custom Sneaker,https://img.btdmp.com/10135/10135410/products/1611982427358e0fadd9.jpeg,https://img.btdmp.com/10135/10135410/products/1611982427b5f044d634.jpeg,https://img.btdmp.com/10135/10135410/products/16119824270aa9011648.png
https://www.hapvibes.shop/products/breast-cancer-awareness-custom-sneaker-8,Breast Cancer Awareness Custom Sneaker,https://img.btdmp.com/10135/10135410/products/16119824268043cb17e6.jpeg,https://img.btdmp.com/10135/10135410/products/1611982426f463eea395.jpeg,https://img.btdmp.com/10135/10135410/products/1611982426c84f0e20fe.png
https://www.hapvibes.shop/products/breast-cancer-awareness-custom-sneaker-13,Breast Cancer Awareness Custom Sneaker,https://img.btdmp.com/10135/10135410/products/1611982426203becccc5.jpeg,https://img.btdmp.com/10135/10135410/products/1611982426e9c6ed9ae4.jpeg,https://img.btdmp.com/10135/10135410/products/1611982426cf8c3c93a9.png
https://www.hapvibes.shop/products/breast-cancer-awareness-custom-sneaker-20,Breast Cancer Awareness Custom Sneaker,https://img.btdmp.com/10135/10135410/products/161198242507195d6dbd.jpeg,https://img.btdmp.com/10135/10135410/products/16119824253fdee16646.jpeg,https://img.btdmp.com/10135/10135410/products/1611982425973fad14fd.png
https://www.hapvibes.shop/products/breast-cancer-awareness-custom-sneaker-24,Breast Cancer Awareness Custom Sneaker,https://img.btdmp.com/10135/10135410/products/161198242699c44f32fa.png,https://img.btdmp.com/10135/10135410/products/16119824269c5afdd38b.jpeg
https://www.hapvibes.shop/products/breast-cancer-awareness-custom-sneaker-13,Breast Cancer Awareness Custom Sneaker,https://img.btdmp.com/10135/10135410/products/1611982426203becccc5.jpeg,https://img.btdmp.com/10135/10135410/products/1611982426e9c6ed9ae4.jpeg,https://img.btdmp.com/10135/10135410/products/1611982426cf8c3c93a9.png
https://www.hapvibes.shop/products/breast-cancer-awareness-custom-sneaker-20,Breast Cancer Awareness Custom Sneaker,https://img.btdmp.com/10135/10135410/products/161198242507195d6dbd.jpeg,https://img.btdmp.com/10135/10135410/products/16119824253fdee16646.jpeg,https://img.btdmp.com/10135/10135410/products/1611982425973fad14fd.png
https://www.hapvibes.shop/products/personalized-autism-awareness-custom-sneaker,Personalized Autism Awareness Custom Sneaker,https://img.btdmp.com/10135/10135410/products/1611982428ffef1a5fe7.png,https://img.btdmp.com/10135/10135410/products/1611982428c9827a9894.jpeg
https://www.hapvibes.shop/products/breast-cancer-awareness-custom-sneaker-15,Breast Cancer Awareness Custom Sneaker,https://img.btdmp.com/10135/10135410/products/1611982425f1c35c3ece.jpeg,https://img.btdmp.com/10135/10135410/products/16119824256ed961962e.jpeg,https://img.btdmp.com/10135/10135410/products/161198242519f003eec1.png
https://www.hapvibes.shop/products/breast-cancer-awareness-custom-sneaker-6,Breast Cancer Awareness Custom Sneaker,https://img.btdmp.com/10135/10135410/products/1611982425cd42b77469.jpeg,https://img.btdmp.com/10135/10135410/products/161198242593bb49a6c9.jpeg,https://img.btdmp.com/10135/10135410/products/16119824252aadda65e8.png
https://www.hapvibes.shop/products/breast-cancer-awareness-custom-sneaker-17,Breast Cancer Awareness Custom Sneaker,https://img.btdmp.com/10135/10135410/products/1611982424a2c01d23e3.jpeg,https://img.btdmp.com/10135/10135410/products/161198242576e5643ec7.jpeg,https://img.btdmp.com/10135/10135410/products/16119824257ffba304d5.png
https://www.hapvibes.shop/products/breast-cancer-awareness-custom-sneaker-14,Breast Cancer Awareness Custom Sneaker,https://img.btdmp.com/10135/10135410/products/16119824247c588b1c85.jpeg,https://img.btdmp.com/10135/10135410/products/16119824243b3edb65d5.jpeg,https://img.btdmp.com/10135/10135410/products/1611982424a29e4fd43b.png
https://www.hapvibes.shop/products/breast-cancer-awareness-custom-sneaker-19,Breast Cancer Awareness Custom Sneaker,https://img.btdmp.com/10135/10135410/products/1611982426a64e091a20.jpeg,https://img.btdmp.com/10135/10135410/products/1611982426a9d09ba324.jpeg,https://img.btdmp.com/10135/10135410/products/1611982426a1da8a79c1.png
https://www.hapvibes.shop/products/breast-cancer-awareness-custom-sneaker-12,Breast Cancer Awareness Custom Sneaker,https://img.btdmp.com/10135/10135410/products/161198242425400a5319.png,https://img.btdmp.com/10135/10135410/products/16119824245fd59bac8c.png,https://img.btdmp.com/10135/10135410/products/16119824249aa64d58f3.jpeg
https://www.hapvibes.shop/products/breast-cancer-awareness-custom-sneaker-22,Breast Cancer Awareness Custom Sneaker,https://img.btdmp.com/10135/10135410/products/1611982425ac733e7c2a.jpeg,https://img.btdmp.com/10135/10135410/products/1611982425dcd1725832.jpeg,https://img.btdmp.com/10135/10135410/products/16119824250bb3602504.png
https://www.hapvibes.shop/products/personalized-autism-awareness-jd13-sneaker-2,Personalized Autism Awareness JD13 Sneaker,https://img.btdmp.com/10135/10135410/products/1614328824c1d73f0e9e.png,https://img.btdmp.com/10135/10135410/products/161432883223bb50518d.png,https://img.btdmp.com/10135/10135410/products/1614328836617827666e.png,https://img.btdmp.com/10135/10135410/products/1614328814b0a460f667.webp
https://www.hapvibes.shop/products/breast-cancer-awareness-custom-sneaker-4,Breast Cancer Awareness Custom Sneaker,https://img.btdmp.com/10135/10135410/products/16119824259850ffbec4.jpeg,https://img.btdmp.com/10135/10135410/products/16119824254e2710b8d9.jpeg,https://img.btdmp.com/10135/10135410/products/1611982425dd2f6dae55.png
https://www.hapvibes.shop/products/breast-cancer-awareness-custom-sneaker-11,Breast Cancer Awareness Custom Sneaker,https://img.btdmp.com/10135/10135410/products/1611982424d7a073366f.jpeg,https://img.btdmp.com/10135/10135410/products/1611982424ddac31fc69.jpeg,https://img.btdmp.com/10135/10135410/products/1611982424ad7d0cbb65.png
https://www.hapvibes.shop/products/breast-cancer-awareness-custom-sneaker-2,Breast Cancer Awareness Custom Sneaker,https://img.btdmp.com/10135/10135410/products/1611982425cd3bf648e7.jpeg,https://img.btdmp.com/10135/10135410/products/161198242556e7ea0347.jpeg,https://img.btdmp.com/10135/10135410/products/16119824258d3f5e9f84.png
https://www.hapvibes.shop/products/breast-cancer-awareness-custom-sneaker-5,Breast Cancer Awareness Custom Sneaker,https://img.btdmp.com/10135/10135410/products/1611982425ab8f60dfa1.jpeg,https://img.btdmp.com/10135/10135410/products/1611982425fa3687211d.jpeg,https://img.btdmp.com/10135/10135410/products/16119824252a486ecdf5.png
https://www.hapvibes.shop/products/breast-cancer-awareness-custom-sneaker-21,Breast Cancer Awareness Custom Sneaker,https://img.btdmp.com/10135/10135410/products/1611982425a6ce78bc59.jpeg,https://img.btdmp.com/10135/10135410/products/16119824253d4ae438a0.jpeg,https://img.btdmp.com/10135/10135410/products/16119824256db5885914.png
https://www.hapvibes.shop/products/breast-cancer-awareness-jd13-sneaker-4,Breast Cancer Awareness JD13 Sneaker,https://img.btdmp.com/10135/10135410/products/1611982426b76f36afaa.jpeg,https://img.btdmp.com/10135/10135410/products/1611982426b0f89ab1ed.jpeg,https://img.btdmp.com/10135/10135410/products/1611982426a8cb83dba0.jpeg,https://img.btdmp.com/10135/10135410/products/16119824262547afb12b.png
https://www.hapvibes.shop/products/breast-cancer-awareness-custom-sneaker-15,Breast Cancer Awareness Custom Sneaker,https://img.btdmp.com/10135/10135410/products/1611982425f1c35c3ece.jpeg,https://img.btdmp.com/10135/10135410/products/16119824256ed961962e.jpeg,https://img.btdmp.com/10135/10135410/products/161198242519f003eec1.png
https://www.hapvibes.shop/products/breast-cancer-awareness-custom-sneaker-6,Breast Cancer Awareness Custom Sneaker,https://img.btdmp.com/10135/10135410/products/1611982425cd42b77469.jpeg,https://img.btdmp.com/10135/10135410/products/161198242593bb49a6c9.jpeg,https://img.btdmp.com/10135/10135410/products/16119824252aadda65e8.png
https://www.hapvibes.shop/products/personalized-autism-awareness-custom-sneaker,Personalized Autism Awareness Custom Sneaker,https://img.btdmp.com/10135/10135410/products/1611982428ffef1a5fe7.png,https://img.btdmp.com/10135/10135410/products/1611982428c9827a9894.jpeg
https://www.hapvibes.shop/products/personalized-alzheimer-s-awareness-jd13-sneaker-3,Personalized Alzheimer's Awareness JD13 Sneaker,https://img.btdmp.com/10135/10135410/products/1613986341fe254abbca.png,https://img.btdmp.com/10135/10135410/products/161398635326ef069264.png,https://img.btdmp.com/10135/10135410/products/1613986362440876e515.png,https://img.btdmp.com/10135/10135410/products/161398637030dcb59af7.webp
https://www.hapvibes.shop/products/personalized-autism-awareness-jd13-sneaker-2,Personalized Autism Awareness JD13 Sneaker,https://img.btdmp.com/10135/10135410/products/1614328824c1d73f0e9e.png,https://img.btdmp.com/10135/10135410/products/161432883223bb50518d.png,https://img.btdmp.com/10135/10135410/products/1614328836617827666e.png,https://img.btdmp.com/10135/10135410/products/1614328814b0a460f667.webp
https://www.hapvibes.shop/products/personalized-stroke-awareness-jd13-sneaker,Personalized Stroke Awareness JD13 Sneaker,https://img.btdmp.com/10135/10135410/products/16139877418241a8a258.png,https://img.btdmp.com/10135/10135410/products/1613987754b05060f83e.png,https://img.btdmp.com/10135/10135410/products/16139877655dcef006d4.png,https://img.btdmp.com/10135/10135410/products/16139877804ed03d4a6d.webp
https://www.hapvibes.shop/products/breast-cancer-awareness-custom-sneaker-16,Breast Cancer Awareness Custom Sneaker,https://img.btdmp.com/10135/10135410/products/161198242528d2c0edb0.jpeg,https://img.btdmp.com/10135/10135410/products/1611982425baafd8595e.jpeg,https://img.btdmp.com/10135/10135410/products/1611982425b3625eb821.png
https://www.hapvibes.shop/products/breast-cancer-awareness-custom-sneaker-25,Breast Cancer Awareness Custom Sneaker,https://img.btdmp.com/10135/10135410/products/1611982424ec7707bd1f.png,https://img.btdmp.com/10135/10135410/products/1611982424b804d54390.jpeg
https://www.hapvibes.shop/products/personalized-autism-awareness-jd13-sneaker-3,Personalized Autism Awareness JD13 Sneaker,https://img.btdmp.com/10135/10135410/products/161441877385161b480b.png,https://img.btdmp.com/10135/10135410/products/1614418784188d427b16.png,https://img.btdmp.com/10135/10135410/products/161441878979ca2589a3.png,https://img.btdmp.com/10135/10135410/products/1614418758ae27b9d0b2.webp
https://www.hapvibes.shop/products/breast-cancer-awareness-custom-sneaker,Breast Cancer Awareness Custom Sneaker,https://img.btdmp.com/10135/10135410/products/16119824256aa0c20f7b.jpeg,https://img.btdmp.com/10135/10135410/products/1611982425308153a10d.jpeg,https://img.btdmp.com/10135/10135410/products/16119824252ed41eb968.png
https://www.hapvibes.shop/products/breast-cancer-awareness-custom-sneaker-10,Breast Cancer Awareness Custom Sneaker,https://img.btdmp.com/10135/10135410/products/1611982426fa9619e287.jpeg,https://img.btdmp.com/10135/10135410/products/16119824267e3d577d7a.jpeg,https://img.btdmp.com/10135/10135410/products/16119824264869957a32.png
https://www.hapvibes.shop/products/personalized-autism-awareness-jd13-sneaker-1,Personalized Autism Awareness JD13 Sneaker,https://img.btdmp.com/10135/10135410/products/16140722166d8dc9706e.png,https://img.btdmp.com/10135/10135410/products/16140722220a90acbaba.png,https://img.btdmp.com/10135/10135410/products/1614072230c27f2b7642.png,https://img.btdmp.com/10135/10135410/products/1614072249968ab76563.webp
https://www.hapvibes.shop/products/personalized-diabetes-awareness-custom-sneaker,Personalized Diabetes Awareness Custom Sneaker,https://img.btdmp.com/10135/10135410/products/16142495557392f94b93.png,https://img.btdmp.com/10135/10135410/products/16142495700425546442.png,https://img.btdmp.com/10135/10135410/products/16142495798d8ed099ee.png,https://img.btdmp.com/10135/10135410/products/161424958750bfe612f6.png
https://www.hapvibes.shop/products/breast-cancer-awareness-custom-sneaker-23,Breast Cancer Awareness Custom Sneaker,https://img.btdmp.com/10135/10135410/products/1611982424a5effa88c6.jpeg,https://img.btdmp.com/10135/10135410/products/16119824245a981b314e.jpeg,https://img.btdmp.com/10135/10135410/products/1611982424f71ea5394f.png
https://www.hapvibes.shop/products/personalized-autism-awareness-jd13-sneaker,Personalized Autism Awareness JD13 Sneaker,https://img.btdmp.com/10135/10135410/products/161198242889f1211765.jpeg,https://img.btdmp.com/10135/10135410/products/16119824288ac61ab8f1.jpeg,https://img.btdmp.com/10135/10135410/products/1611982428367b7b612e.jpeg,https://img.btdmp.com/10135/10135410/products/1611982428312f225a48.png
https://www.hapvibes.shop/products/personalized-breast-cancer-awareness-custom-sneaker-2,Personalized Breast Cancer Awareness Custom Sneaker,https://img.btdmp.com/10135/10135410/products/1614249144bc783791b5.png,https://img.btdmp.com/10135/10135410/products/161424915442fb5758f0.png,https://img.btdmp.com/10135/10135410/products/16142491662d0b80ce5d.png,https://img.btdmp.com/10135/10135410/products/1614249184b85d02b482.png
https://www.hapvibes.shop/products/personalized-breast-cancer-awareness-custom-sneaker,Personalized Breast Cancer Awareness Custom Sneaker,https://img.btdmp.com/10135/10135410/products/161198242930203d5e42.png,https://img.btdmp.com/10135/10135410/products/16119824297b3740483e.jpeg
https://www.hapvibes.shop/products/personalized-breast-cancer-awareness-jd13-sneaker-1,Personalized Breast Cancer Awareness JD13 Sneaker,https://img.btdmp.com/10135/10135410/products/16139689030ad1058c87.png,https://img.btdmp.com/10135/10135410/products/16139797876f2c24c528.png,https://img.btdmp.com/10135/10135410/products/16139797974cf557674d.png,https://img.btdmp.com/10135/10135410/products/161397980552226543a1.webp
https://www.hapvibes.shop/products/personalized-breast-cancer-awareness-jd13-sneaker,Personalized Breast Cancer Awareness JD13 Sneaker,https://img.btdmp.com/10135/10135410/products/161198242963e5bf5f09.jpeg,https://img.btdmp.com/10135/10135410/products/16119824290c69fb0c31.jpeg,https://img.btdmp.com/10135/10135410/products/16119824294b1cc4df47.jpeg,https://img.btdmp.com/10135/10135410/products/161198242960f61027d6.png
https://www.hapvibes.shop/products/personalized-breast-cancer-awareness-jd13-sneaker-2,Personalized Breast Cancer Awareness JD13 Sneaker,https://img.btdmp.com/10135/10135410/products/16139830254a57a27a1b.png,https://img.btdmp.com/10135/10135410/products/1613983078d6bf743f78.png,https://img.btdmp.com/10135/10135410/products/1613983088c3efb1031e.png,https://img.btdmp.com/10135/10135410/products/16139831855da32472e3.webp
