https://www.sharkscustom.com/products/love-dolphin-g51221-all-season-boots,Love Dolphin G51222 - All Season Boots,https://img.btdmp.com/10074/10074673/products/1608623099e0d8eba26b.jpeg,https://img.btdmp.com/10074/10074673/products/1608623094721b37952b.jpeg,https://img.btdmp.com/10074/10074673/products/1608623096d724f9e3d0.jpeg,https://img.btdmp.com/10074/10074673/products/1608623110710771637a.jpeg,https://img.btdmp.com/10074/10074673/products/16086231119036fd6637.jpeg,https://img.btdmp.com/10074/10074673/products/1608623114ee5b70c421.jpeg
https://www.sharkscustom.com/products/irish-shamrock-celtic-knot-g51221-all-season-boots,Irish Shamrock Celtic Knot G51221 - All Season Boots,https://img.btdmp.com/10074/10074673/products/1608536702427cd63109.jpeg,https://img.btdmp.com/10074/10074673/products/160853670137bd3d84f2.jpeg
https://www.sharkscustom.com/products/samoyed-camo-d805-all-season-boots,Samoyed Camo D805 - All Season Boots,https://img.btdmp.com/10074/10074673/products/158892751547299aae05.jpeg,https://img.btdmp.com/10074/10074673/products/15889275126b0b06d0d4.jpeg,https://img.btdmp.com/10074/10074673/products/158892751286f0c22ec9.jpeg
https://www.sharkscustom.com/products/puggle-camo-d805-all-season-boots,Puggle Camo D805 - All Season Boots,https://img.btdmp.com/10074/10074673/products/1588927460e3e09b15e7.jpeg,https://img.btdmp.com/10074/10074673/products/1588927457e5c5f107c1.jpeg,https://img.btdmp.com/10074/10074673/products/1588927457695b326017.jpeg
https://www.sharkscustom.com/products/goldendoodle-camo-d805-all-season-boots,Goldendoodle Camo D805 - All Season Boots,https://img.btdmp.com/10074/10074673/products/15889273753514250680.jpeg,https://img.btdmp.com/10074/10074673/products/1588927373d4cf6826b9.jpeg,https://img.btdmp.com/10074/10074673/products/15889273734e1d4bdfd9.jpeg
https://www.sharkscustom.com/products/doberman-pinscher-camo-d805-all-season-boots,Doberman Pinscher Camo D805 - All Season Boots,https://img.btdmp.com/10074/10074673/products/158892731879a70fb24b.jpeg,https://img.btdmp.com/10074/10074673/products/158892731646e8da9d66.jpeg,https://img.btdmp.com/10074/10074673/products/1588927316c2374df7f7.jpeg
https://www.sharkscustom.com/products/chow-chow-camo-d805-all-season-boots,Chow Chow Camo D805 - All Season Boots,https://img.btdmp.com/10074/10074673/products/1588927271c0d2f5b928.jpeg,https://img.btdmp.com/10074/10074673/products/15889272693c9f8fee3f.jpeg,https://img.btdmp.com/10074/10074673/products/1588927268a903570324.jpeg
https://www.sharkscustom.com/products/cane-corso-camo-d805-all-season-boots,Cane Corso Camo D805 - All Season Boots,https://img.btdmp.com/10074/10074673/products/1588927205733bf6da1b.jpeg,https://img.btdmp.com/10074/10074673/products/15889272036a0758da33.jpeg,https://img.btdmp.com/10074/10074673/products/15889272027c0f87ab11.jpeg
https://www.sharkscustom.com/products/bull-terrier-camo-d805-all-season-boots,Bull Terrier Camo D805 - All Season Boots,https://img.btdmp.com/10074/10074673/products/158892711543ee5b44f0.jpeg,https://img.btdmp.com/10074/10074673/products/15889271241c83bb4d06.jpeg,https://img.btdmp.com/10074/10074673/products/1588927124f4f2b72342.jpeg
https://www.sharkscustom.com/products/boston-terrier-camo-d805-all-season-boots,Boston Terrier Camo D805 - All Season Boots,https://img.btdmp.com/10074/10074673/products/1588927063efd80e37c7.jpeg,https://img.btdmp.com/10074/10074673/products/15889270611e7ea8aef8.jpeg,https://img.btdmp.com/10074/10074673/products/15889270611bb28687e4.jpeg
https://www.sharkscustom.com/products/bulldog-camo-d805-all-season-boots,Bulldog Camo D805 - All Season Boots,https://img.btdmp.com/10074/10074673/products/1588926981eaa825a191.jpeg,https://img.btdmp.com/10074/10074673/products/1588926979c64e33b2bf.jpeg,https://img.btdmp.com/10074/10074673/products/1588926979d77161dcec.jpeg
https://www.sharkscustom.com/products/wolf-mandala-pattern-d705-all-season-boots,Wolf Mandala Pattern D705 - All Season Boots,https://img.btdmp.com/10074/10074673/products/15888221727c1e966a8a.jpeg,https://img.btdmp.com/10074/10074673/products/15888221692ab18d42ce.jpeg,https://img.btdmp.com/10074/10074673/products/1588822169e2aee5d60a.jpeg
https://www.sharkscustom.com/products/sloth-mandala-pattern-d705-all-season-boots,Sloth Mandala Pattern D705 - All Season Boots,https://img.btdmp.com/10074/10074673/products/1588822116e9fd763911.jpeg,https://img.btdmp.com/10074/10074673/products/1588822114fec4017d1b.jpeg,https://img.btdmp.com/10074/10074673/products/158882211667b7544b40.jpeg
https://www.sharkscustom.com/products/skull-mandala-pattern-d705-all-season-boots,Skull Mandala Pattern D705 - All Season Boots,https://img.btdmp.com/10074/10074673/products/1588821800b5223d4f00.jpeg,https://img.btdmp.com/10074/10074673/products/15888218005648ba20a7.jpeg,https://img.btdmp.com/10074/10074673/products/1588821798659def46e1.jpeg
https://www.sharkscustom.com/products/owl-mandala-pattern-d705-all-season-boots,Owl Mandala Pattern D705 - All Season Boots,https://img.btdmp.com/10074/10074673/products/1588821671c56c344286.jpeg,https://img.btdmp.com/10074/10074673/products/1588821668cd66d9507e.jpeg,https://img.btdmp.com/10074/10074673/products/158882166922b35360ec.jpeg
https://www.sharkscustom.com/products/koala-bear-mandala-pattern-d705-all-season-boots,Koala Mandala Pattern D705 - All Season Boots,https://img.btdmp.com/10074/10074673/products/1588821214b7f34a7d8a.jpeg,https://img.btdmp.com/10074/10074673/products/15888212105e0c7ac420.jpeg,https://img.btdmp.com/10074/10074673/products/1588821210f89fff72e7.jpeg
https://www.sharkscustom.com/products/hummingbird-mandala-pattern-d705-all-season-boots,Hummingbird Mandala Pattern D705 - All Season Boots,https://img.btdmp.com/10074/10074673/products/1588821068c03518b201.jpeg,https://img.btdmp.com/10074/10074673/products/15888210668ed4b8870f.jpeg,https://img.btdmp.com/10074/10074673/products/158882106642b78c2fac.jpeg
https://www.sharkscustom.com/products/horse-mandala-pattern-d705-all-season-boots,Horse Mandala Pattern D705 - All Season Boots,https://img.btdmp.com/10074/10074673/products/15888210152aff583232.jpeg,https://img.btdmp.com/10074/10074673/products/15888210139810c4ebc3.jpeg,https://img.btdmp.com/10074/10074673/products/1588821014729dedd27e.jpeg
https://www.sharkscustom.com/products/dragonfly-mandala-pattern-d705-all-season-boots,Dragonfly Mandala Pattern D705 - All Season Boots,https://img.btdmp.com/10074/10074673/products/158882093886315efd01.jpeg,https://img.btdmp.com/10074/10074673/products/15888209358700556033.jpeg,https://img.btdmp.com/10074/10074673/products/158882093524cbe40e31.jpeg
https://www.sharkscustom.com/products/dragon-mandala-pattern-d705-all-season-boots,Dragon Mandala Pattern D705 - All Season Boots,https://img.btdmp.com/10074/10074673/products/158882078483460b4ebd.jpeg,https://img.btdmp.com/10074/10074673/products/1588820782a8b3213785.jpeg,https://img.btdmp.com/10074/10074673/products/1588820782f6e7077247.jpeg
https://www.sharkscustom.com/products/dachshund-mandala-pattern-d705-all-season-boots,Dachshund Mandala Pattern D705 - All Season Boots,https://img.btdmp.com/10074/10074673/products/158882053098baa32bc4.jpeg,https://img.btdmp.com/10074/10074673/products/15888205254655b66104.jpeg,https://img.btdmp.com/10074/10074673/products/15888205253e61b3c88d.jpeg
https://www.sharkscustom.com/products/chinese-crested-mandala-pattern-d705-all-season-boots,Chinese Crested Mandala Pattern D705 - All Season Boots,https://img.btdmp.com/10074/10074673/products/158882001786e9aa6bc1.jpeg,https://img.btdmp.com/10074/10074673/products/15888200158a8aea0fde.jpeg,https://img.btdmp.com/10074/10074673/products/1588820015cd37237929.jpeg
https://www.sharkscustom.com/products/cat-mandala-pattern-d705-all-season-boots,Cat Mandala Pattern D705 - All Season Boots,https://img.btdmp.com/10074/10074673/products/15888199579b178d019f.jpeg,https://img.btdmp.com/10074/10074673/products/158881995472cf94eb3b.jpeg,https://img.btdmp.com/10074/10074673/products/15888199546c833b19ac.jpeg
https://www.sharkscustom.com/products/bulldog-mandala-pattern-d705-all-season-boots,Bulldog Mandala Pattern D705 - All Season Boots,https://img.btdmp.com/10074/10074673/products/1588819742d2837a546f.jpeg,https://img.btdmp.com/10074/10074673/products/1588819739e49765ad40.jpeg,https://img.btdmp.com/10074/10074673/products/1588819739d57bb6e1db.jpeg
https://www.sharkscustom.com/products/bigfoot-mandala-pattern-d705-all-season-boots,Bigfoot Mandala Pattern D705 - All Season Boots,https://img.btdmp.com/10074/10074673/products/15888195567d55249c69.jpeg,https://img.btdmp.com/10074/10074673/products/1588819553f9425e0dc3.jpeg,https://img.btdmp.com/10074/10074673/products/158881955397ffc3c0db.jpeg
https://www.sharkscustom.com/products/bee-mandala-pattern-d705-all-season-boots,Bee Mandala Pattern D705 - All Season Boots,https://img.btdmp.com/10074/10074673/products/1588819455dff713ca91.jpeg,https://img.btdmp.com/10074/10074673/products/15888194523552f63751.jpeg,https://img.btdmp.com/10074/10074673/products/158881945240f31aa3fc.jpeg
https://www.sharkscustom.com/products/greater-swiss-mountain-dog-awesome-d205-all-season-boots,Greater Swiss Mountain Dog Awesome D205 - All Season Boots,https://img.btdmp.com/10074/10074673/products/158839115448b7664380.jpeg,https://img.btdmp.com/10074/10074673/products/15883911799156f365f8.jpeg,https://img.btdmp.com/10074/10074673/products/158839117907f214e935.jpeg
https://www.sharkscustom.com/products/great-dane-awesome-d205-all-season-boots,Great Dane Awesome D205 - All Season Boots,https://img.btdmp.com/10074/10074673/products/158839108931e9b6cfcf.jpeg,https://img.btdmp.com/10074/10074673/products/15883910848ae89baeae.jpeg,https://img.btdmp.com/10074/10074673/products/15883910841bb2b0016b.jpeg
https://www.sharkscustom.com/products/gordon-setter-awesome-d205-all-season-boots,Gordon Setter Awesome D205 - All Season Boots,https://img.btdmp.com/10074/10074673/products/1588391035c9be05b72a.jpeg,https://img.btdmp.com/10074/10074673/products/1588391030364db71719.jpeg,https://img.btdmp.com/10074/10074673/products/15883910300e2655ee0a.jpeg
https://www.sharkscustom.com/products/golden-retriever-awesome-d205-all-season-boots,Golden Retriever Awesome D205 - All Season Boots,https://img.btdmp.com/10074/10074673/products/15883882900e467a3ee7.jpeg,https://img.btdmp.com/10074/10074673/products/15883882857f7a956a30.jpeg,https://img.btdmp.com/10074/10074673/products/1588388286faaeee74f0.jpeg
https://www.sharkscustom.com/products/giant-schnauzer-awesome-d205-all-season-boots,Giant Schnauzer Awesome D205 - All Season Boots,https://img.btdmp.com/10074/10074673/products/1588388043b1421348e8.jpeg,https://img.btdmp.com/10074/10074673/products/158838803158d9e72782.jpeg,https://img.btdmp.com/10074/10074673/products/158838803254d42321bf.jpeg
https://www.sharkscustom.com/products/german-shepherd-awesome-d304-all-season-boots,German Shepherd Awesome D304 - All Season Boots,https://img.btdmp.com/10074/10074673/products/15882351707f81467393.jpeg,https://img.btdmp.com/10074/10074673/products/15882351655adb352678.jpeg,https://img.btdmp.com/10074/10074673/products/15882351650b27201d55.jpeg
https://www.sharkscustom.com/products/german-pinscher-awesome-d304-all-season-boots,German Pinscher Awesome D304 - All Season Boots,https://img.btdmp.com/10074/10074673/products/1588235040b9fed5e7d3.jpeg,https://img.btdmp.com/10074/10074673/products/1588235034eb5d8657a7.jpeg,https://img.btdmp.com/10074/10074673/products/1588235034c00d5046ac.jpeg
https://www.sharkscustom.com/products/french-bulldog-awesome-d304-all-season-boots,French Bulldog Awesome D304 - All Season Boots,https://img.btdmp.com/10074/10074673/products/1588234858bce9526480.jpeg,https://img.btdmp.com/10074/10074673/products/1588234884f2036098e1.jpeg,https://img.btdmp.com/10074/10074673/products/158823488400de5eaae4.jpeg
https://www.sharkscustom.com/products/english-setter-awesome-d304-all-season-boots,English Setter Awesome D304 - All Season Boots,https://img.btdmp.com/10074/10074673/products/15882199967eabe3a4d0.jpeg,https://img.btdmp.com/10074/10074673/products/1588219989e684abe008.jpeg,https://img.btdmp.com/10074/10074673/products/1588219989f0a44fec9b.jpeg
https://www.sharkscustom.com/products/dogo-argentino-awesome-d304-all-season-boots,Dogo Argentino Awesome D304 - All Season Boots,https://img.btdmp.com/10074/10074673/products/1588219903ea8cee6967.jpeg,https://img.btdmp.com/10074/10074673/products/1588219899d03b1718a2.jpeg,https://img.btdmp.com/10074/10074673/products/15882198990c08b0041d.jpeg
https://www.sharkscustom.com/products/doberman-pinscher-awesome-d304-all-season-boots,Doberman Pinscher Awesome D304 - All Season Boots,https://img.btdmp.com/10074/10074673/products/1588219757b47c4908b9.jpeg,https://img.btdmp.com/10074/10074673/products/15882197514b86dcd7d9.jpeg,https://img.btdmp.com/10074/10074673/products/1588219751265172f934.jpeg
https://www.sharkscustom.com/products/dalmatian-awesome-d304-all-season-boots,Dalmatian Awesome D304 - All Season Boots,https://img.btdmp.com/10074/10074673/products/15882195305bb4655669.jpeg,https://img.btdmp.com/10074/10074673/products/1588219524267093e310.jpeg,https://img.btdmp.com/10074/10074673/products/1588219524ea28c8b19e.jpeg
https://www.sharkscustom.com/products/dachshund-awesome-d304-all-season-boots,Dachshund Awesome D304 - All Season Boots,https://img.btdmp.com/10074/10074673/products/1588219229a624ef9a70.jpeg,https://img.btdmp.com/10074/10074673/products/158821922627b573bf5c.jpeg,https://img.btdmp.com/10074/10074673/products/1588219224b759df6898.jpeg
https://www.sharkscustom.com/products/coton-de-tulear-awesome-d304-all-season-boots,Coton de Tuléar Awesome D304 - All Season Boots,https://img.btdmp.com/10074/10074673/products/158821826776d7197eec.jpeg,https://img.btdmp.com/10074/10074673/products/1588218263d6dddddca3.jpeg,https://img.btdmp.com/10074/10074673/products/1588218264146ae08fac.jpeg
https://www.sharkscustom.com/products/collie-awesome-d304-all-season-boots,Collie Awesome D304 - All Season Boots,https://img.btdmp.com/10074/10074673/products/15882180167e6a8f5000.jpeg,https://img.btdmp.com/10074/10074673/products/1588218012c0dff31454.jpeg,https://img.btdmp.com/10074/10074673/products/1588218011d62f3ba927.jpeg
https://www.sharkscustom.com/products/cocker-spaniel-awesome-d304-all-season-boots,Cocker Spaniel Awesome D304 - All Season Boots,https://img.btdmp.com/10074/10074673/products/15882179319925ea47cc.jpeg,https://img.btdmp.com/10074/10074673/products/1588217926511c09b103.jpeg,https://img.btdmp.com/10074/10074673/products/158821792580df9381e0.jpeg
https://www.sharkscustom.com/products/clumber-spaniel-awesome-d304-all-season-boots,Clumber Spaniel Awesome D304 - All Season Boots,https://img.btdmp.com/10074/10074673/products/1588217824ffe5b2e883.jpeg,https://img.btdmp.com/10074/10074673/products/158821782298cad86068.jpeg,https://img.btdmp.com/10074/10074673/products/15882178209b6963b148.jpeg
https://www.sharkscustom.com/products/chow-chow-awesome-d304-all-season-boots,Chow Chow Awesome D304 - All Season Boots,https://img.btdmp.com/10074/10074673/products/1588216833146ce8ee18.jpeg,https://img.btdmp.com/10074/10074673/products/158821683168a8c83ae2.jpeg,https://img.btdmp.com/10074/10074673/products/15882168308d7ad638c1.jpeg
https://www.sharkscustom.com/products/chinese-crested-awesome-d304-all-season-boots,Chinese Crested Awesome D304 - All Season Boots,https://img.btdmp.com/10074/10074673/products/15882163144558e1e359.jpeg,https://img.btdmp.com/10074/10074673/products/1588216310f826fd6099.jpeg,https://img.btdmp.com/10074/10074673/products/15882163100b993ef3cb.jpeg
https://www.sharkscustom.com/products/chihuahua-awesome-d304-all-season-boots,Chihuahua Awesome D304 - All Season Boots,https://img.btdmp.com/10074/10074673/products/1588216212c6343aaaad.jpeg,https://img.btdmp.com/10074/10074673/products/1588216208e3d07fc28c.jpeg,https://img.btdmp.com/10074/10074673/products/1588216208ab0614af5e.jpeg
https://www.sharkscustom.com/products/chesapeake-bay-retriever-awesome-d304-all-season-boots,Chesapeake Bay Retriever Awesome D304 - All Season Boots,https://img.btdmp.com/10074/10074673/products/1588216070cd6a64c668.jpeg,https://img.btdmp.com/10074/10074673/products/1588216065b01035f4be.jpeg,https://img.btdmp.com/10074/10074673/products/1588216065391a8a5730.jpeg
https://www.sharkscustom.com/products/cavalier-king-charles-spaniel-awesome-d304-all-season-boots,Cavalier King Charles Spaniel Awesome D304 - All Season Boots,https://img.btdmp.com/10074/10074673/products/158821597142d31143e0.jpeg,https://img.btdmp.com/10074/10074673/products/158821596751edb83801.jpeg,https://img.btdmp.com/10074/10074673/products/158821596727a7a7c3f6.jpeg
https://www.sharkscustom.com/products/cardigan-welsh-corgi-awesome-d304-all-season-boots,Cardigan Welsh Corgi Awesome D304 - All Season Boots,https://img.btdmp.com/10074/10074673/products/1588215782b90877ce34.jpeg,https://img.btdmp.com/10074/10074673/products/15882157747963f34a2e.jpeg,https://img.btdmp.com/10074/10074673/products/158821577475c689c924.jpeg
https://www.sharkscustom.com/products/cane-corso-awesome-d304-all-season-boots,Cane Corso Awesome D304 - All Season Boots,https://img.btdmp.com/10074/10074673/products/1588215522710a447878.jpeg,https://img.btdmp.com/10074/10074673/products/15882155180031363150.jpeg,https://img.btdmp.com/10074/10074673/products/15882155198cd423b1d1.jpeg
https://www.sharkscustom.com/products/bull-terrier-awesome-d304-all-season-boots,Bull Terrier Awesome D304 - All Season Boots,https://img.btdmp.com/10074/10074673/products/1588215464ab1a03574d.jpeg,https://img.btdmp.com/10074/10074673/products/1588215458906668f3a1.jpeg,https://img.btdmp.com/10074/10074673/products/1588215459a036513bab.jpeg
https://www.sharkscustom.com/products/bullmastiff-awesome-d304-all-season-boots,Bullmastiff Awesome D304 - All Season Boots,https://img.btdmp.com/10074/10074673/products/1588215373820448b8f0.jpeg,https://img.btdmp.com/10074/10074673/products/15882153843c9075aee9.jpeg,https://img.btdmp.com/10074/10074673/products/15882153845bba25f46b.jpeg
https://www.sharkscustom.com/products/bulldog-awesome-d304-all-season-boots,Bulldog Awesome D304 - All Season Boots,https://img.btdmp.com/10074/10074673/products/15882152361c562ad4ea.jpeg,https://img.btdmp.com/10074/10074673/products/1588215232fbbe6cf7c9.jpeg,https://img.btdmp.com/10074/10074673/products/158821523117e06a7b28.jpeg
https://www.sharkscustom.com/products/boxer-awesome-d304-all-season-boots,Boxer Awesome D304 - All Season Boots,https://img.btdmp.com/10074/10074673/products/15882151276dc56b2cc0.jpeg,https://img.btdmp.com/10074/10074673/products/158821511423382ca74a.jpeg,https://img.btdmp.com/10074/10074673/products/158821511281122c5961.jpeg
https://www.sharkscustom.com/products/bouvier-des-flandres-awesome-d304-all-season-boots,Bouvier des Flandres Awesome D304 - All Season Boots,https://img.btdmp.com/10074/10074673/products/1588215028f2bbf50bd7.jpeg,https://img.btdmp.com/10074/10074673/products/1588215024f8b9302a24.jpeg,https://img.btdmp.com/10074/10074673/products/1588215023b0ac18cc2c.jpeg
https://www.sharkscustom.com/products/border-terrier-awesome-d304-all-season-boots,Border Terrier Awesome D304 - All Season Boots,https://img.btdmp.com/10074/10074673/products/1588214736107bdae5e6.jpeg,https://img.btdmp.com/10074/10074673/products/1588214732b88445e78c.jpeg,https://img.btdmp.com/10074/10074673/products/15882147324bd65ef329.jpeg
https://www.sharkscustom.com/products/border-collie-awesome-d304-all-season-boots,Border Collie Awesome D304 - All Season Boots,https://img.btdmp.com/10074/10074673/products/158821462883de87afc1.jpeg,https://img.btdmp.com/10074/10074673/products/15882146263c73c503fa.jpeg,https://img.btdmp.com/10074/10074673/products/15882146260af9da26d9.jpeg
https://www.sharkscustom.com/products/pomeranian-awesome-all-season-boots,Pomeranian Awesome - All Season Boots,https://img.btdmp.com/10074/10074673/products/1588131570e3b437c75a.jpeg,https://img.btdmp.com/10074/10074673/products/1588131568c2a9a22a8b.jpeg,https://img.btdmp.com/10074/10074673/products/158813156849645eaa47.jpeg
https://www.sharkscustom.com/products/black-cat-awesome-all-season-boots,Black Cat Awesome - All Season Boots,https://img.btdmp.com/10074/10074673/products/15881315120584cd579f.jpeg,https://img.btdmp.com/10074/10074673/products/158813150359092f757d.jpeg,https://img.btdmp.com/10074/10074673/products/15881315038d4002a2dc.jpeg
https://www.sharkscustom.com/products/bernese-mountain-dog-awesome-all-season-boots,Bernese Mountain Dog Awesome - All Season Boots,https://img.btdmp.com/10074/10074673/products/158813141605c8607588.jpeg,https://img.btdmp.com/10074/10074673/products/1588131411600c8e31dc.jpeg,https://img.btdmp.com/10074/10074673/products/158813141276c009c675.jpeg
https://www.sharkscustom.com/products/bergamasco-shepherd-awesome-all-season-boots,Bergamasco Shepherd Awesome - All Season Boots,https://img.btdmp.com/10074/10074673/products/1588131294acb9cbd1e7.jpeg,https://img.btdmp.com/10074/10074673/products/1588131290c9f8f244de.jpeg,https://img.btdmp.com/10074/10074673/products/158813129156874f117d.jpeg
https://www.sharkscustom.com/products/belgian-shepherd-awesome-all-season-boots,Belgian Shepherd Awesome - All Season Boots,https://img.btdmp.com/10074/10074673/products/158813115956bc08453d.jpeg,https://img.btdmp.com/10074/10074673/products/15881311582160805b03.jpeg,https://img.btdmp.com/10074/10074673/products/15881311584b1fe33b9a.jpeg
https://www.sharkscustom.com/products/bearded-collie-awesome-all-season-boots,Bearded Collie Awesome - All Season Boots,https://img.btdmp.com/10074/10074673/products/1588130646d1bb831cfb.jpeg,https://img.btdmp.com/10074/10074673/products/158813064244f5471853.jpeg,https://img.btdmp.com/10074/10074673/products/15881306420f3b5d222d.jpeg
https://www.sharkscustom.com/products/beagle-awesome-all-season-boots,Beagle Awesome - All Season Boots,https://img.btdmp.com/10074/10074673/products/15881305001c7e5bef5c.jpeg,https://img.btdmp.com/10074/10074673/products/15881304970ff376076f.jpeg,https://img.btdmp.com/10074/10074673/products/1588130497448e797236.jpeg
https://www.sharkscustom.com/products/basset-hound-awesome-all-season-boots,Basset Hound Awesome - All Season Boots,https://img.btdmp.com/10074/10074673/products/1588130384862509ff03.jpeg,https://img.btdmp.com/10074/10074673/products/1588130381c665bc18d1.jpeg,https://img.btdmp.com/10074/10074673/products/15881303817f4a1d18d4.jpeg
https://www.sharkscustom.com/products/basenji-awesome-all-season-boots,Basenji Awesome - All Season Boots,https://img.btdmp.com/10074/10074673/products/1588130232d121f14ac1.jpeg,https://img.btdmp.com/10074/10074673/products/1588130229ae7ae89e27.jpeg,https://img.btdmp.com/10074/10074673/products/158813022955853af0b0.jpeg
https://www.sharkscustom.com/products/australian-shepherd-awesome-all-season-boots,Australian Shepherd Awesome - All Season Boots,https://img.btdmp.com/10074/10074673/products/1588130153a6a0a4c675.jpeg,https://img.btdmp.com/10074/10074673/products/158813015087bb90fd86.jpeg,https://img.btdmp.com/10074/10074673/products/15881301510116d3d096.jpeg
https://www.sharkscustom.com/products/australian-kelpie-awesome-all-season-boots,Australian Kelpie Awesome - All Season Boots,https://img.btdmp.com/10074/10074673/products/1588129628410a6d43f2.jpeg,https://img.btdmp.com/10074/10074673/products/15881296243c9347991a.jpeg,https://img.btdmp.com/10074/10074673/products/15881296241a91d66cf9.jpeg
https://www.sharkscustom.com/products/anatolian-shepherd-awesome-all-season-boots,Anatolian Shepherd Awesome - All Season Boots,https://img.btdmp.com/10074/10074673/products/1588129229e1ae24bf94.jpeg,https://img.btdmp.com/10074/10074673/products/158812922641e25a29c2.jpeg,https://img.btdmp.com/10074/10074673/products/158812922630ba8f8fb9.jpeg
https://www.sharkscustom.com/products/american-pit-bull-terrier-awesome-all-season-boots,American Pit Bull Terrier Awesome - All Season Boots,https://img.btdmp.com/10074/10074673/products/1588129108ae215c48ce.jpeg,https://img.btdmp.com/10074/10074673/products/1588129104938c31f877.jpeg,https://img.btdmp.com/10074/10074673/products/158812910435e7257e43.jpeg
https://www.sharkscustom.com/products/american-staffordshire-terrier-awesome-all-season-boots,American Staffordshire Terrier Awesome - All Season Boots,https://img.btdmp.com/10074/10074673/products/15881288470085adebdd.jpeg,https://img.btdmp.com/10074/10074673/products/1588128844b77f325d2f.jpeg,https://img.btdmp.com/10074/10074673/products/15881288441a776dc8b0.jpeg
https://www.sharkscustom.com/products/alaskan-malamute-awesome-all-season-boots,Alaskan Malamute Awesome - All Season Boots,https://img.btdmp.com/10074/10074673/products/1588128581688e7bda47.jpeg,https://img.btdmp.com/10074/10074673/products/1588128575f37cb5b412.jpeg,https://img.btdmp.com/10074/10074673/products/1588128576e9cd2d7744.jpeg
https://www.sharkscustom.com/products/akita-awesome-all-season-boots,Akita Awesome - All Season Boots,https://img.btdmp.com/10074/10074673/products/15881275450073b07de1.jpeg,https://img.btdmp.com/10074/10074673/products/1588127542fa6b6bf2c8.jpeg,https://img.btdmp.com/10074/10074673/products/1588127543328e5d13fe.jpeg
https://www.sharkscustom.com/products/akbash-dog-awesome-all-season-boots,Akbash Dog Awesome - All Season Boots,https://img.btdmp.com/10074/10074673/products/1588126699c5f92c0c66.jpeg,https://img.btdmp.com/10074/10074673/products/1588126696b07749f1ff.jpeg,https://img.btdmp.com/10074/10074673/products/15881266973d1455c90c.jpeg
https://www.sharkscustom.com/products/airedale-terrier-awesome-all-season-boots,Airedale Terrier Awesome - All Season Boots,https://img.btdmp.com/10074/10074673/products/158812577648e26ea1f0.jpeg,https://img.btdmp.com/10074/10074673/products/1588125773369e1fb704.jpeg,https://img.btdmp.com/10074/10074673/products/1588125774f813da6c7c.jpeg
https://www.sharkscustom.com/products/afghan-hound-awesome-all-season-boots,Afghan Hound Awesome - All Season Boots,https://img.btdmp.com/10074/10074673/products/1588124787e5fce5ac50.jpeg,https://img.btdmp.com/10074/10074673/products/1588124787524a468b44.jpeg,https://img.btdmp.com/10074/10074673/products/1588124787b3cca7f05e.jpeg
