https://thamotee.com/products/canna01?_pos=1&_sid=8c8fbc30b&_ss=r,CANNABIS JD13 SNEAKERS,https://cdn.shopify.com/s/files/1/0280/6408/8138/products/SHOES3CANNABISSWEATERSETcopy.jpg?v=1604560336
https://thamotee.com/products/sne10t6nurse?_pos=2&_sid=8c8fbc30b&_ss=r,NURSE JD13 SNEAKERS,https://cdn.shopify.com/s/files/1/0280/6408/8138/products/NURSE1-BELLA_1a9eb898-339f-4f5c-b641-e5fc20540d90.jpg?v=1599737325
https://thamotee.com/products/sne10cnb?_pos=3&_sid=8c8fbc30b&_ss=r,CANNABIS JD13 SNEAKERS,https://cdn.shopify.com/s/files/1/0280/6408/8138/products/0908D-CANNABISWOMANJD132-BELLA.jpg?v=1599736233
https://thamotee.com/products/sn0910mm?_pos=4&_sid=8c8fbc30b&_ss=r,MERMAID JD13 SNEAKERS,https://cdn.shopify.com/s/files/1/0280/6408/8138/products/0901D0MERMAIDJD132-BELLA.jpg?v=1599736098
https://thamotee.com/products/jhh676hgg?_pos=5&_sid=8c8fbc30b&_ss=r,VIRGO JD13 SNEAKERS,https://cdn.shopify.com/s/files/1/0280/6408/8138/products/VIRGO-0827D-JD13ZODIACFULL1-BELLA.jpg?v=1598876481
https://thamotee.com/products/uyh676ghf?_pos=6&_sid=8c8fbc30b&_ss=r,TAURUS JD13 SNEAKERS,https://cdn.shopify.com/s/files/1/0280/6408/8138/products/TAURUS-0827D-JD13ZODIACFULL1-BELLA.jpg?v=1598876400
https://thamotee.com/products/jhj565gfh?_pos=7&_sid=8c8fbc30b&_ss=r,SCORPIO JD13 SNEAKERS,https://cdn.shopify.com/s/files/1/0280/6408/8138/products/SCORPIO-0827D-JD13ZODIACFULL1-BELLA.jpg?v=1598876326
https://thamotee.com/products/khj243jfj?_pos=8&_sid=8c8fbc30b&_ss=r,SAGITTARIUS JD13 SNEAKERS,https://cdn.shopify.com/s/files/1/0280/6408/8138/products/SAGITTARIUS-0827D-JD13ZODIACFULL1-BELLA.jpg?v=1598876241
https://thamotee.com/products/kjh123kjj?_pos=9&_sid=8c8fbc30b&_ss=r,PISCES JD13 SNEAKERS,https://cdn.shopify.com/s/files/1/0280/6408/8138/products/PISCES-0827D-JD13ZODIACFULL1-BELLA.jpg?v=1598876129
https://thamotee.com/products/okh132ghg?_pos=10&_sid=8c8fbc30b&_ss=r,LIBRA JD13 SNEAKERS,https://cdn.shopify.com/s/files/1/0280/6408/8138/products/LIBRA-0827D-JD13ZODIACFULL1-BELLA.jpg?v=1598876013
https://thamotee.com/products/iuj787kjj?_pos=11&_sid=8c8fbc30b&_ss=r,LEO JD13 SNEAKERS,https://cdn.shopify.com/s/files/1/0280/6408/8138/products/LEO-0827D-JD13ZODIACFULL1-BELLA.jpg?v=1598875910
https://thamotee.com/products/oij676hjh?_pos=12&_sid=8c8fbc30b&_ss=r,GEMINI JD13 SNEAKERS,https://cdn.shopify.com/s/files/1/0280/6408/8138/products/GEMINI-0827D-JD13ZODIACFULL1-BELLA.jpg?v=1598875818
https://thamotee.com/products/uik345ghj?_pos=13&_sid=8c8fbc30b&_ss=r,CAPRICORN JD13 SNEAKERS,https://cdn.shopify.com/s/files/1/0280/6408/8138/products/CAPRICORN-0827D-JD13ZODIACFULL1-BELLA.jpg?v=1598875737
https://thamotee.com/products/kkh234hgf?_pos=14&_sid=8c8fbc30b&_ss=r,CANCER JD13 SNEAKERS,https://cdn.shopify.com/s/files/1/0280/6408/8138/products/CANCER-0827D-JD13ZODIACFULL1-BELLA.jpg?v=1598875652
https://thamotee.com/products/iui678fgf?_pos=15&_sid=8c8fbc30b&_ss=r,ARIES JD13 SNEAKERS,https://cdn.shopify.com/s/files/1/0280/6408/8138/products/ARIES-0827D-JD13ZODIACFULL1-BELLA.jpg?v=1598875579
https://thamotee.com/products/kjj543ghh?_pos=16&_sid=8c8fbc30b&_ss=r,AQUARIUS JD13 SNEAKERS,https://cdn.shopify.com/s/files/1/0280/6408/8138/products/AQUARIUS-0827D-JD13ZODIACFULL1-BELLA.jpg?v=1598875479
https://thamotee.com/products/jhj677fgf?_pos=17&_sid=8c8fbc30b&_ss=r,VIRGO JD13 SNEAKERS,https://cdn.shopify.com/s/files/1/0280/6408/8138/products/VIRGO0827D-JD132ZODIACLOGOS1-BELLA.jpg?v=1598873249
https://thamotee.com/products/tty345dfs?_pos=18&_sid=8c8fbc30b&_ss=r,TAURUS JD13 SNEAKERS,https://cdn.shopify.com/s/files/1/0280/6408/8138/products/TAURUS0827D-JD132ZODIACLOGOS1-BELLA.jpg?v=1598873181
https://thamotee.com/products/fgd56fgh?_pos=19&_sid=8c8fbc30b&_ss=r,SCORPIO JD13 SNEAKERS,https://cdn.shopify.com/s/files/1/0280/6408/8138/products/SCORPIO0827D-JD132ZODIACLOGOS1-BELLA.jpg?v=1598873110
https://thamotee.com/products/ghd234ghj?_pos=20&_sid=8c8fbc30b&_ss=r,SAGITTARIUS JD13 SNEAKERS,https://cdn.shopify.com/s/files/1/0280/6408/8138/products/SAGITTARIUS0827D-JD132ZODIACLOGOS1-BELLA.jpg?v=1598873007
https://thamotee.com/products/fgf676uiu?_pos=21&_sid=e047abc2f&_ss=r,PISCES JD13 SNEAKERS,https://cdn.shopify.com/s/files/1/0280/6408/8138/products/PISCES0827D-JD132ZODIACLOGOS1-BELLA.jpg?v=1598875298
https://thamotee.com/products/zod211lib?_pos=22&_sid=e047abc2f&_ss=r,LIBRA JD13 SNEAKERS,https://cdn.shopify.com/s/files/1/0280/6408/8138/products/LIBRA0827D-JD132ZODIACLOGOS1-BELLA.jpg?v=1598872453
https://thamotee.com/products/zod134la?_pos=23&_sid=e047abc2f&_ss=r,LEO JD13 SNEAKERS,https://cdn.shopify.com/s/files/1/0280/6408/8138/products/LEO0827D-JD132ZODIACLOGOS1-BELLA.jpg?v=1598872216
https://thamotee.com/products/zod232gen?_pos=24&_sid=e047abc2f&_ss=r,GEMINI JD13 SNEAKERS,https://cdn.shopify.com/s/files/1/0280/6408/8138/products/GEMINI0827D-JD132ZODIACLOGOS1-BELLA.jpg?v=1598872062
https://thamotee.com/products/zod123capi?_pos=25&_sid=e047abc2f&_ss=r,CAPRICORN JD13 SNEAKERS,https://cdn.shopify.com/s/files/1/0280/6408/8138/products/CAPRICORN0827D-JD132ZODIACLOGOS1-BELLA.jpg?v=1598871900
https://thamotee.com/products/zod122can?_pos=26&_sid=e047abc2f&_ss=r,CANCER JD13 SNEAKERS,https://cdn.shopify.com/s/files/1/0280/6408/8138/products/CANCER0827D-JD132ZODIACLOGOS1-BELLA.jpg?v=1598871731
https://thamotee.com/products/zod121ari?_pos=27&_sid=e047abc2f&_ss=r,ARIES JD13 SNEAKERS,https://cdn.shopify.com/s/files/1/0280/6408/8138/products/ARIES0827D-JD132ZODIACLOGOS1-BELLA.jpg?v=1598871481
https://thamotee.com/products/aqua120zod?_pos=28&_sid=e047abc2f&_ss=r,AQUARIUS JD13 SNEAKERS,https://cdn.shopify.com/s/files/1/0280/6408/8138/products/AQUARIUS0827D-JD132ZODIACLOGOS1-BELLA.jpg?v=1598871186
https://thamotee.com/products/sne12z?_pos=29&_sid=e047abc2f&_ss=r,VIRGO JD13 SNEAKERS,https://cdn.shopify.com/s/files/1/0280/6408/8138/products/Virgo0826D-JD13ZODIAC1-Bella.jpg?v=1598601237
https://thamotee.com/products/sne11z?_pos=30&_sid=e047abc2f&_ss=r,TAURUS JD13 SNEAKERS,https://cdn.shopify.com/s/files/1/0280/6408/8138/products/Taurus0826D-JD13ZODIAC1-Bella.jpg?v=1598601082
https://thamotee.com/products/sne10z?_pos=31&_sid=e047abc2f&_ss=r,SCORPIO JD13 SNEAKERS,https://cdn.shopify.com/s/files/1/0280/6408/8138/products/Scorpio0826D-JD13ZODIAC1-Bella.jpg?v=1598600974
https://thamotee.com/products/sne09z?_pos=32&_sid=e047abc2f&_ss=r,SAGITTARIUS JD13 SNEAKERS,https://cdn.shopify.com/s/files/1/0280/6408/8138/products/Sagittarius0826D-JD13ZODIAC1-Bella.jpg?v=1598504183
https://thamotee.com/products/sne08z?_pos=33&_sid=e047abc2f&_ss=r,PISCES JD13 SNEAKERS,https://cdn.shopify.com/s/files/1/0280/6408/8138/products/pisces0826D-JD13ZODIAC1-Bella.jpg?v=1598504086
https://thamotee.com/products/sne07z?_pos=34&_sid=e047abc2f&_ss=r,LIBRA JD13 SNEAKERS,https://cdn.shopify.com/s/files/1/0280/6408/8138/products/Libra0826D-JD13ZODIAC1-Bella.jpg?v=1598503981
https://thamotee.com/products/sne06z?_pos=35&_sid=e047abc2f&_ss=r,LEO JD13 SNEAKERS,https://cdn.shopify.com/s/files/1/0280/6408/8138/products/Leo0826D-JD13ZODIAC1-Bella.jpg?v=1598503814
https://thamotee.com/products/sne05z?_pos=36&_sid=e047abc2f&_ss=r,GEMINI JD13 SNEAKERS,https://cdn.shopify.com/s/files/1/0280/6408/8138/products/Gemini0826D-JD13ZODIAC1-Bella.jpg?v=1598503564
https://thamotee.com/products/sne04z?_pos=37&_sid=e047abc2f&_ss=r,CAPRICORN JD13 SNEAKERS,https://cdn.shopify.com/s/files/1/0280/6408/8138/products/Capricorn0826D-JD13ZODIAC1-Bella.jpg?v=1598503414
https://thamotee.com/products/sne03z?_pos=38&_sid=e047abc2f&_ss=r,CANCER JD13 SNEAKERS,https://cdn.shopify.com/s/files/1/0280/6408/8138/products/Cancer0826D-JD13ZODIAC1-Bella.jpg?v=1598502757
https://thamotee.com/products/sne02z?_pos=39&_sid=e047abc2f&_ss=r,ARIES JD13 SNEAKERS,https://cdn.shopify.com/s/files/1/0280/6408/8138/products/Aries0826D-JD13ZODIAC1-Bella.jpg?v=1598502628
https://thamotee.com/products/sne01z?_pos=40&_sid=e047abc2f&_ss=r,AQUARIUS JD13 SNEAKERS,https://cdn.shopify.com/s/files/1/0280/6408/8138/products/Aquarius0826D-JD13ZODIAC1-Bella.jpg?v=1598502412
https://thamotee.com/products/snet8dop?_pos=41&_sid=e047abc2f&_ss=r,LIMITED EDITION JD13 SNEAKERS,https://cdn.shopify.com/s/files/1/0280/6408/8138/products/dolphins1.jpg?v=1599811791
https://thamotee.com/products/sneak129cp2?_pos=42&_sid=e047abc2f&_ss=r,LIMITED EDITION JD13 SNEAKERS,https://cdn.shopify.com/s/files/1/0280/6408/8138/products/KansasCityChiefs1_ce242901-12b2-4d68-99b3-e3f9a86a4fce.jpg?v=1612602926
https://thamotee.com/products/snea143cp2?_pos=43&_sid=e047abc2f&_ss=r,LIMITED EDITION JD13 SNEAKERS,https://cdn.shopify.com/s/files/1/0280/6408/8138/products/TampaBayBuccaneers4_638f99e4-98bc-4c87-ab67-2e860919c09e.jpg?v=1612602781
https://thamotee.com/products/sn129cp202?_pos=44&_sid=e047abc2f&_ss=r,LIMITED EDITION JD13 SNEAKERS,https://cdn.shopify.com/s/files/1/0280/6408/8138/products/KansasCityChiefs2-4.jpg?v=1611642557
https://thamotee.com/products/sn129cp201?_pos=45&_sid=e047abc2f&_ss=r,LIMITED EDITION JD13 SNEAKERS,https://cdn.shopify.com/s/files/1/0280/6408/8138/products/KansasCityChiefs1-4.jpg?v=1611642439
https://thamotee.com/products/sn143cp202?_pos=46&_sid=e047abc2f&_ss=r,LIMITED EDITION JD13 SNEAKERS,https://cdn.shopify.com/s/files/1/0280/6408/8138/products/TampaBayBuccaneers2-4.jpg?v=1611642273
https://thamotee.com/products/sn143cp201?_pos=47&_sid=e047abc2f&_ss=r,LIMITED EDITION JD13 SNEAKERS,https://cdn.shopify.com/s/files/1/0280/6408/8138/products/TampaBayBuccaneers1-4.jpg?v=1611641933
https://thamotee.com/products/sn138cp202?_pos=48&_sid=e047abc2f&_ss=r,LIMITED EDITION JD13 SNEAKERS,https://cdn.shopify.com/s/files/1/0280/6408/8138/products/GreenBayPackers2-4.jpg?v=1611641786
https://thamotee.com/products/sn116cp202?_pos=49&_sid=e047abc2f&_ss=r,LIMITED EDITION JD13 SNEAKERS,https://cdn.shopify.com/s/files/1/0280/6408/8138/products/BuffaloBills2-1.jpg?v=1611632928
https://thamotee.com/products/sn116cp201?_pos=50&_sid=e047abc2f&_ss=r,LIMITED EDITION JD13 SNEAKERS,https://cdn.shopify.com/s/files/1/0280/6408/8138/products/BuffaloBills1-4.jpg?v=1611632767
https://thamotee.com/products/sn116t9?_pos=51&_sid=e047abc2f&_ss=r,LIMITED EDITION JD13 SNEAKERS,https://cdn.shopify.com/s/files/1/0280/6408/8138/products/0120-jd13superbowl-BuffaloBills74.jpg?v=1611632382
https://thamotee.com/products/sn129t9?_pos=52&_sid=e047abc2f&_ss=r,LIMITED EDITION JD13 SNEAKERS,https://cdn.shopify.com/s/files/1/0280/6408/8138/products/0120-jd13superbowl-KansasCityChiefs2.jpg?v=1611570809
https://thamotee.com/products/sn143t9?_pos=53&_sid=e047abc2f&_ss=r,LIMITED EDITION JD13 SNEAKERS,https://cdn.shopify.com/s/files/1/0280/6408/8138/products/0120-jd13superbowl-TampaBayBuccaneers1.jpg?v=1611570608
https://thamotee.com/products/sn138t9?_pos=54&_sid=e047abc2f&_ss=r,LIMITED EDITION JD13 SNEAKERS,https://cdn.shopify.com/s/files/1/0280/6408/8138/products/0120-jd13superbowl-GreenBayPackers2.jpg?v=1611570455
https://thamotee.com/products/sh143t8?_pos=55&_sid=e047abc2f&_ss=r,LIMITED EDITION JD13 SNEAKERS,https://cdn.shopify.com/s/files/1/0280/6408/8138/products/tampabay4.jpg?v=1611307204
https://thamotee.com/products/sn123ne?_pos=56&_sid=e047abc2f&_ss=r,LIMITED EDITION JD13 SNEAKERS,https://cdn.shopify.com/s/files/1/0280/6408/8138/products/Pittsburghsteelers1_1d428919-1a84-454e-9d86-7590855f58b6.jpg?v=1610618590
https://thamotee.com/products/sn127ne?_pos=57&_sid=e047abc2f&_ss=r,LIMITED EDITION JD13 SNEAKERS,https://cdn.shopify.com/s/files/1/0280/6408/8138/products/TennesseeTitans1_8661b204-cb00-42b3-8069-5a0042f75856.jpg?v=1610618448
https://thamotee.com/products/sn135ne?_pos=58&_sid=e047abc2f&_ss=r,LIMITED EDITION JD13 SNEAKERS,https://cdn.shopify.com/s/files/1/0280/6408/8138/products/WashingtonFootballTeam1.jpg?v=1610618342
https://thamotee.com/products/sn147ne?_pos=59&_sid=e047abc2f&_ss=r,LIMITED EDITION JD13 SNEAKERS,https://cdn.shopify.com/s/files/1/0280/6408/8138/products/SeattleSeahawks1_b12f1220-3c3a-4b99-bbe5-255b87694052.jpg?v=1610618231
https://thamotee.com/products/sn120ne?_pos=60&_sid=e047abc2f&_ss=r,LIMITED EDITION JD13 SNEAKERS,https://cdn.shopify.com/s/files/1/0280/6408/8138/products/BaltimoreRavens1_c6cd713c-f775-43e4-a062-d3245802d739.jpg?v=1610618905
https://thamotee.com/products/sn116ne?_pos=61&_sid=e047abc2f&_ss=r,LIMITED EDITION JD13 SNEAKERS,https://cdn.shopify.com/s/files/1/0280/6408/8138/products/BuffaloBills1_c8010602-d930-41e2-9005-f1372e0fb817.jpg?v=1610618025
https://thamotee.com/products/sn122br?_pos=62&_sid=e047abc2f&_ss=r,LIMITED EDITION JD13 SNEAKERS,https://cdn.shopify.com/s/files/1/0280/6408/8138/products/ClevelandBrowns1_5595edd5-f0a7-475b-bd4c-51f2f53be4f1.jpg?v=1610617927
https://thamotee.com/products/sn129ne?_pos=63&_sid=e047abc2f&_ss=r,LIMITED EDITION JD13 SNEAKERS,https://cdn.shopify.com/s/files/1/0280/6408/8138/products/KansasCityChiefs1_32688cf8-783d-47a4-ac88-8e70e410b89c.jpg?v=1610618847
https://thamotee.com/products/sn142ne?_pos=64&_sid=e047abc2f&_ss=r,LIMITED EDITION JD13 SNEAKERS,https://cdn.shopify.com/s/files/1/0280/6408/8138/products/NewOrleansSaints1_b63631e4-59ae-423f-bbe1-a69ffcfc51c6.jpg?v=1610617696
https://thamotee.com/products/sn138ne?_pos=65&_sid=e047abc2f&_ss=r,LIMITED EDITION JD13 SNEAKERS,https://cdn.shopify.com/s/files/1/0280/6408/8138/products/GreenBayPackers1_a20b927d-afb2-4c60-8c5b-eef96203c60c.jpg?v=1610617580
https://thamotee.com/products/sn117ne?_pos=66&_sid=e047abc2f&_ss=r,LIMITED EDITION JD13 SNEAKERS,https://cdn.shopify.com/s/files/1/0280/6408/8138/products/MiamiDolphins1_6db29e48-13f0-4d99-b053-05bc5d4cb243.jpg?v=1610617313
https://thamotee.com/products/sn134ne?_pos=67&_sid=e047abc2f&_ss=r,LIMITED EDITION JD13 SNEAKERS,https://cdn.shopify.com/s/files/1/0280/6408/8138/products/PhiladelphiaEagles1_addedacd-bb01-47e0-aa76-522a6c1c4365.jpg?v=1610617140
https://thamotee.com/products/sn132ne?_pos=68&_sid=e047abc2f&_ss=r,LIMITED EDITION JD13 SNEAKERS,https://cdn.shopify.com/s/files/1/0280/6408/8138/products/DallasCowboys1_63e272ac-a977-437a-b4fb-2ed729acff02.jpg?v=1610616648
https://thamotee.com/products/sn120t8?_pos=69&_sid=e047abc2f&_ss=r,LIMITED EDITION JD13 SNEAKERS,https://cdn.shopify.com/s/files/1/0280/6408/8138/products/BaltimoreRavens2_ee01f8b1-7ed8-4ede-8460-8c557349f15b.jpg?v=1610610318
https://thamotee.com/products/sn116t8?_pos=70&_sid=e047abc2f&_ss=r,LIMITED EDITION JD13 SNEAKERS,https://cdn.shopify.com/s/files/1/0280/6408/8138/products/BuffaloBills1_bdd2b164-0358-4276-88f8-ca45959f0b8b.jpg?v=1610610236
https://thamotee.com/products/sn122t8?_pos=71&_sid=e047abc2f&_ss=r,LIMITED EDITION JD13 SNEAKERS,https://cdn.shopify.com/s/files/1/0280/6408/8138/products/ClevelandBrowns2_5864d365-e875-487b-af54-260c6c458f17.jpg?v=1610610136
https://thamotee.com/products/sn129t8?_pos=72&_sid=e047abc2f&_ss=r,LIMITED EDITION JD13 SNEAKERS,https://cdn.shopify.com/s/files/1/0280/6408/8138/products/KansasCityChiefs2_6accb2d0-f5d6-4ea7-abfa-9bab91dfe3d6.jpg?v=1610609954
https://thamotee.com/products/sn142t8?_pos=73&_sid=e047abc2f&_ss=r,LIMITED EDITION JD13 SNEAKERS,https://cdn.shopify.com/s/files/1/0280/6408/8138/products/NewOrleansSaints2_88c2d771-6994-43b8-b0fa-3505245ba870.jpg?v=1610609875
https://thamotee.com/products/sn138t8?_pos=74&_sid=e047abc2f&_ss=r,LIMITED EDITION JD13 SNEAKERS,https://cdn.shopify.com/s/files/1/0280/6408/8138/products/GreenBayPackers2_d9799bfc-1c27-4557-a422-725864e98c4a.jpg?v=1610609843
https://thamotee.com/products/sn132t8?_pos=75&_sid=e047abc2f&_ss=r,LIMITED EDITION JD13 SNEAKERS,https://cdn.shopify.com/s/files/1/0280/6408/8138/products/Dallascowboys2_211a8142-fd8c-4a97-8fa3-c3497801b06f.jpg?v=1610609818
https://thamotee.com/products/vansn11?_pos=76&_sid=e047abc2f&_ss=r,LIMITED EDITION JD13 SNEAKERS,https://cdn.shopify.com/s/files/1/0280/6408/8138/products/jordan13-2.jpg?v=1601379869
https://thamotee.com/products/sne028io?_pos=77&_sid=e047abc2f&_ss=r,LIMITTED EDITION JD13 SNEAKERS,https://cdn.shopify.com/s/files/1/0280/6408/8138/products/222.jpg?v=1599823469
https://thamotee.com/products/vv108?_pos=78&_sid=e047abc2f&_ss=r,LIMITED EDITION JD13 SNEAKERS,https://cdn.shopify.com/s/files/1/0280/6408/8138/products/KentuckyWildcats2_db724391-0b1e-405a-80d8-b2ceb1fc8ea5.jpg?v=1599813329
https://thamotee.com/products/v100?_pos=79&_sid=e047abc2f&_ss=r,LIMITED EDITION JD13 SNEAKERS,https://cdn.shopify.com/s/files/1/0280/6408/8138/products/UtahUtes2_3414a996-cae1-491e-ab36-ec37abdb5670.jpg?v=1599813137
https://thamotee.com/products/v019?_pos=80&_sid=e047abc2f&_ss=r,LIMITED EDITION JD13 SNEAKERS,https://cdn.shopify.com/s/files/1/0280/6408/8138/products/Miami_FL_Hurricanes2_77769e85-73ff-4c28-81ca-b0ff2037db6a.jpg?v=1599813105
https://thamotee.com/products/v031?_pos=81&_sid=e047abc2f&_ss=r,LIMITED EDITION JD13 SNEAKERS,https://cdn.shopify.com/s/files/1/0280/6408/8138/products/OklahomaSooners2_fa6d5ea1-0d05-4b18-953c-16877db76801.jpg?v=1599813074
https://thamotee.com/products/v028?_pos=82&_sid=e047abc2f&_ss=r,LIMITED EDITION JD13 SNEAKERS,https://cdn.shopify.com/s/files/1/0280/6408/8138/products/IowaStateCyclones2_6542dbc6-1ce9-43dd-80a3-13c661cf02e1.jpg?v=1599812979
https://thamotee.com/products/v108?_pos=83&_sid=e047abc2f&_ss=r,LIMITED EDITION JD13 SNEAKERS,https://cdn.shopify.com/s/files/1/0280/6408/8138/products/KentuckyWildcats2_7dcc1c10-9e9e-44f4-8c0b-f58b5fbe75e8.jpg?v=1599812958
https://thamotee.com/products/limited-edition-jd13-sneakers?_pos=84&_sid=e047abc2f&_ss=r,LIMITED EDITION JD13 SNEAKERS,https://cdn.shopify.com/s/files/1/0280/6408/8138/products/IowaStateCyclones2_813bba6f-7e8c-412c-8764-2a8dc70d020d.jpg?v=1599812914
https://thamotee.com/products/v314?_pos=85&_sid=e047abc2f&_ss=r,LIMITED EDITION JD13 SNEAKERS,https://cdn.shopify.com/s/files/1/0280/6408/8138/products/LOSANGELESLAKERS2_cb78f963-3606-486b-984c-1a88931a8d19.jpg?v=1599812833
https://thamotee.com/products/v327?_pos=86&_sid=e047abc2f&_ss=r,LIMITED EDITION JD13 SNEAKERS,https://cdn.shopify.com/s/files/1/0280/6408/8138/products/SANANTONIOSPURS2_a842dfec-02e0-48bd-b30e-998cf3841e81.jpg?v=1599812748
https://thamotee.com/products/v103?_pos=87&_sid=e047abc2f&_ss=r,LIMITED EDITION JD13 SNEAKERS,https://cdn.shopify.com/s/files/1/0280/6408/8138/products/AlabamaCrimsonTide2_98d85d69-0a2b-4989-9f32-6cc4bfd500e5.jpg?v=1599812718
https://thamotee.com/products/snet8f2?_pos=88&_sid=e047abc2f&_ss=r,LIMITED EDITION JD13 SNEAKERS,https://cdn.shopify.com/s/files/1/0280/6408/8138/products/fishing1.jpg?v=1599812749
https://thamotee.com/products/v146?_pos=89&_sid=e047abc2f&_ss=r,LIMITED EDITION JD13 SNEAKERS,https://cdn.shopify.com/s/files/1/0280/6408/8138/products/0815D49ERS2_fb77415c-a8b7-4dc5-9159-764ecee89e22.jpg?v=1599812613
https://thamotee.com/products/snet8f1?_pos=90&_sid=e047abc2f&_ss=r,LIMITED EDITION JD13 SNEAKERS,https://cdn.shopify.com/s/files/1/0280/6408/8138/products/fish2.jpg?v=1599812528
https://thamotee.com/products/v020?_pos=91&_sid=e047abc2f&_ss=r,LIMITED EDITION JD13 SNEAKERS,https://cdn.shopify.com/s/files/1/0280/6408/8138/products/northcarolinatarheels2_0d4926e5-ed72-4300-a665-c4f4071e5378.jpg?v=1599812354
https://thamotee.com/products/snet8sh?_pos=92&_sid=e047abc2f&_ss=r,LIMITED EDITION JD13 SNEAKERS,https://cdn.shopify.com/s/files/1/0280/6408/8138/products/shark2.jpg?v=1599812270
https://thamotee.com/products/snet8tu?_pos=93&_sid=e047abc2f&_ss=r,LIMITED EDITION JD13 SNEAKERS,https://cdn.shopify.com/s/files/1/0280/6408/8138/products/turtle1.jpg?v=1599812126
https://thamotee.com/products/v107?_pos=94&_sid=e047abc2f&_ss=r,LIMITED EDITION JD13 SNEAKERS,https://cdn.shopify.com/s/files/1/0280/6408/8138/products/GeorgiaBulldogs2_9396ca42-1e83-4980-b5ab-9af39eea4345.jpg?v=1599811539
https://thamotee.com/products/sne155re?_pos=95&_sid=e047abc2f&_ss=r,LIMITED EDITION JD13 SNEAKERS,https://cdn.shopify.com/s/files/1/0280/6408/8138/products/11.jpg?v=1599793400
https://thamotee.com/products/sne137re?_pos=96&_sid=e047abc2f&_ss=r,LIMITED EDITION JD13 SNEAKERS,https://cdn.shopify.com/s/files/1/0280/6408/8138/products/2_9cd05c11-295e-471b-8c8b-4a10f72b3131.jpg?v=1599793397
https://thamotee.com/products/sne10t7t7umc?_pos=97&_sid=e047abc2f&_ss=r,LIMITED EDITION JD13 SNEAKERS,https://cdn.shopify.com/s/files/1/0280/6408/8138/products/USMARINECORPS1-BELLA.jpg?v=1599737554
https://thamotee.com/products/sne10t6army?_pos=98&_sid=e047abc2f&_ss=r,LIMITED EDITION JD13 SNEAKERS,https://cdn.shopify.com/s/files/1/0280/6408/8138/products/USARMY1-BELLA_705016ca-8bc9-4b5c-893c-d31a1e730bca.jpg?v=1599737492
https://thamotee.com/products/sne10t7usarmy?_pos=99&_sid=e047abc2f&_ss=r,LIMITED EDITION JD13 SNEAKERS,https://cdn.shopify.com/s/files/1/0280/6408/8138/products/USARMY1-BELLA.jpg?v=1599737418
https://thamotee.com/products/sne10t7nurse?_pos=100&_sid=e047abc2f&_ss=r,LIMITED EDITION JD13 SNEAKERS,https://cdn.shopify.com/s/files/1/0280/6408/8138/products/NURSE1-BELLA.jpg?v=1599737287
https://thamotee.com/products/sne10t6t6freemasonry?_pos=101&_sid=e047abc2f&_ss=r,Limited FREEMASONRY JD13 SNEAKERS,https://cdn.shopify.com/s/files/1/0280/6408/8138/products/FREEMASONRY1-BELLA_41dba3db-a053-4423-a2d3-56ce84d5ff84.jpg?v=1599737135
https://thamotee.com/products/sne10t7freemasonry?_pos=102&_sid=e047abc2f&_ss=r,LIMITED EDITION JD13 SNEAKERS,https://cdn.shopify.com/s/files/1/0280/6408/8138/products/FREEMASONRY2-BELLA.jpg?v=1599737100
https://thamotee.com/products/sne10t7ff?_pos=103&_sid=e047abc2f&_ss=r,LIMITED EDITION JD13 SNEAKERS,https://cdn.shopify.com/s/files/1/0280/6408/8138/products/FIREFIGHTER2-BELLA_42650b46-03dc-4648-a7c0-3f4f6bd2c057.jpg?v=1599736832
https://thamotee.com/products/sne10t6ff?_pos=104&_sid=e047abc2f&_ss=r,Limited FIREFIGHTER JD13 SNEAKERS,https://cdn.shopify.com/s/files/1/0280/6408/8138/products/FIREFIGHTER1-BELLA.jpg?v=1599736641
https://thamotee.com/products/sne122h?_pos=105&_sid=e047abc2f&_ss=r,LIMITED EDITION JD13 SNEAKERS,https://cdn.shopify.com/s/files/1/0280/6408/8138/products/ClevelandBrowns1_a881e1f1-e90c-4769-ac9e-7047eaa6ca54.jpg?v=1599643877
https://thamotee.com/products/jd330ww?_pos=106&_sid=e047abc2f&_ss=r,LIMITED EDITION JD13 SNEAKERS,https://cdn.shopify.com/s/files/1/0280/6408/8138/products/WashingtonWizards3.jpg?v=1600773464
https://thamotee.com/products/jd329ut?_pos=107&_sid=e047abc2f&_ss=r,LIMITED EDITION JD13 SNEAKERS,https://cdn.shopify.com/s/files/1/0280/6408/8138/products/UtahJazz3.jpg?v=1599628360
https://thamotee.com/products/jd326sk?_pos=108&_sid=e047abc2f&_ss=r,LIMITED EDITION JD13 SNEAKERS,https://cdn.shopify.com/s/files/1/0280/6408/8138/products/SacramentoKings3.jpg?v=1599628285
https://thamotee.com/products/jd325pt?_pos=109&_sid=e047abc2f&_ss=r,LIMITED EDITION JD13 SNEAKERS,https://cdn.shopify.com/s/files/1/0280/6408/8138/products/PortlandTrailBlazers3.jpg?v=1599628108
https://thamotee.com/products/jd322ps?_pos=110&_sid=e047abc2f&_ss=r,LIMITED EDITION JD13 SNEAKERS,https://cdn.shopify.com/s/files/1/0280/6408/8138/products/PhoenixSuns3.jpg?v=1599627967
https://thamotee.com/products/jd322om?_pos=111&_sid=e047abc2f&_ss=r,LIMITED EDITION JD13 SNEAKERS,https://cdn.shopify.com/s/files/1/0280/6408/8138/products/OrlandoMagic3.jpg?v=1600773459
https://thamotee.com/products/jd321oc?_pos=112&_sid=e047abc2f&_ss=r,LIMITED EDITION JD13 SNEAKERS,https://cdn.shopify.com/s/files/1/0280/6408/8138/products/OklahomaCityThunder3.jpg?v=1599627770
https://thamotee.com/products/jd318mt?_pos=113&_sid=e047abc2f&_ss=r,LIMITED EDITION JD13 SNEAKERS,https://cdn.shopify.com/s/files/1/0280/6408/8138/products/MinnesotaTimberwolves3.jpg?v=1599627622
https://thamotee.com/products/jd317mb?_pos=114&_sid=e047abc2f&_ss=r,LIMITED EDITION JD13 SNEAKERS,https://cdn.shopify.com/s/files/1/0280/6408/8138/products/MilwaukeeBucks3.jpg?v=1600773456
https://thamotee.com/products/jd316mh?_pos=115&_sid=e047abc2f&_ss=r,LIMITED EDITION JD13 SNEAKERS,https://cdn.shopify.com/s/files/1/0280/6408/8138/products/MiamiHeat3.jpg?v=1599627009
https://thamotee.com/products/jd315mg?_pos=116&_sid=e047abc2f&_ss=r,LIMITED EDITION JD13 SNEAKERS,https://cdn.shopify.com/s/files/1/0280/6408/8138/products/MemphisGrizzlies3.jpg?v=1599626526
https://thamotee.com/products/jd313la?_pos=117&_sid=e047abc2f&_ss=r,LIMITED EDITION JD13 SNEAKERS,https://cdn.shopify.com/s/files/1/0280/6408/8138/products/LAClippers3.jpg?v=1599626414
https://thamotee.com/products/jd312ip?_pos=118&_sid=e047abc2f&_ss=r,LIMITED EDITION JD13 SNEAKERS,https://cdn.shopify.com/s/files/1/0280/6408/8138/products/IndianaPacers3.jpg?v=1599626099
https://thamotee.com/products/jd308dn?_pos=119&_sid=e047abc2f&_ss=r,LIMITED EDITION JD13 SNEAKERS,https://cdn.shopify.com/s/files/1/0280/6408/8138/products/DenverNuggets3.jpg?v=1600773438
https://thamotee.com/products/jd307dm?_pos=120&_sid=e047abc2f&_ss=r,LIMITED EDITION JD13 SNEAKERS,https://cdn.shopify.com/s/files/1/0280/6408/8138/products/DallasMavericks3.jpg?v=1599624439
https://thamotee.com/products/jd306cc?_pos=121&_sid=e047abc2f&_ss=r,LIMITED EDITION JD13 SNEAKERS,https://cdn.shopify.com/s/files/1/0280/6408/8138/products/ClevelandCavaliers3.jpg?v=1599624280
https://thamotee.com/products/jd305cb?_pos=122&_sid=e047abc2f&_ss=r,LIMITED EDITION JD13 SNEAKERS,https://cdn.shopify.com/s/files/1/0280/6408/8138/products/ChicagoBulls3.jpg?v=1599623518
https://thamotee.com/products/jd304ch?_pos=123&_sid=e047abc2f&_ss=r,LIMITED EDITION JD13 SNEAKERS,https://cdn.shopify.com/s/files/1/0280/6408/8138/products/CharlotteHornets3.jpg?v=1599560542
https://thamotee.com/products/jd303bn?_pos=124&_sid=e047abc2f&_ss=r,LIMITED EDITION JD13 SNEAKERS,https://cdn.shopify.com/s/files/1/0280/6408/8138/products/BrooklynNets3.jpg?v=1599560343
https://thamotee.com/products/jd302bc?_pos=125&_sid=e047abc2f&_ss=r,LIMITED EDITION JD13 SNEAKERS,https://cdn.shopify.com/s/files/1/0280/6408/8138/products/BostonCeltics3.jpg?v=1599560240
https://thamotee.com/products/jd301ah?_pos=126&_sid=e047abc2f&_ss=r,LIMITED EDITION JD13 SNEAKERS,https://cdn.shopify.com/s/files/1/0280/6408/8138/products/AtlantaHawks3.jpg?v=1599559967
https://thamotee.com/products/fgs309ghy?_pos=127&_sid=e047abc2f&_ss=r,LIMITED EDITION JD13 SNEAKERS,https://cdn.shopify.com/s/files/1/0280/6408/8138/products/DetroitPistons3_1.jpg?v=1599536288
https://thamotee.com/products/kio898kjh?_pos=128&_sid=e047abc2f&_ss=r,LIMITED EDITION JD13 SNEAKERS,https://cdn.shopify.com/s/files/1/0280/6408/8138/products/RED0903D-FAITH1JD13.jpg?v=1599473143
https://thamotee.com/products/tyu787thy?_pos=129&_sid=e047abc2f&_ss=r,LIMITED EDITION JD13 SNEAKERS,https://cdn.shopify.com/s/files/1/0280/6408/8138/products/BLACK0903D-FAITH1JD13.jpg?v=1599472657
https://thamotee.com/products/mit125hju?_pos=130&_sid=e047abc2f&_ss=r,LIMITED EDITION JD13 SNEAKERS,https://cdn.shopify.com/s/files/1/0280/6408/8138/products/Mau3-2.jpg?v=1599472279
https://thamotee.com/products/tyt124uiu?_pos=131&_sid=e047abc2f&_ss=r,LIMITED EDITION JD13 SNEAKERS,https://cdn.shopify.com/s/files/1/0280/6408/8138/products/Mau2-2.jpg?v=1599472180
https://thamotee.com/products/tyt123ert?_pos=132&_sid=e047abc2f&_ss=r,LIMITED EDITION JD13 SNEAKERS,https://cdn.shopify.com/s/files/1/0280/6408/8138/products/Mau1-2.jpg?v=1599471818
https://thamotee.com/products/jd050wi?_pos=133&_sid=e047abc2f&_ss=r,LIMITED EDITION JD13 SNEAKERS,https://cdn.shopify.com/s/files/1/0280/6408/8138/products/WisconsinBadgers2_75832aae-b3e9-4cb2-8d0d-44b0f1d5c372.jpg?v=1599219199
https://thamotee.com/products/jd047pe?_pos=134&_sid=e047abc2f&_ss=r,LIMITED EDITION JD13 SNEAKERS,https://cdn.shopify.com/s/files/1/0280/6408/8138/products/PennStateNittanyLions2.jpg?v=1599219008
https://thamotee.com/products/jd044ne?_pos=135&_sid=e047abc2f&_ss=r,LIMITED EDITION JD13 SNEAKERS,https://cdn.shopify.com/s/files/1/0280/6408/8138/products/NebraskaCornhuskers2_0eda9e11-7b20-477f-9dd1-e46b7fedc7f9.jpg?v=1599218843
https://thamotee.com/products/jd043mi?_pos=136&_sid=e047abc2f&_ss=r,LIMITED EDITION JD13 SNEAKERS,https://cdn.shopify.com/s/files/1/0280/6408/8138/products/MinnesotaGoldenGophers2.jpg?v=1599218548
https://thamotee.com/products/jd042mi?_pos=137&_sid=e047abc2f&_ss=r,LIMITED EDITION JD13 SNEAKERS,https://cdn.shopify.com/s/files/1/0280/6408/8138/products/MichiganStateSpartans2_c8e63ac4-ec61-44f1-9e92-1d7ea0022ad9.jpg?v=1599218427
https://thamotee.com/products/jd041mi?_pos=138&_sid=e047abc2f&_ss=r,LIMITED EDITION JD13 SNEAKERS,https://cdn.shopify.com/s/files/1/0280/6408/8138/products/MichiganWolverines2_f0eb1df9-6d04-42dd-af3a-3a295f3d733d.jpg?v=1599218257
https://thamotee.com/products/jd040ma?_pos=139&_sid=e047abc2f&_ss=r,LIMITED EDITION JD13 SNEAKERS,https://cdn.shopify.com/s/files/1/0280/6408/8138/products/MarylandTerrapins2_69a8ccad-4119-4b2c-9db8-63d1d572499d.jpg?v=1599217961
https://thamotee.com/products/jd039iw?_pos=140&_sid=e047abc2f&_ss=r,LIMITED EDITION JD13 SNEAKERS,https://cdn.shopify.com/s/files/1/0280/6408/8138/products/IowaHawkeyes2_6bf486ae-8bfb-4623-b0a4-2edab86d9246.jpg?v=1599217806
https://thamotee.com/products/jd036wm?_pos=141&_sid=e047abc2f&_ss=r,LIMITED EDITION JD13 SNEAKERS,https://cdn.shopify.com/s/files/1/0280/6408/8138/products/WestVirginiaMountaineers2_3436eb41-43d0-45b7-b7d8-6e2e3dac6490.jpg?v=1599217630
https://thamotee.com/products/jd035te?_pos=142&_sid=e047abc2f&_ss=r,LIMITED EDITION JD13 SNEAKERS,https://cdn.shopify.com/s/files/1/0280/6408/8138/products/TexasTechRedRaiders2.jpg?v=1599217503
https://thamotee.com/products/jd034lh?_pos=143&_sid=e047abc2f&_ss=r,LIMITED EDITION JD13 SNEAKERS,https://cdn.shopify.com/s/files/1/0280/6408/8138/products/TexasLonghorns2_9c1143a0-696c-4c41-9d75-91abe95643c6.jpg?v=1599217295
https://thamotee.com/products/jd033tc?_pos=144&_sid=e047abc2f&_ss=r,LIMITED EDITION JD13 SNEAKERS,https://cdn.shopify.com/s/files/1/0280/6408/8138/products/TCUHornedFrogs2_ea9a724f-b95a-4bf4-a7fd-c6315e021e69.jpg?v=1599217195
https://thamotee.com/products/jd032ol?_pos=145&_sid=e047abc2f&_ss=r,LIMITED EDITION JD13 SNEAKERS,https://cdn.shopify.com/s/files/1/0280/6408/8138/products/OklahomaStateCowboys2_d1179be0-47ac-44ab-86ec-dc0ddb0442f9.jpg?v=1599217021
https://thamotee.com/products/jd031ok?_pos=146&_sid=e047abc2f&_ss=r,LIMITED EDITION JD13 SNEAKERS,https://cdn.shopify.com/s/files/1/0280/6408/8138/products/OklahomaSooners2_ae1e0489-efc1-420c-a544-fec957e34de4.jpg?v=1599216925
https://thamotee.com/products/jd030kas?_pos=147&_sid=e047abc2f&_ss=r,LIMITED EDITION JD13 SNEAKERS,https://cdn.shopify.com/s/files/1/0280/6408/8138/products/KansasStateWildcats2_31a3ea5d-79e2-4b2f-a6ae-61a3cee457c4.jpg?v=1599216576
https://thamotee.com/products/jd029ka?_pos=148&_sid=e047abc2f&_ss=r,LIMITED EDITION JD13 SNEAKERS,https://cdn.shopify.com/s/files/1/0280/6408/8138/products/KansasJayhawks2_77a3da4c-5bfe-45e0-8d3b-4d265fcfc545.jpg?v=1599216291
https://thamotee.com/products/jd028lw?_pos=149&_sid=e047abc2f&_ss=r,LIMITED EDITION JD13 SNEAKERS,https://cdn.shopify.com/s/files/1/0280/6408/8138/products/IowaStateCyclones2_9ec7667f-472f-45ed-b1c5-58a1eb49ce81.jpg?v=1599216180
https://thamotee.com/products/jd025vi?_pos=150&_sid=e047abc2f&_ss=r,LIMITED EDITION JD13 SNEAKERS,https://cdn.shopify.com/s/files/1/0280/6408/8138/products/VirginiaTechHokies2_d284fe1d-97ca-4b4f-af75-9c6477ef9c81.jpg?v=1599216069
https://thamotee.com/products/jd023so?_pos=151&_sid=e047abc2f&_ss=r,LIMITED EDITION JD13 SNEAKERS,https://cdn.shopify.com/s/files/1/0280/6408/8138/products/SyracuseOrange2_dc1b06fc-735f-44e0-b285-cf396632e639.jpg?v=1599215949
https://thamotee.com/products/jd021np?_pos=152&_sid=e047abc2f&_ss=r,LIMITED EDITION JD13 SNEAKERS,https://cdn.shopify.com/s/files/1/0280/6408/8138/products/NorthCarolinaStateWolfpack2_cf68156c-c292-4f53-9bc0-213552167112.jpg?v=1599215724
https://thamotee.com/products/jd022pp?_pos=153&_sid=e047abc2f&_ss=r,LIMITED EDITION JD13 SNEAKERS,https://cdn.shopify.com/s/files/1/0280/6408/8138/products/PittsburghPanthers2.jpg?v=1599215567
https://thamotee.com/products/jd019hu?_pos=154&_sid=e047abc2f&_ss=r,LIMITED EDITION JD13 SNEAKERS,https://cdn.shopify.com/s/files/1/0280/6408/8138/products/Miami_FL_Hurricanes2_01c880eb-374a-4225-b5ab-d4524b8cebec.jpg?v=1599215287
https://thamotee.com/products/jd018lo?_pos=155&_sid=e047abc2f&_ss=r,LIMITED EDITION JD13 SNEAKERS,https://cdn.shopify.com/s/files/1/0280/6408/8138/products/LouisvilleCardinals2_e3dcb77a-723e-42fb-8bac-62922da5c808.jpg?v=1599215156
https://thamotee.com/products/jd012uc?_pos=156&_sid=e047abc2f&_ss=r,LIMITED EDITION JD13 SNEAKERS,https://cdn.shopify.com/s/files/1/0280/6408/8138/products/UCFKnights2.jpg?v=1599214882
https://thamotee.com/products/jd017gt?_pos=157&_sid=e047abc2f&_ss=r,LIMITED EDITION JD13 SNEAKERS,https://cdn.shopify.com/s/files/1/0280/6408/8138/products/GeorgiaTechYellowJackets2_d5fb237e-4205-4cbd-83c4-02db0cede68c.jpg?v=1599134881
https://thamotee.com/products/jd016fs?_pos=158&_sid=e047abc2f&_ss=r,LIMITED EDITION JD13 SNEAKERS,https://cdn.shopify.com/s/files/1/0280/6408/8138/products/FloridaStateSeminoles2_543674d5-f495-4878-a861-44db6f6ba8ac.jpg?v=1599134726
https://thamotee.com/products/jd015db?_pos=159&_sid=e047abc2f&_ss=r,LIMITED EDITION JD13 SNEAKERS,https://cdn.shopify.com/s/files/1/0280/6408/8138/products/DukeBlueDevils2_ead933cd-33da-4906-b4aa-739cccd72b47.jpg?v=1599134563
https://thamotee.com/products/jd014cl?_pos=160&_sid=e047abc2f&_ss=r,LIMITED EDITION JD13 SNEAKERS,https://cdn.shopify.com/s/files/1/0280/6408/8138/products/ClemsonTigers1_6b241a9a-fa24-43b6-87cf-01e6d1bd9947.jpg?v=1599134332
https://thamotee.com/products/jd114tv?_pos=161&_sid=e047abc2f&_ss=r,LIMITED EDITION JD13 SNEAKERS,https://cdn.shopify.com/s/files/1/0280/6408/8138/products/TennesseeVolunteers2.jpg?v=1599134040
https://thamotee.com/products/jd113sc?_pos=162&_sid=e047abc2f&_ss=r,LIMITED EDITION JD13 SNEAKERS,https://cdn.shopify.com/s/files/1/0280/6408/8138/products/SCGamecocks2.jpg?v=1599133918
https://thamotee.com/products/jd111mi?_pos=163&_sid=e047abc2f&_ss=r,LIMITED EDITION JD13 SNEAKERS,https://cdn.shopify.com/s/files/1/0280/6408/8138/products/MissouriTigers2.jpg?v=1599133731
https://thamotee.com/products/jd110ms?_pos=164&_sid=e047abc2f&_ss=r,LIMITED EDITION JD13 SNEAKERS,https://cdn.shopify.com/s/files/1/0280/6408/8138/products/MississippiStateBulldogs2.jpg?v=1599133418
https://thamotee.com/products/jd109lsu?_pos=165&_sid=e047abc2f&_ss=r,LIMITED EDITION JD13 SNEAKERS,https://cdn.shopify.com/s/files/1/0280/6408/8138/products/LSUTigers2_ac83b698-b8dc-4431-9ef2-6c506218340f.jpg?v=1599133276
https://thamotee.com/products/jd108kt?_pos=166&_sid=e047abc2f&_ss=r,LIMITED EDITION JD13 SNEAKERS,https://cdn.shopify.com/s/files/1/0280/6408/8138/products/KentuckyWildcats2_00d12ec3-db20-4dd2-bfa7-b771d5a76d89.jpg?v=1599133161
https://thamotee.com/products/jd107gb?_pos=167&_sid=e047abc2f&_ss=r,LIMITED EDITION JD13 SNEAKERS,https://cdn.shopify.com/s/files/1/0280/6408/8138/products/GeorgiaBulldogs2_f9a729c5-120c-4105-8018-ccac7795f294.jpg?v=1599132901
https://thamotee.com/products/jd105ab?_pos=168&_sid=e047abc2f&_ss=r,LIMITED EDITION JD13 SNEAKERS,https://cdn.shopify.com/s/files/1/0280/6408/8138/products/AuburnTigers2.jpg?v=1599132773
https://thamotee.com/products/jd104ar?_pos=169&_sid=e047abc2f&_ss=r,LIMITED EDITION JD13 SNEAKERS,https://cdn.shopify.com/s/files/1/0280/6408/8138/products/ArkansasRazorbacks2.jpg?v=1599132666
https://thamotee.com/products/jd102wc?_pos=170&_sid=e047abc2f&_ss=r,LIMITED EDITION JD13 SNEAKERS,https://cdn.shopify.com/s/files/1/0280/6408/8138/products/WashingtonStateCougars2.jpg?v=1599132424
https://thamotee.com/products/jd100ut?_pos=171&_sid=e047abc2f&_ss=r,LIMITED EDITION JD13 SNEAKERS,https://cdn.shopify.com/s/files/1/0280/6408/8138/products/UtahUtes2.jpg?v=1599132213
https://thamotee.com/products/jd099us?_pos=172&_sid=e047abc2f&_ss=r,LIMITED EDITION JD13 SNEAKERS,https://cdn.shopify.com/s/files/1/0280/6408/8138/products/USCTrojans2.jpg?v=1599132059
https://thamotee.com/products/jd097st?_pos=173&_sid=e047abc2f&_ss=r,LIMITED EDITION JD13 SNEAKERS,https://cdn.shopify.com/s/files/1/0280/6408/8138/products/StanfordCardinal2.jpg?v=1599131955
https://thamotee.com/products/jd096osb?_pos=174&_sid=e047abc2f&_ss=r,LIMITED EDITION JD13 SNEAKERS,https://cdn.shopify.com/s/files/1/0280/6408/8138/products/OregonStateBeavers2.jpg?v=1599131852
https://thamotee.com/products/jd095od?_pos=175&_sid=e047abc2f&_ss=r,LIMITED EDITION JD13 SNEAKERS,https://cdn.shopify.com/s/files/1/0280/6408/8138/products/OregonDucks2.jpg?v=1599131635
https://thamotee.com/products/jd092ast?_pos=176&_sid=e047abc2f&_ss=r,LIMITED EDITION JD13 SNEAKERS,https://cdn.shopify.com/s/files/1/0280/6408/8138/products/ArizonaStateSunDevils2_93e20b88-a0c2-4727-a982-0d90c3d404c3.jpg?v=1599131566
https://thamotee.com/products/jd091aw?_pos=177&_sid=e047abc2f&_ss=r,LIMITED EDITION JD13 SNEAKERS,https://cdn.shopify.com/s/files/1/0280/6408/8138/products/ArizonaWildcats2_67882316-0d30-486f-8b66-874a3dcc48d8.jpg?v=1599131299
https://thamotee.com/products/sjs177sff?_pos=178&_sid=e047abc2f&_ss=r,LIMITED EDITION JD13 SNEAKERS,https://cdn.shopify.com/s/files/1/0280/6408/8138/products/SanFranciscoGiants2_bac336b9-32ca-4bb8-bed3-bba0d5cee605.jpg?v=1599127880
https://thamotee.com/products/sne119?_pos=179&_sid=e047abc2f&_ss=r,LIMITED EDITION JD13 SNEAKERS,https://cdn.shopify.com/s/files/1/0280/6408/8138/products/NewYorkJets1_44e5a5d7-ebc5-47ad-95ef-fd76a78dec81.jpg?v=1599127766
https://thamotee.com/products/sne127b?_pos=180&_sid=e047abc2f&_ss=r,LIMITED EDITION JD13 SNEAKERS,https://cdn.shopify.com/s/files/1/0280/6408/8138/products/TennesseeTitans1_016dc403-56c2-4283-ada1-66a53dc2b51f.jpg?v=1599127749
https://thamotee.com/products/snea176?_pos=181&_sid=e047abc2f&_ss=r,LIMITED EDITION JD13 SNEAKERS,https://cdn.shopify.com/s/files/1/0280/6408/8138/products/SanDiegoPadres2.jpg?v=1599127777
https://thamotee.com/products/dcf175hjh?_pos=182&_sid=e047abc2f&_ss=r,LIMITED EDITION JD13 SNEAKERS,https://cdn.shopify.com/s/files/1/0280/6408/8138/products/LosAngelesDodgers2_b5a98dac-4097-4b78-bb59-592d19561639.jpg?v=1599127360
https://thamotee.com/products/fgf174ghg?_pos=183&_sid=e047abc2f&_ss=r,LIMITED EDITION JD13 SNEAKERS,https://cdn.shopify.com/s/files/1/0280/6408/8138/products/ColoradoRockies2.jpg?v=1599127247
https://thamotee.com/products/lok173ere?_pos=184&_sid=e047abc2f&_ss=r,LIMITED EDITION JD13 SNEAKERS,https://cdn.shopify.com/s/files/1/0280/6408/8138/products/ArizonaDiamondbacks2.jpg?v=1599127146
https://thamotee.com/products/kuk172rty?_pos=185&_sid=e047abc2f&_ss=r,LIMITED EDITION JD13 SNEAKERS,https://cdn.shopify.com/s/files/1/0280/6408/8138/products/St.LouisCardinals2_48f801a9-7260-487e-811f-d0f5c6b8a7a6.jpg?v=1599126986
https://thamotee.com/products/klk171khj?_pos=186&_sid=e047abc2f&_ss=r,LIMITED EDITION JD13 SNEAKERS,https://cdn.shopify.com/s/files/1/0280/6408/8138/products/PittsburghPirates2.jpg?v=1599126659
https://thamotee.com/products/ert170tyt?_pos=187&_sid=e047abc2f&_ss=r,LIMITED EDITION JD13 SNEAKERS,https://cdn.shopify.com/s/files/1/0280/6408/8138/products/MilwaukeeBrewers2.jpg?v=1599126529
https://thamotee.com/products/snea166?_pos=188&_sid=e047abc2f&_ss=r,LIMITED EDITION JD13 SNEAKERS,https://cdn.shopify.com/s/files/1/0280/6408/8138/products/PhiladelphiaPhillies2.jpg?v=1599126316
https://thamotee.com/products/snea165?_pos=189&_sid=e047abc2f&_ss=r,LIMITED EDITION JD13 SNEAKERS,https://cdn.shopify.com/s/files/1/0280/6408/8138/products/NewYorkMets2.jpg?v=1599126141
https://thamotee.com/products/plk164kop?_pos=190&_sid=e047abc2f&_ss=r,LIMITED EDITION JD13 SNEAKERS,https://cdn.shopify.com/s/files/1/0280/6408/8138/products/MiamiMarlins2.jpg?v=1599125955
https://thamotee.com/products/sne146?_pos=191&_sid=e047abc2f&_ss=r,LIMITED EDITION JD13 SNEAKERS,https://cdn.shopify.com/s/files/1/0280/6408/8138/products/0815D49ERS2_28ce97c2-0c76-44c1-be7c-5fe2ba4ccebc.jpg?v=1599125872
https://thamotee.com/products/pkl162ppl?_pos=192&_sid=e047abc2f&_ss=r,LIMITED EDITION JD13 SNEAKERS,https://cdn.shopify.com/s/files/1/0280/6408/8138/products/TexasRangers2.jpg?v=1599125751
https://thamotee.com/products/pph161phj?_pos=193&_sid=e047abc2f&_ss=r,LIMITED EDITION JD13 SNEAKERS,https://cdn.shopify.com/s/files/1/0280/6408/8138/products/SeattleMariners2_67009808-8365-419c-9ce5-74b6f7208d12.jpg?v=1599125595
https://thamotee.com/products/snea160?_pos=194&_sid=e047abc2f&_ss=r,LIMITED EDITION JD13 SNEAKERS,https://cdn.shopify.com/s/files/1/0280/6408/8138/products/OaklandAthletics2.jpg?v=1599125456
https://thamotee.com/products/oik159uik?_pos=195&_sid=e047abc2f&_ss=r,LIMITED EDITION JD13 SNEAKERS,https://cdn.shopify.com/s/files/1/0280/6408/8138/products/LosAngelesAngels2.jpg?v=1599125281
https://thamotee.com/products/pol157yuy?_pos=196&_sid=e047abc2f&_ss=r,LIMITED EDITION JD13 SNEAKERS,https://cdn.shopify.com/s/files/1/0280/6408/8138/products/MinnesotaTwins2_121944d4-86a3-4e01-b027-f5c0c60d6df9.jpg?v=1599124981
https://thamotee.com/products/dsd156ghg?_pos=197&_sid=e047abc2f&_ss=r,LIMITED EDITION JD13 SNEAKERS,https://cdn.shopify.com/s/files/1/0280/6408/8138/products/KansasCityRoyals2.jpg?v=1599124692
https://thamotee.com/products/lpl155jkj?_pos=198&_sid=e047abc2f&_ss=r,LIMITED EDITION JD13 SNEAKERS,https://cdn.shopify.com/s/files/1/0280/6408/8138/products/DetroitTigers2.jpg?v=1599124571
https://thamotee.com/products/qqw154tyt?_pos=199&_sid=e047abc2f&_ss=r,LIMITED EDITION JD13 SNEAKERS,https://cdn.shopify.com/s/files/1/0280/6408/8138/products/ClevelandIndians2.jpg?v=1599123924
https://thamotee.com/products/snea153?_pos=200&_sid=e047abc2f&_ss=r,LIMITED EDITION JD13 SNEAKERS,https://cdn.shopify.com/s/files/1/0280/6408/8138/products/ChicagoWhiteSox2.jpg?v=1599122613
https://thamotee.com/products/sne103?_pos=201&_sid=e047abc2f&_ss=r,LIMITED EDITION JD13 SNEAKERS,https://cdn.shopify.com/s/files/1/0280/6408/8138/products/AlabamaCrimsonTide2_41828c66-b9cb-46db-8f64-37bd3306c043.jpg?v=1599122572
https://thamotee.com/products/aws151trr?_pos=202&_sid=e047abc2f&_ss=r,LIMITED EDITION JD13 SNEAKERS,https://cdn.shopify.com/s/files/1/0280/6408/8138/products/TampaBayRays2.jpg?v=1599122470
https://thamotee.com/products/kjk150jkh?_pos=203&_sid=e047abc2f&_ss=r,LIMITED EDITION JD13 SNEAKERS,https://cdn.shopify.com/s/files/1/0280/6408/8138/products/NewYorkYankees2_6758356e-cd5f-44e8-87b9-639487408803.jpg?v=1599122336
https://thamotee.com/products/snea149?_pos=204&_sid=e047abc2f&_ss=r,LIMITED EDITION JD13 SNEAKERS,https://cdn.shopify.com/s/files/1/0280/6408/8138/products/BostonRedSox2_d9dcd196-75d9-454d-87e9-4fe7622dd71f.jpg?v=1599121374
https://thamotee.com/products/sne148?_pos=205&_sid=e047abc2f&_ss=r,LIMITED EDITION JD13 SNEAKERS,https://cdn.shopify.com/s/files/1/0280/6408/8138/products/BaltimoreOrioles2.jpg?v=1599121207
https://thamotee.com/products/ghg130hjh?_pos=206&_sid=e047abc2f&_ss=r,LIMITED EDITION JD13 SNEAKERS,https://cdn.shopify.com/s/files/1/0280/6408/8138/products/3108-JD13footballOaklandRaiders1.jpg?v=1599119721
https://thamotee.com/products/uyt123tyt?_pos=207&_sid=e047abc2f&_ss=r,LIMITED EDITION JD13 SNEAKERS,https://cdn.shopify.com/s/files/1/0280/6408/8138/products/3108-JD13footballPittsburghSteelers1.jpg?v=1599119575
https://thamotee.com/products/yuy146uiu?_pos=208&_sid=e047abc2f&_ss=r,LIMITED EDITION JD13 SNEAKERS,https://cdn.shopify.com/s/files/1/0280/6408/8138/products/3108-JD13footballSanFrancisco49ers1.jpg?v=1599119367
https://thamotee.com/products/dad132erf?_pos=209&_sid=e047abc2f&_ss=r,LIMITED EDITION JD13 SNEAKERS,https://cdn.shopify.com/s/files/1/0280/6408/8138/products/3108-JD13footballDallasCowboy1.jpg?v=1599119124
https://thamotee.com/products/snea135n?_pos=210&_sid=e047abc2f&_ss=r,LIMITED EDITION JD13 SNEAKERS,https://cdn.shopify.com/s/files/1/0280/6408/8138/products/washingtonnew1.jpg?v=1599104012
https://thamotee.com/products/jd199sneak?_pos=211&_sid=e047abc2f&_ss=r,LIMITED EDITION JD13 SNEAKERS,https://cdn.shopify.com/s/files/1/0280/6408/8138/products/St.LouisBlues1-BELLA.jpg?v=1598701329
https://thamotee.com/products/jd192sneak?_pos=212&_sid=e047abc2f&_ss=r,LIMITED EDITION JD13 SNEAKERS,https://cdn.shopify.com/s/files/1/0280/6408/8138/products/PittsburghPenguins1-BELLA.jpg?v=1598701162
https://thamotee.com/products/jd191sneak?_pos=213&_sid=e047abc2f&_ss=r,LIMITED EDITION JD13 SNEAKERS,https://cdn.shopify.com/s/files/1/0280/6408/8138/products/PhiladelphiaFlyers1-BELLA.jpg?v=1598700929
https://thamotee.com/products/jd178sneak?_pos=214&_sid=e047abc2f&_ss=r,LIMITED EDITION JD13 SNEAKERS,https://cdn.shopify.com/s/files/1/0280/6408/8138/products/BostonBruins1-BELLA.jpg?v=1598699909
https://thamotee.com/products/jd167snaeka?_pos=215&_sid=e047abc2f&_ss=r,LIMITED EDITION JD13 SNEAKERS,https://cdn.shopify.com/s/files/1/0280/6408/8138/products/2608-JD13WashingtonNationals2.jpg?v=1598865159
https://thamotee.com/products/jd165sneaka?_pos=216&_sid=e047abc2f&_ss=r,LIMITED EDITION JD13 SNEAKERS,https://cdn.shopify.com/s/files/1/0280/6408/8138/products/2108-JD13NewYorkMets2.jpg?v=1598865102
https://thamotee.com/products/jd168sneak?_pos=217&_sid=e047abc2f&_ss=r,LIMITED EDITION JD13 SNEAKERS,https://cdn.shopify.com/s/files/1/0280/6408/8138/products/2608-JD13Chicagocubs2.jpg?v=1598865206
https://thamotee.com/products/jd149sneak?_pos=218&_sid=e047abc2f&_ss=r,LIMITED EDITION JD13 SNEAKERS,https://cdn.shopify.com/s/files/1/0280/6408/8138/products/2608-JD13Boston1.jpg?v=1598865206
https://thamotee.com/products/jsn288c?_pos=219&_sid=e047abc2f&_ss=r,LIMITED EDITION JD13 SNEAKERS,https://cdn.shopify.com/s/files/1/0280/6408/8138/products/0815D-CANNABISSHOES2_893597e2-9194-4546-b910-a484e66a9bf1.jpg?v=1598610304
https://thamotee.com/products/jsn135?_pos=220&_sid=e047abc2f&_ss=r,LIMITED EDITION JD13 SNEAKERS,https://cdn.shopify.com/s/files/1/0280/6408/8138/products/WashingtonRedskins2_b178e41c-6543-4c6e-8e19-39c4b4f7b669.jpg?v=1598610296
https://thamotee.com/products/jsn134?_pos=221&_sid=e047abc2f&_ss=r,LIMITED EDITION JD13 SNEAKERS,https://cdn.shopify.com/s/files/1/0280/6408/8138/products/PhiladelphiaEagles1_bb57ab25-5875-4e5d-be7a-8e9cc32cb86b.jpg?v=1598610264
https://thamotee.com/products/jsn132?_pos=222&_sid=e047abc2f&_ss=r,LIMITED EDITION JD13 SNEAKERS,https://cdn.shopify.com/s/files/1/0280/6408/8138/products/0815DCOWBOYS1_b81cd32c-4fac-4a4c-a929-297a7632c719.jpg?v=1598610254
https://thamotee.com/products/jd144acn?_pos=223&_sid=e047abc2f&_ss=r,LIMITED EDITION JD13 SNEAKERS,https://cdn.shopify.com/s/files/1/0280/6408/8138/products/ArizonaCardinals1_37d60cbc-edc2-4c46-ba61-073c998097c1.jpg?v=1598426891
https://thamotee.com/products/kjd116hga?_pos=224&_sid=e047abc2f&_ss=r,LIMITED EDITION JD13 SNEAKERS,https://cdn.shopify.com/s/files/1/0280/6408/8138/products/BuffaloBills1_5f607522-7a81-4585-b83b-026e31d220cf.jpg?v=1598417049
https://thamotee.com/products/snea319?_pos=225&_sid=e047abc2f&_ss=r,LIMITED EDITION JD13 SNEAKERS,https://cdn.shopify.com/s/files/1/0280/6408/8138/products/NewOrleansPelicans2.jpg?v=1598415680
https://thamotee.com/products/snea320?_pos=226&_sid=e047abc2f&_ss=r,LIMITED EDITION JD13 SNEAKERS,https://cdn.shopify.com/s/files/1/0280/6408/8138/products/NEWYORKKNICKS2.jpg?v=1598415685
https://thamotee.com/products/snea314?_pos=227&_sid=e047abc2f&_ss=r,LIMITED EDITION JD13 SNEAKERS,https://cdn.shopify.com/s/files/1/0280/6408/8138/products/LOSANGELESLAKERS2.jpg?v=1598415933
https://thamotee.com/products/snea328?_pos=228&_sid=e047abc2f&_ss=r,LIMITED EDITION JD13 SNEAKERS,https://cdn.shopify.com/s/files/1/0280/6408/8138/products/TORONTORAPTORS2.jpg?v=1598416043
https://thamotee.com/products/snea323?_pos=229&_sid=e047abc2f&_ss=r,LIMITED EDITION JD13 SNEAKERS,https://cdn.shopify.com/s/files/1/0280/6408/8138/products/PHILADELPHIA76ERS2.jpg?v=1598416047
https://thamotee.com/products/snea327?_pos=230&_sid=e047abc2f&_ss=r,LIMITED EDITION JD13 SNEAKERS,https://cdn.shopify.com/s/files/1/0280/6408/8138/products/SANANTONIOSPURS2.jpg?v=1598416098
https://thamotee.com/products/snea310?_pos=231&_sid=e047abc2f&_ss=r,LIMITED EDITION JD13 SNEAKERS,https://cdn.shopify.com/s/files/1/0280/6408/8138/products/GOLDENSTATEWARRIOR2.jpg?v=1598416152
https://thamotee.com/products/snea046?_pos=232&_sid=e047abc2f&_ss=r,LIMITED EDITION JD13 SNEAKERS,https://cdn.shopify.com/s/files/1/0280/6408/8138/products/ohiostate2_490d582f-3dd5-4e99-9e1b-0633f1025b17.jpg?v=1598416170
https://thamotee.com/products/snea020?_pos=233&_sid=e047abc2f&_ss=r,LIMITED EDITION JD13 SNEAKERS,https://cdn.shopify.com/s/files/1/0280/6408/8138/products/northcarolinatarheels2_bbbbc2c7-000f-4244-875d-fb09640136a5.jpg?v=1598416314
https://thamotee.com/products/snea106?_pos=234&_sid=e047abc2f&_ss=r,LIMITED EDITION JD13 SNEAKERS,https://cdn.shopify.com/s/files/1/0280/6408/8138/products/floridagators2_d61230ac-087c-49ad-8f3f-347d15c95b48.jpg?v=1598416317
https://thamotee.com/products/snea103?_pos=235&_sid=e047abc2f&_ss=r,LIMITED EDITION JD13 SNEAKERS,https://cdn.shopify.com/s/files/1/0280/6408/8138/products/AlabamaCrimsonTide2_eafbbc08-5190-4e7e-af5c-63ee12e237b0.jpg?v=1598416426
https://thamotee.com/products/snea158?_pos=236&_sid=e047abc2f&_ss=r,LIMITED EDITION JD13 SNEAKERS,https://cdn.shopify.com/s/files/1/0280/6408/8138/products/HoustonAstrosa_ff80f0d4-ba51-4ced-868a-41b8a090a5df.jpg?v=1598416443
https://thamotee.com/products/snea167?_pos=237&_sid=e047abc2f&_ss=r,LIMITED EDITION JD13 SNEAKERS,https://cdn.shopify.com/s/files/1/0280/6408/8138/products/washingtonnationals2.jpg?v=1598416559
https://thamotee.com/products/snea150?_pos=238&_sid=e047abc2f&_ss=r,LIMITED EDITION JD13 SNEAKERS,https://cdn.shopify.com/s/files/1/0280/6408/8138/products/newyorkyankees2_c4acce92-97bd-473f-88bf-59df053b3c42.jpg?v=1598416577
https://thamotee.com/products/snea157?_pos=239&_sid=e047abc2f&_ss=r,LIMITED EDITION JD13 SNEAKERS,https://cdn.shopify.com/s/files/1/0280/6408/8138/products/minnesotatwins2.jpg?v=1598416596
https://thamotee.com/products/snea169?_pos=240&_sid=e047abc2f&_ss=r,LIMITED EDITION JD13 SNEAKERS,https://cdn.shopify.com/s/files/1/0280/6408/8138/products/CincinnatiReds2.jpg?v=1598416615
https://thamotee.com/products/snea168?_pos=241&_sid=e047abc2f&_ss=r,LIMITED EDITION JD13 SNEAKERS,https://cdn.shopify.com/s/files/1/0280/6408/8138/products/chicagocubs2_282ecfcb-1567-4284-b1bb-1d44901079da.jpg?v=1598416636
https://thamotee.com/products/snea163?_pos=242&_sid=e047abc2f&_ss=r,LIMITED EDITION JD13 SNEAKERS,https://cdn.shopify.com/s/files/1/0280/6408/8138/products/AtlantaBraves2.jpg?v=1598416657
https://thamotee.com/products/snea311?_pos=243&_sid=e047abc2f&_ss=r,LIMITED EDITION JD13 SNEAKERS,https://cdn.shopify.com/s/files/1/0280/6408/8138/products/HOUSTONROCKET2.jpg?v=1598417141
https://thamotee.com/products/sne139?_pos=244&_sid=e047abc2f&_ss=r,LIMITED EDITION JD13 SNEAKERS,https://cdn.shopify.com/s/files/1/0280/6408/8138/products/MinnesotaVikings1_00d84c75-b45e-4aa9-a067-ba03fae2ade8.jpg?v=1598426129
https://thamotee.com/products/sne137?_pos=245&_sid=e047abc2f&_ss=r,LIMITED EDITION JD13 SNEAKERS,https://cdn.shopify.com/s/files/1/0280/6408/8138/products/DetroitLions2_afed3d73-5f61-47ef-8aa5-935385a61500.jpg?v=1598426042
https://thamotee.com/products/sne131?_pos=246&_sid=e047abc2f&_ss=r,LIMITED EDITION JD13 SNEAKERS,https://cdn.shopify.com/s/files/1/0280/6408/8138/products/LosAngelesChargers1_21ee3091-57a4-482e-83df-66c7b41e8a52.jpg?v=1598418438
https://thamotee.com/products/sn132o?_pos=247&_sid=e047abc2f&_ss=r,LIMITED EDITION JD13 SNEAKERS,https://cdn.shopify.com/s/files/1/0280/6408/8138/products/0815DCOWBOYS1_4fdd9e3b-1d43-4ec8-bafe-0970e50a22b6.jpg?v=1605167149
https://thamotee.com/products/snea135?_pos=248&_sid=e047abc2f&_ss=r,LIMITED EDITION JD13 SNEAKERS,https://cdn.shopify.com/s/files/1/0280/6408/8138/products/WashingtonRedskins2_b1f7d785-657f-4e96-a0b7-c02e2f9f5dba.jpg?v=1598418854
https://thamotee.com/products/sne127?_pos=249&_sid=e047abc2f&_ss=r,LIMITED EDITION JD13 SNEAKERS,https://cdn.shopify.com/s/files/1/0280/6408/8138/products/TennesseeTitans1_36541eee-6a19-4e9a-b31b-b75454cb3fe7.jpg?v=1598418014
https://thamotee.com/products/sn134o?_pos=250&_sid=e047abc2f&_ss=r,LIMITED EDITION JD13 SNEAKERS,https://cdn.shopify.com/s/files/1/0280/6408/8138/products/phila.jpg?v=1602834374
https://thamotee.com/products/sn117o?_pos=251&_sid=e047abc2f&_ss=r,LIMITED EDITION JD13 SNEAKERS,https://cdn.shopify.com/s/files/1/0280/6408/8138/products/MiamiDolphins1_3fad047d-5ad4-4394-b352-1eb9214bd9fc.jpg?v=1605167320
https://thamotee.com/products/snea175?_pos=252&_sid=e047abc2f&_ss=r,LIMITED EDITION JD13 SNEAKERS,https://cdn.shopify.com/s/files/1/0280/6408/8138/products/LosAngelesDodgers1_4a58df57-6e75-4a2a-8152-b5967f5744d5.jpg?v=1598417117
https://thamotee.com/products/snea208?_pos=253&_sid=e047abc2f&_ss=r,LIMITED EDITION JD13 SNEAKERS,https://cdn.shopify.com/s/files/1/0280/6408/8138/products/0815D-CANNABISSHOES2_df8e89f9-8c55-4de3-8717-0c19b9c7ed2d.jpg?v=1598415312
https://thamotee.com/products/jd147ss?_pos=254&_sid=e047abc2f&_ss=r,LIMITED EDITION JD13 SNEAKERS,https://cdn.shopify.com/s/files/1/0280/6408/8138/products/SeattleSeahawks1_a73b865a-ac24-40e5-8aae-c55ed93eb8ca.jpg?v=1598426609
https://thamotee.com/products/jd145lar?_pos=255&_sid=e047abc2f&_ss=r,LIMITED EDITION JD13 SNEAKERS,https://cdn.shopify.com/s/files/1/0280/6408/8138/products/LosAngelesRams1_63adc4ca-8901-41f6-804e-2950e3169383.jpg?v=1598426504
https://thamotee.com/products/jd143tbb?_pos=256&_sid=e047abc2f&_ss=r,LIMITED EDITION JD13 SNEAKERS,https://cdn.shopify.com/s/files/1/0280/6408/8138/products/TampaBayBuccaneers1_0fc03ab6-b2ab-4f80-a85c-da537403fc0c.jpg?v=1598426484
https://thamotee.com/products/jd142nos?_pos=257&_sid=e047abc2f&_ss=r,LIMITED EDITION JD13 SNEAKERS,https://cdn.shopify.com/s/files/1/0280/6408/8138/products/NewOrleansSaints1_ff7c8647-86e1-4a43-a741-0a12d92ac552.jpg?v=1598426459
https://thamotee.com/products/jd141c?_pos=258&_sid=e047abc2f&_ss=r,LIMITED EDITION JD13 SNEAKERS,https://cdn.shopify.com/s/files/1/0280/6408/8138/products/CarolinaPanthers1_97934053-598e-46f1-80b7-3fedccde90f5.jpg?v=1598426430
https://thamotee.com/products/jd140a?_pos=259&_sid=e047abc2f&_ss=r,LIMITED EDITION JD13 SNEAKERS,https://cdn.shopify.com/s/files/1/0280/6408/8138/products/AtlantaFalcons1_6b9f92bf-fbd3-4e78-8b6d-8bbdc51f20d8.jpg?v=1598426410
https://thamotee.com/products/jd139ght?_pos=260&_sid=e047abc2f&_ss=r,LIMITED EDITION JD13 SNEAKERS,https://cdn.shopify.com/s/files/1/0280/6408/8138/products/MinnesotaVikings1_b7de9ea5-9dfb-40bf-b410-13743223786f.jpg?v=1598426100
https://thamotee.com/products/jd138gpker?_pos=261&_sid=e047abc2f&_ss=r,LIMITED EDITION JD13 SNEAKERS,https://cdn.shopify.com/s/files/1/0280/6408/8138/products/GreenBayPackers1_89e869be-a765-4eb7-8cef-e61ac8580d5e.jpg?v=1598426068
https://thamotee.com/products/jd137dl?_pos=262&_sid=e047abc2f&_ss=r,LIMITED EDITION JD13 SNEAKERS,https://cdn.shopify.com/s/files/1/0280/6408/8138/products/DetroitLions2_e08738fa-3eee-4c37-aa46-d004e0f79290.jpg?v=1598426015
https://thamotee.com/products/jd136ccb?_pos=263&_sid=e047abc2f&_ss=r,LIMITED EDITION JD13 SNEAKERS,https://cdn.shopify.com/s/files/1/0280/6408/8138/products/ChicagoBears1_9a495108-8708-4097-8bed-0707723b3066.jpg?v=1598418879
https://thamotee.com/products/jd130okrad?_pos=264&_sid=e047abc2f&_ss=r,LIMITED EDITION JD13 SNEAKERS,https://cdn.shopify.com/s/files/1/0280/6408/8138/products/OaklandRaiders1_e5e90fa7-1dbe-4da7-9b03-075bb1618b40.jpg?v=1598418412
https://thamotee.com/products/jd123nyg?_pos=265&_sid=e047abc2f&_ss=r,LIMITED EDITION JD13 SNEAKERS,https://cdn.shopify.com/s/files/1/0280/6408/8138/products/NewYorkGiants1_964ed780-0994-42cc-9381-9f56a6955b7a.jpg?v=1598418585
https://thamotee.com/products/jd131l?_pos=266&_sid=e047abc2f&_ss=r,LIMITED EDITION JD13 SNEAKERS,https://cdn.shopify.com/s/files/1/0280/6408/8138/products/LosAngelesChargers1_71cda463-a1f4-48c8-8f46-b099ff9359c8.jpg?v=1598418469
https://thamotee.com/products/jd128dbro?_pos=267&_sid=e047abc2f&_ss=r,LIMITED EDITION JD13 SNEAKERS,https://cdn.shopify.com/s/files/1/0280/6408/8138/products/DenverBroncos1_b1bc1a62-bdca-44d3-a9aa-3a17d0f7cab0.jpg?v=1598418216
https://thamotee.com/products/jd127t?_pos=268&_sid=e047abc2f&_ss=r,LIMITED EDITION JD13 SNEAKERS,https://cdn.shopify.com/s/files/1/0280/6408/8138/products/TennesseeTitans1_9a89ec55-f508-46f2-85f1-082c1551cef6.jpg?v=1598418033
https://thamotee.com/products/jd126jj?_pos=269&_sid=e047abc2f&_ss=r,LIMITED EDITION JD13 SNEAKERS,https://cdn.shopify.com/s/files/1/0280/6408/8138/products/JacksonvilleJaguars1_173bf6b3-d2df-4e69-a298-09cd0d3b3f5a.jpg?v=1598417956
https://thamotee.com/products/jd125icos?_pos=270&_sid=e047abc2f&_ss=r,LIMITED EDITION JD13 SNEAKERS,https://cdn.shopify.com/s/files/1/0280/6408/8138/products/IndianapolisColts1_4b1b22d0-7ecd-499f-aafa-8dbcb5510f80.jpg?v=1598417893
https://thamotee.com/products/jd124hth?_pos=271&_sid=e047abc2f&_ss=r,LIMITED EDITION JD13 SNEAKERS,https://cdn.shopify.com/s/files/1/0280/6408/8138/products/HoustonTexans1_81168be5-0ea3-438f-907d-894eec6feb9f.jpg?v=1598417805
https://thamotee.com/products/jd121cbh?_pos=272&_sid=e047abc2f&_ss=r,LIMITED EDITION JD13 SNEAKERS,https://cdn.shopify.com/s/files/1/0280/6408/8138/products/CincinnatiBengals1_e91f33ec-9526-402d-8682-22c215cb0293.jpg?v=1598417471
https://thamotee.com/products/jd120brh?_pos=273&_sid=e047abc2f&_ss=r,LIMITED EDITION JD13 SNEAKERS,https://cdn.shopify.com/s/files/1/0280/6408/8138/products/BaltimoreRavens1_cf181270-dd00-414f-9aff-41729407d7b3.jpg?v=1598417416
https://thamotee.com/products/jd119ny?_pos=274&_sid=e047abc2f&_ss=r,LIMITED EDITION JD13 SNEAKERS,https://cdn.shopify.com/s/files/1/0280/6408/8138/products/NewYorkJets1_6a80fb61-4d20-48bb-bcb5-b39c6cde8aab.jpg?v=1598417365
https://thamotee.com/products/jd118neph?_pos=275&_sid=e047abc2f&_ss=r,LIMITED EDITION JD13 SNEAKERS,https://cdn.shopify.com/s/files/1/0280/6408/8138/products/NewEnglandPatriots1_829ac30a-c0ed-4123-b52c-062018fac53e.jpg?v=1598417291
https://thamotee.com/products/jd122clbh?_pos=276&_sid=e047abc2f&_ss=r,LIMITED EDITION JD13 SNEAKERS,https://cdn.shopify.com/s/files/1/0280/6408/8138/products/ClevelandBrowns1_6b47a4b0-fad9-4d69-977b-be9eed9d45fe.jpg?v=1598417591
https://thamotee.com/products/jd117ght?_pos=277&_sid=e047abc2f&_ss=r,LIMITED EDITION JD13 SNEAKERS,https://cdn.shopify.com/s/files/1/0280/6408/8138/products/MiamiDolphins1_a2807b72-f9c0-49ed-8663-b5ebd9340607.jpg?v=1598417230
https://thamotee.com/products/jd116bbh?_pos=278&_sid=e047abc2f&_ss=r,LIMITED EDITION JD13 SNEAKERS,https://cdn.shopify.com/s/files/1/0280/6408/8138/products/BuffaloBills1_1ed77376-6a86-49ed-a358-c7529ea13e4e.jpg?v=1598417067
https://thamotee.com/products/jd13sks?_pos=279&_sid=e047abc2f&_ss=r,LIMITED EDITION JD13 SNEAKERS,https://cdn.shopify.com/s/files/1/0280/6408/8138/products/0815D-JACKSKELLINGTONSHOES2.jpg?v=1598415276
https://thamotee.com/products/cab13snek?_pos=280&_sid=e047abc2f&_ss=r,LIMITED EDITION JD13 SNEAKERS,https://cdn.shopify.com/s/files/1/0280/6408/8138/products/0815D-CANNABISSHOES2.jpg?v=1598415294
https://thamotee.com/products/snea129?_pos=281&_sid=e047abc2f&_ss=r,LIMITED EDITION JD13 SNEAKERS,https://cdn.shopify.com/s/files/1/0280/6408/8138/products/0815DCHIEFS2.jpg?v=1598418320
https://thamotee.com/products/snea146?_pos=282&_sid=e047abc2f&_ss=r,LIMITED EDITION JD13 SNEAKERS,https://cdn.shopify.com/s/files/1/0280/6408/8138/products/0815D49ERS2.jpg?v=1598426574
https://thamotee.com/products/snea123?_pos=283&_sid=e047abc2f&_ss=r,LIMITED EDITION JD13 SNEAKERS,https://cdn.shopify.com/s/files/1/0280/6408/8138/products/0815DSTEELERS2.jpg?v=1598418354
https://thamotee.com/products/jd138gbps?_pos=284&_sid=e047abc2f&_ss=r,LIMITED EDITION JD13 SNEAKERS,https://cdn.shopify.com/s/files/1/0280/6408/8138/products/GreenBayPackers2_31a31d28-350b-4d62-8d2b-0258c4edf4ef.jpg?v=1597406008
https://thamotee.com/products/jd124hts?_pos=285&_sid=e047abc2f&_ss=r,LIMITED EDITION JD13 SNEAKERS,https://cdn.shopify.com/s/files/1/0280/6408/8138/products/HoustonTexans2_768b8f64-faaf-42e1-b873-f8b87f77fb10.jpg?v=1597406002
https://thamotee.com/products/jd123pss?_pos=286&_sid=e047abc2f&_ss=r,LIMITED EDITION JD13 SNEAKERS,https://cdn.shopify.com/s/files/1/0280/6408/8138/products/PittsburghSteelers2_369ac1bb-9768-4edb-984d-d55c0bd1637a.jpg?v=1597405998
https://thamotee.com/products/jd132dcs?_pos=287&_sid=e047abc2f&_ss=r,LIMITED EDITION JD13 SNEAKERS,https://cdn.shopify.com/s/files/1/0280/6408/8138/products/DallasCowboys2_db33924a-ed7f-4d64-83f6-b57eeb26792e.jpg?v=1597405992
https://thamotee.com/products/jd146sfc?_pos=288&_sid=e047abc2f&_ss=r,LIMITED EDITION JD13 SNEAKERS,https://cdn.shopify.com/s/files/1/0280/6408/8138/products/SanFrancisco49ers2_83dca214-9fe3-4c55-972d-d0991fdc83ce.jpg?v=1597405988
https://thamotee.com/products/jd13mv139?_pos=289&_sid=e047abc2f&_ss=r,LIMITED EDITION JD13 SNEAKERS,https://cdn.shopify.com/s/files/1/0280/6408/8138/products/MinnesotaVikings2_933ccb8e-6b88-445c-98d6-a64d1a768ccc.jpg?v=1598499640
https://thamotee.com/products/jd13lar145?_pos=290&_sid=e047abc2f&_ss=r,LIMITED EDITION JD13 SNEAKERS,https://cdn.shopify.com/s/files/1/0280/6408/8138/products/LosAngelesRams1_e544d6c5-b562-42c8-8aeb-11cefb41ebc6.jpg?v=1598417911
https://thamotee.com/products/jd13sf146?_pos=291&_sid=e047abc2f&_ss=r,LIMITED EDITION JD13 SNEAKERS,https://cdn.shopify.com/s/files/1/0280/6408/8138/products/SanFrancisco49ers1_4efdb6f4-fc1f-4708-b3f8-5d8e5e7c87f2.jpg?v=1598417902
https://thamotee.com/products/jd13nos142?_pos=292&_sid=e047abc2f&_ss=r,LIMITED EDITION JD13 SNEAKERS,https://cdn.shopify.com/s/files/1/0280/6408/8138/products/NewOrleansSaints2_5eb2d4b9-7406-4af8-934d-929364b127d7.jpg?v=1598417870
https://thamotee.com/products/jd13gbp138?_pos=293&_sid=e047abc2f&_ss=r,LIMITED EDITION JD13 SNEAKERS,https://cdn.shopify.com/s/files/1/0280/6408/8138/products/GreenBayPackers1_73877939-28c1-41fc-b874-a24c57d9b50d.jpg?v=1598417921
https://thamotee.com/products/jd13dl137?_pos=294&_sid=e047abc2f&_ss=r,LIMITED EDITION JD13 SNEAKERS,https://cdn.shopify.com/s/files/1/0280/6408/8138/products/LosAngelesChargers1_5b1d9236-63e7-4a7e-8f70-ec7ea091f072.jpg?v=1598418168
https://thamotee.com/products/jd136be?_pos=295&_sid=e047abc2f&_ss=r,LIMITED EDITION JD13 SNEAKERS,https://cdn.shopify.com/s/files/1/0280/6408/8138/products/ChicagoBears1_8eee6be9-6383-434e-8702-a92bc2d7390f.jpg?v=1598418155
https://thamotee.com/products/jd135re?_pos=296&_sid=e047abc2f&_ss=r,LIMITED EDITION JD13 SNEAKERS,https://cdn.shopify.com/s/files/1/0280/6408/8138/products/WashingtonRedskins1_be99d44e-dc6a-46db-b83d-4ef7ee2a45fc.jpg?v=1598418131
https://thamotee.com/products/jd131ch?_pos=297&_sid=e047abc2f&_ss=r,LIMITED EDITION JD13 SNEAKERS,https://cdn.shopify.com/s/files/1/0280/6408/8138/products/LosAngelesChargers1_3cd92ccc-45cb-47bc-8239-893f2a1bf793.jpg?v=1598418122
https://thamotee.com/products/jd133gi?_pos=298&_sid=e047abc2f&_ss=r,LIMITED EDITION JD13 SNEAKERS,https://cdn.shopify.com/s/files/1/0280/6408/8138/products/NewYorkGiants1_27402b7d-4cd3-487f-83ed-691b83f107d5.jpg?v=1598418106
https://thamotee.com/products/jd129ka?_pos=299&_sid=e047abc2f&_ss=r,LIMITED EDITION JD13 SNEAKERS,https://cdn.shopify.com/s/files/1/0280/6408/8138/products/KansascityChiefs1_5d8bbd77-0567-4c95-876f-aca0cc7be701.jpg?v=1598417995
https://thamotee.com/products/jd128de?_pos=300&_sid=e047abc2f&_ss=r,LIMITED EDITION JD13 SNEAKERS,https://cdn.shopify.com/s/files/1/0280/6408/8138/products/DenverBroncos1_22c7ade4-0b24-4fe5-b404-d5c745d21dff.jpg?v=1598417990
https://thamotee.com/products/jd132dc?_pos=301&_sid=e047abc2f&_ss=r,LIMITED EDITION JD13 SNEAKERS,https://cdn.shopify.com/s/files/1/0280/6408/8138/products/0730-ST1AIRJD13-DallasCowboys1.jpg?v=1598418723
https://thamotee.com/products/jd130or?_pos=302&_sid=e047abc2f&_ss=r,LIMITED EDITION JD13 SNEAKERS,https://cdn.shopify.com/s/files/1/0280/6408/8138/products/0730-ST1AIRJD13-OaklandRaiders1.jpg?v=1598418378
https://thamotee.com/products/jd116bb?_pos=303&_sid=e047abc2f&_ss=r,LIMITED EDITION JD13 SNEAKERS,https://cdn.shopify.com/s/files/1/0280/6408/8138/products/0730-ST1AIRJD13-BuffaloBills1.jpg?v=1598418720
https://thamotee.com/products/jd020nct?_pos=304&_sid=e047abc2f&_ss=r,LIMITED EDITION JD13 SNEAKERS,https://cdn.shopify.com/s/files/1/0280/6408/8138/products/0730-ST1AIRJD13-NorthCarolinaTarHeels1.jpg?v=1598418291
https://thamotee.com/products/jd046osb?_pos=305&_sid=e047abc2f&_ss=r,LIMITED EDITION JD13 SNEAKERS,https://cdn.shopify.com/s/files/1/0280/6408/8138/products/0730-ST1AIRJD13-Ohio1.jpg?v=1598418225
